Line	MessageNo	File Name
0	1	mikroCPIC1618.exe -MSF -DBG -pP16F917 -DL -O11111114 -fo8 -N"D:\studenti\4493\Gauca Ionut\Semafor.mcppi" -SP"C:\Program Files\Mikroelektronika\mikroC PRO for PIC\defs\" -SP"C:\Program Files\Mikroelektronika\mikroC PRO for PIC\Uses\P16\" -SP"D:\studenti\4493\Gauca Ionut\" "Semafor.c" "__Lib_Math.mcl" "__Lib_MathDouble.mcl" "__Lib_System.mcl" "__Lib_Delays.mcl" "__Lib_CType.mcl" "__Lib_CString.mcl" "__Lib_CStdlib.mcl" "__Lib_CMath.mcl" "__Lib_Conversions.mcl" "__Lib_Sprinti.mcl" "__Lib_Sprintl.mcl" "__Lib_Time.mcl" "__Lib_Trigonometry.mcl" "__Lib_Button.mcl" "__Lib_Keypad4x4.mcl" "__Lib_Manchester.mcl" "__Lib_OneWire.mcl" "__Lib_PS2.mcl" "__Lib_Sound.mcl" "__Lib_SoftI2C.mcl" "__Lib_SoftSPI.mcl" "__Lib_SoftUART.mcl" "__Lib_ADC_A_B.mcl" "__Lib_EEPROM.mcl" "__Lib_FLASH_R.mcl" "__Lib_PWM_c5d2.mcl" "__Lib_SPI_c674.mcl" "__Lib_UART_c67.mcl" "__Lib_PortExpander.mcl" "__Lib_CANSPI.mcl" "__Lib_CF.mcl" "__Lib_GlcdFonts.mcl" "__Lib_Glcd.mcl" "__Lib_LcdConsts.mcl" "__Lib_Lcd.mcl" "__Lib_RS485.mcl" "__Lib_T6963C.mcl" "__Lib_SPIGlcd.mcl" "__Lib_SPILcd.mcl" "__Lib_SPILcd8.mcl" "__Lib_SPIT6963C.mcl" "__Lib_EthEnc28j60.mcl"	 
diagnostics: 0	125	All files Preprocessed in 15 ms	 
diagnostics: 0	121	Compilation Started	Semafor.c
diagnostics: 52	122	Compiled Successfully	Semafor.c
diagnostics: 0	126	All files Compiled in 94 ms	 
hint: 0	1140	Used RAM (bytes): 3 (1%)  Free RAM (bytes): 333 (99%)	Used RAM (bytes): 3 (1%)  Free RAM (bytes): 333 (99%)
hint: 0	1140	Used ROM (program words): 357 (4%)  Free ROM (program words): 7835 (96%)	Used ROM (program words): 357 (4%)  Free ROM (program words): 7835 (96%)
diagnostics: 0	124	Project Linked Successfully	Semafor.mcppi
diagnostics: 0	127	Linked in 719 ms	 
diagnostics: 0	128	Project 'Semafor.mcppi' completed: 1281 ms	 
diagnostics: 0	103	Finished successfully: 22 Mar 2012, 18:26:43	Semafor.mcppi
