:0A000000942F00000000000000280B
:10000A000230FC00C830FD00FD0B0928FC0B092852
:02001A000800DC
:0E001C000330FD00FD0B10280000000008005E
:02002A000800CC
:0E002C008312031321088A00200882000800B6
:10003A00831203134D08393C031C2A2830304D0221
:0E004A00031C2A280130F0002B28F0010800CA
:1000580083120313CD1B32288611332886154D1BB6
:100068003728061138280615CD1A3C2886103D2851
:1000780086144D1A41280610422806142B184628C3
:10008800061647280612861615208612CD194E2800
:1000980086114F2886154D19532806115428061520
:1000A800CD1858288610592886144D185D28061032
:1000B8005E2806142B186228061663280612861670
:1000C800152086122B1C6A2805206B280E20080094
:1000D800882883120313A315CD0A0319CE0AC5284D
:1000E8002314CD0A0319CE0AC528A314CD0A03196F
:1000F800CE0AC528A415CD0A0319CE0AC52823158A
:10010800CD0A0319CE0AC5284D08A0004E08A10043
:1001180016208A110A12F10071082D3A03196D2868
:100128004D08A0004E08A10016208A110A12F100FD
:100138007108203A031974284D08A0004E08A10040
:1001480016208A110A12F10071082B3A031979282E
:100158004D08A0004E08A10016208A110A12F100CD
:100168007108233A03197E284D08A0004E08A10003
:1001780016208A110A12F1007108303A03198328EF
:10018800C6286C28A31CC9282310A31DCC2823111A
:0A0198004D08F0004E08F1000800C9
:1001A20083120313FB01FA01F9018030F800F10C0C
:1001B200F00C031CE5287408F90775080318750F7D
:1001C200FA070318FB0A0310F01FED287408FA0758
:1001D20075080318750FFB07FB0CFA0CF90CF80CE9
:1001E200031CD8287B08F3007A08F2007908F10092
:0601F2007808F00008008F
:1001F80083120313231D5729A31C1229231C072923
:100208002D30F00009292B30F0004D0884007008CB
:100218008000CD0AA90A0319AA0A4229231C1D290C
:100228004D08840020308000CD0AA90A0319AA0AC3
:100238004229C0302305F10024080839F200720869
:10024800083A031D292980307106031D42294D08EB
:10025800840030308000CD0AA90A0319AA0AA31E17
:1002680038295830F0003A297830F0004D088400D9
:1002780070088000CD0AA90A0319AA0A27082804C9
:10028800031956294D08840030308000CD0AA90A88
:100298000319AA0A0130A702031CA8032708280487
:1002A800031D4629C5292708280403196D29A31900
:1002B8006D294D08840020308000CD0AA90A031951
:1002C800AA0A0130A702031CA80327082804031D53
:1002D8005D29A31C7F29231C74292D30F000762961
:1002E8002B30F0004D08840070088000CD0AA90A60
:1002F8000319AA0A8929231C89294D08840020305A
:100308008000CD0AA90A0319AA0AC0302305F10002
:1003180024080839F2007208083A031D952940306C
:100328007106031DA0294D08840030308000CD0AD5
:10033800A90A0319AA0AC529C0302305F10024080F
:100348000839F2007208083A031DAC29803071069A
:10035800031DC5294D08840030308000CD0AA90A44
:100368000319AA0AA31EBB295830F000BD2978300A
:10037800F0004D08840070088000CD0AA90A03190E
:10038800AA0A8030F000803026067002031DCE29AC
:10039800250822020318D9294D088400303080002E
:1003A800CD0AA90A0319AA0AC5294D08F0000800B0
:1003B80083120313F801F9011030FC00710DF80DD8
:1003C800F90D7408F8027508031C750FF902031873
:1003D800F4297408F80775080318750FF90703104E
:0A03E800F00DF10DFC0BE2290800F6
:1003F200831203132B104008CD002C202B1408006D
:1004020083120313A901AA01A301A4014108F00068
:100412004208F100C10A0319C20A7008A00071085B
:10042200A10016208A110A12F0007008A2007008BA
:1004320003199B2E2208253A0319282A4008840012
:1004420022088000C00AA90A0319AA0A072AA701DA
:10045200A801A301A4014108CD004208CE006C20EE
:100462007008C1007108C2007008A0007108A100E4
:1004720016208A110A12F0000030F1007008CD0037
:100482001D2070080319772AA701A8012708F00088
:100492002808F1000A30F4000030F500D1204108AC
:1004A200A0004208A10016208A110A12F200720866
:1004B2007007A70071080318013EA8003030A70298
:1004C200031CA803C10A0319C20A4108A00042087A
:1004D200A10016208A110A12F0000030F100700803
:1004E200CD001D207008031D472A9A2A4108A0004A
:1004F2004208A10016208A110A12F10071082A3A54
:10050200031D9A2A430884000008F0007008840042
:100512000008A700840A0008A800430884000230EB
:100522000007F0004308840070088000C10A031924
:10053200C20A4108A0004208A10016208A110A122C
:10054200F10071082E3A031D002BC10A0319C20AD9
:100552004108A0004208A10016208A110A12F100E7
:1005620071082A3A031DCD2A430884000008F000CE
:10057200700884000008A500840A0008A600430849
:10058200840002300007F0004308840070088000F5
:10059200C10A0319C20AFF2AA501A6014108A00047
:1005A2004208A10016208A110A12F0000030F10060
:1005B2007008CD001D2070080319FF2A2508F000DD
:1005C2002608F1000A30F4000030F500D12041087D
:1005D200A0004208A10016208A110A12F200720835
:1005E2007007A50071080318013EA6003030A5026D
:1005F200031CA603C10A0319C20ACF2A022BA501B2
:10060200A6014108F0004208F100C10A0319C20A1A
:100612007008A0007108A10016208A110A12A20017
:10062200E32B2908F0002A08F10008002317102CF8
:10063200102CA316A317102C430884000008F00006
:10064200700884000008C40043088400000AF00017
:1006520043088400700880004408003A031D3C2BC4
:100662006E30C7007530C8006C30C9006C30CA00EB
:10067200CB014730C400C501C601450844078400C8
:1006820000080319512B4508013EF0000030031801
:10069200013E4607F1007008C5007108C6003E2BF6
:1006A200250826040319612B46082602031D5B2B2D
:1006B200450825020318612B2508C5002608C60037
:1006C20028084602031D672B270845020318702BD2
:1006D2004508A702031CA8034608A802722BA7011B
:1006E200A801A319892B2708F0002808F10001307E
:1006F200A702031CA803700871040319892B400880
:10070200840020308000C00AA90A0319AA0A742BA7
:100712004508F2004608F30001304502F0000030BF
:10072200031C013E4602F1007008C5007108C600B4
:10073200720873040319AE2B440884000008F00009
:100742004008840070088000C00A440AF000700863
:10075200C400A90A0319AA0A892BA31DC52B2708BD
:10076200F0002808F1000130A702031CA80370085A
:1007720071040319C52B4008840020308000C00A90
:10078200A90A0319AA0AB02B072A43088400000801
:10079200F000700884000008A200430884000230C0
:1007A2000007F00043088400700880002230C40073
:1007B2000130C5000030C600512BC030A304003008
:1007C200A404102C2208003A0319122B22086C3AB6
:1007D2000319172B22086F3A0319172B2208643AC0
:1007E2000319192B2208693A0319192B2208703AA6
:1007F20003191A2B2208583A03191A2B2208783A9D
:1008020003191B2B2208733A03191D2B2208633A82
:100812000319C62B2208753A0319DE2BD72BC030D9
:100822002305F1002408F2000030F20500307206C0
:10083200031D1D2C00307106031D4F2C430884003C
:100842000008F000700884000008C400840A000850
:10085200C5004308840002300007F000430884000A
:100862007008800080304506F00080307002031D61
:100872003C2C0030440203184E2C0330A3040030F9
:10088200A4044408003CF0004508031C013EF101A9
:10089200F1027008C4007108C500632C430884008B
:1008A2000008F000700884000008C400840A0008F0
:1008B200C5004308840002300007F00043088400AA
:1008C2007008800000302606031D692C00302506C2
:1008D200031D762C00304506031D712C00304406A2
:1008E200031D762CA50A0319A60AC0302305F000C1
:1008F2007008F400032D0130A2002208053A031902
:10090200A82C2208F000F101F00DF10D701000305A
:10091200F00708300318013EF1077008A0007108C3
:10092200A10016208A110A12F200A00A0319A10AD4
:1009320016208A110A12F30073084502031DA32C24
:10094200720844020318A62CA82CA20A7E2C132D8E
:100952000130A2002208043A0319D52C2208F00023
:10096200F101F00DF10D70100A30F0070830031894
:10097200013EF1077008A0007108A10016208A113B
:100982000A12F200A00A0319A10A16208A110A12F9
:10099200F30073084502031DD02C720844020318A9
:1009A200D32CD52CA20AAB2C132D0130A200220885
:1009B200063A0319022D2208F000F101F00DF10DA3
:1009C2007010EC30F00707300318013EF107700891
:1009D200A0007108A10016208A110A12F200A00AD2
:1009E2000319A10A16208A110A12F300730845029C
:1009F200031DFD2C720844020318002D022DA20AC9
:100A0200D82C132D7408003A03197C2C7408C03AB0
:100A120003197C2C7408803A0319A92C7408403AF3
:100A22000319D62C8030F000803026067002031D98
:100A32001C2D250822020318212D2508A2002F2D86
:100A420080302606F00080307002031D2A2D220815
:100A5200250203182F2D2208A500A6012708280425
:100A62000319422D03302305F0002408F100003061
:100A7200F105700871040319422D0130A702031C0D
:100A8200A80380302606F000803028067002031D7D
:100A92004C2D270825020318552D2508A702031CF3
:100AA200A8032608A802572DA701A801C4302305D0
:100AB200F10024080839F2007208083A031D632D78
:100AC20040307106031D6E2D2708280403196D2D71
:100AD2000130A702031CA8038E2DC0302305F100AC
:100AE20024080839F2007208083A031D7A2D803072
:100AF2007106031D8E2D8030F000803028067002B2
:100B0200031D852D2708023C03188C2D0230A702F5
:100B1200031CA8038E2DA701A8014008CD00FC20CC
:100B22007008C0002508F0002608F1000130A50277
:100B3200031CA6037008710403197D2EC03023051F
:100B4200F0007008CC00642E2508F0002608F100A1
:100B5200F00DF10D70100030F00708300318013E5F
:100B6200F1077008A0007108A10016208A110A126C
:100B7200F400A00A0319A10A16208A110A12F5002C
:100B82004408F0004508F100DC210A30F40000308E
:100B9200F500DC217808F0007908F10030307007A8
:100BA200A200742EA31E092E2508F0002608F100CB
:100BB200F00DF10D70100A30F00708300318013EF5
:100BC200F1077008A0007108A10016208A110A120C
:100BD200F400A00A0319A10A16208A110A12F500CC
:100BE2004408F0004508F100DC210F30F005003028
:100BF200F105CA30F00707300318013EF10770080B
:100C0200A0007108A10016208A110A12A2003C2E2F
:100C12002508F0002608F100F00DF10D70100A30E1
:100C2200F00708300318013EF1077008A0007108B0
:100C3200A10016208A110A12F400A00A0319A10ABF
:100C420016208A110A12F5004408F0004508F10046
:100C5200DC210F30F0050030F105DB30F007073002
:100C62000318013EF1077008A0007108A1001620C8
:100C72008A110A12A200742E2508F0002608F1003B
:100C8200F00DF10D7010EC30F00707300318013E43
:100C9200F1077008A0007108A10016208A110A123B
:100CA200F400A00A0319A10A16208A110A12F500FB
:100CB2004408F0004508F100DC2107307005A2006D
:100CC2003030A207742E4C08003A0319A52D4C08A7
:100CD200C03A0319A52D4C08803A0319D32D4C08AC
:100CE200403A03193D2E4008840022088000C00AC1
:100CF200A90A0319AA0A932DA31D9A2E8030F00087
:100D0200803028067002031D882E2708003C031835
:100D12009A2E4008840020308000C00AA90A0319D4
:100D2200AA0A0130A702031CA80327082804031DEE
:0E0D32008A2E072A2908F0002A08F10008007E
:100D400016208A110A128000840AA00A0319A10A37
:080D5000F003031DA02E0800B2
:100D5800BE2E803083120313B800D12EC030B800E5
:100D6800D12E9430B800D12ED430B800D12E803096
:100D7800B800D12E831203133808013A0319AD2E97
:100D88003808023A0319B22E3808033A0319B52E67
:100D98003808043A0319B82EBB2E3903F000380876
:100DA800F0077008B8007008CD002C202B10BB018C
:100DB8003B083A07840000080319EA2E3B083A0763
:100DC80084000008C000F921BB0ADC2E2B1408009F
:100DD8003B3083120313BF003808C0003908C10034
:100DE8003A08C2003F30C30001227008BD007108F4
:100DF800BE0070083807840080013D08F0003E08F6
:040E0800F1000800ED
:100E0C00831203131F149F149F1C0D2F0A2F9F1066
:100E1C000630F00083161E08F300700803191A2F11
:100E2C00F30CF313FF3E142F83121E08F000F10194
:100E3C00F00DF10D7010F00DF10D70107308F00441
:100E4C000030F1047408F0047508F1047008F40023
:060E5C007108F50008001A
:100E6200FF3083160313910083129F131F139F12E7
:100E72001F129F111F119F101F101F139F121F126D
:0A0E82008316860183128601080022
:100E8C00831603138612061206108610061186119D
:100E9C008312861206128611061186100610052082
:100EAC0005200520861406148616152086120520AA
:100EBC00861615208612052086161520861205200A
:100ECC000610861615208612052086161520861209
:100EDC008610861586161520861205208611061496
:100EEC0086161520861206108616152086120520E9
:100EFC0086161520861206148616152086120520D5
:100F0C0006108616152086128615061586140614EC
:0C0F1C0086161520861205202B140800F4
:100F28004627312706270530F4000030F500D12088
:100F38000A30F2007008BB007108BC00720803197F
:100F4800AC2FBC0CBB0CBC133C1BBC17FF3EA32F27
:100F58002C30B800F830B9000730BA00EC26013060
:100F6800B8000130B9002C30BA00AC260230FB00C2
:100F78004530FC00A930FD00FD0BC02FFC0BC02F35
:0C0F8800FB0BC02F00000000962FC92FAB
:100F94003034313432343334343435343634373411
:100FA4003834393441344234433444344534463497
:020FB400003407
:100FB60030343134323433343434353436343734EF
:100FC60038343934613462346334643465346634B5
:020FD6000034E5
:100FD800013400340834003440340034003402341E
:080FE8000034103400348034A1
:100FF000743465346D3470343D34253464340034D5
:10100000013400340A34003464340034E8340334E6
:04101000103427343D
:10101400013400341034003400340134003410340A
:02400E00F21F9F
:00000001FF
