;  LST file generated by mikroListExporter - v.2.0 
; Date/Time: 2/18/2012 12:46:10 PM
;----------------------------------------------

;Address Opcode 	ASM
0x0000	0x2B43      	GOTO       835
0x0001	0x0000      	NOP
0x0002	0x0000      	NOP
0x0003	0x0000      	NOP
0x0004	0x2AC0      	GOTO       704
_Delay_22us:
;__Lib_Delays.c,15 :: 		void Delay_22us() {
;__Lib_Delays.c,16 :: 		Delay_us(22);
0x0005	0x0000      	NOP
0x0006	0x0000      	NOP
0x0007	0x0000      	NOP
0x0008	0x0000      	NOP
0x0009	0x0000      	NOP
;__Lib_Delays.c,17 :: 		}
0x000A	0x0008      	RETURN
; end of _Delay_22us
_COMFREM:
	ADDWF      %s, %s
;__Lib_Math.c,1063 :: 		
;__Lib_Math.c,1067 :: 		
0x000B	0x09FB      	COMF       R11, 1
;__Lib_Math.c,1068 :: 		
0x000C	0x09FA      	COMF       R10, 1
;__Lib_Math.c,1069 :: 		
0x000D	0x09F9      	COMF       R9, 1
;__Lib_Math.c,1070 :: 		
0x000E	0x09F8      	COMF       R8, 1
;__Lib_Math.c,1071 :: 		
0x000F	0x0AF8      	INCF       R8, 1
;__Lib_Math.c,1072 :: 		
0x0010	0x1903      	BTFSC      STATUS, 2
;__Lib_Math.c,1073 :: 		
0x0011	0x0AF9      	INCF       R9, 1
;__Lib_Math.c,1074 :: 		
0x0012	0x1903      	BTFSC      STATUS, 2
;__Lib_Math.c,1075 :: 		
0x0013	0x0AFA      	INCF       R10, 1
;__Lib_Math.c,1076 :: 		
0x0014	0x1903      	BTFSC      STATUS, 2
;__Lib_Math.c,1077 :: 		
0x0015	0x0AFB      	INCF       R11, 1
;__Lib_Math.c,1079 :: 		
0x0016	0x0008      	RETURN
; end of _COMFREM
_ADC_Read:
	ADDWF      %s, %s
;__Lib_ADC_A_B.c,4 :: 		
;__Lib_ADC_A_B.c,6 :: 		
0x0017	0x303C      	MOVLW      60
0x0018	0x1283      	BCF        STATUS, 5
0x0019	0x1303      	BCF        STATUS, 6
0x001A	0x059F      	ANDWF      ADCON0, 1
;__Lib_ADC_A_B.c,10 :: 		
0x001B	0x3040      	MOVLW      64
0x001C	0x059F      	ANDWF      ADCON0, 1
;__Lib_ADC_A_B.c,11 :: 		
0x001D	0x30F0      	MOVLW      240
0x001E	0x1683      	BSF        STATUS, 5
0x001F	0x049F      	IORWF      ADCON1, 1
;__Lib_ADC_A_B.c,12 :: 		
0x0020	0x1283      	BCF        STATUS, 5
0x0021	0x179F      	BSF        ADCON0, 7
;__Lib_ADC_A_B.c,13 :: 		
0x0022	0x0838      	MOVF       FARG_ADC_Read_channel, 0
0x0023	0x00F0      	MOVWF      R0
0x0024	0x0DF0      	RLF        R0, 1
0x0025	0x1070      	BCF        R0, 0
0x0026	0x0DF0      	RLF        R0, 1
0x0027	0x1070      	BCF        R0, 0
0x0028	0x0870      	MOVF       R0, 0
0x0029	0x049F      	IORWF      ADCON0, 1
;__Lib_ADC_A_B.c,16 :: 		
0x002A	0x141F      	BSF        ADCON0, 0
;__Lib_ADC_A_B.c,19 :: 		
0x002B	0x2005      	CALL       _Delay_22us
;__Lib_ADC_A_B.c,22 :: 		
0x002C	0x149F      	BSF        ADCON0, 1
;__Lib_ADC_A_B.c,25 :: 		
L_ADC_Read0:
0x002D	0x1C9F      	BTFSS      ADCON0, 1
0x002E	0x2831      	GOTO       L_ADC_Read1
;__Lib_ADC_A_B.c,26 :: 		
0x002F	0x0000      	NOP
0x0030	0x282D      	GOTO       L_ADC_Read0
L_ADC_Read1:
;__Lib_ADC_A_B.c,29 :: 		
0x0031	0x101F      	BCF        ADCON0, 0
;__Lib_ADC_A_B.c,32 :: 		
0x0032	0x081E      	MOVF       ADRESH, 0
0x0033	0x00F1      	MOVWF      R0+1
0x0034	0x01F0      	CLRF       R0
0x0035	0x1683      	BSF        STATUS, 5
0x0036	0x081E      	MOVF       ADRESL, 0
0x0037	0x04F0      	IORWF      R0, 1
0x0038	0x3000      	MOVLW      0
0x0039	0x04F1      	IORWF      R0+1, 1
;__Lib_ADC_A_B.c,34 :: 		
0x003A	0x0008      	RETURN
; end of _ADC_Read
_____DoICP:
	ADDWF      %s, %s
;__Lib_System.c,6 :: 		
;__Lib_System.c,9 :: 		
0x003B	0x1283      	BCF        STATUS, 5
0x003C	0x1303      	BCF        STATUS, 6
0x003D	0x0835      	MOVF       ___DoICPAddr+1, 0
0x003E	0x008A      	MOVWF      PCLATH
;__Lib_System.c,10 :: 		
0x003F	0x0834      	MOVF       ___DoICPAddr, 0
0x0040	0x0082      	MOVWF      PCL
;__Lib_System.c,12 :: 		
0x0041	0x0008      	RETURN
; end of _____DoICP
_Mul_16x16_U:
	ADDWF      %s, %s
;__Lib_Math.c,136 :: 		
;__Lib_Math.c,143 :: 		
0x0042	0x1283      	BCF        STATUS, 5
;__Lib_Math.c,144 :: 		
0x0043	0x1303      	BCF        STATUS, 6
;__Lib_Math.c,145 :: 		
0x0044	0x01FB      	CLRF       R11
;__Lib_Math.c,146 :: 		
0x0045	0x01FA      	CLRF       R10
;__Lib_Math.c,147 :: 		
0x0046	0x01F9      	CLRF       R9
;__Lib_Math.c,148 :: 		
0x0047	0x3080      	MOVLW      128
;__Lib_Math.c,149 :: 		
0x0048	0x00F8      	MOVWF      R8
;__Lib_Math.c,150 :: 		
0x0049	0x0CF1      	RRF        R1, 1
;__Lib_Math.c,151 :: 		
0x004A	0x0CF0      	RRF        R0, 1
;__Lib_Math.c,152 :: 		
0x004B	0x1C03      	BTFSS      STATUS, 0
;__Lib_Math.c,153 :: 		
0x004C	0x2856      	GOTO       $+10
;__Lib_Math.c,154 :: 		
0x004D	0x0874      	MOVF       R4, 0
;__Lib_Math.c,155 :: 		
0x004E	0x07F9      	ADDWF      R9, 1
;__Lib_Math.c,156 :: 		
0x004F	0x0875      	MOVF       R5, 0
;__Lib_Math.c,157 :: 		
0x0050	0x1803      	BTFSC      STATUS, 0
;__Lib_Math.c,158 :: 		
0x0051	0x0F75      	INCFSZ     R5, 0
;__Lib_Math.c,159 :: 		
0x0052	0x07FA      	ADDWF      R10, 1
;__Lib_Math.c,160 :: 		
0x0053	0x1803      	BTFSC      STATUS, 0
;__Lib_Math.c,161 :: 		
0x0054	0x0AFB      	INCF       R11, 1
;__Lib_Math.c,162 :: 		
0x0055	0x1003      	BCF        STATUS, 0
;__Lib_Math.c,163 :: 		
0x0056	0x1FF0      	BTFSS      R0, 7
;__Lib_Math.c,164 :: 		
0x0057	0x285E      	GOTO       $+7
;__Lib_Math.c,165 :: 		
0x0058	0x0874      	MOVF       R4, 0
;__Lib_Math.c,166 :: 		
0x0059	0x07FA      	ADDWF      R10, 1
;__Lib_Math.c,167 :: 		
0x005A	0x0875      	MOVF       R5, 0
;__Lib_Math.c,168 :: 		
0x005B	0x1803      	BTFSC      STATUS, 0
;__Lib_Math.c,169 :: 		
0x005C	0x0F75      	INCFSZ     R5, 0
;__Lib_Math.c,170 :: 		
0x005D	0x07FB      	ADDWF      R11, 1
;__Lib_Math.c,171 :: 		
0x005E	0x0CFB      	RRF        R11, 1
;__Lib_Math.c,172 :: 		
0x005F	0x0CFA      	RRF        R10, 1
;__Lib_Math.c,173 :: 		
0x0060	0x0CF9      	RRF        R9, 1
;__Lib_Math.c,174 :: 		
0x0061	0x0CF8      	RRF        R8, 1
;__Lib_Math.c,175 :: 		
0x0062	0x1C03      	BTFSS      STATUS, 0
;__Lib_Math.c,176 :: 		
0x0063	0x2849      	GOTO       $-26
;__Lib_Math.c,177 :: 		
0x0064	0x087B      	MOVF       R11, 0
;__Lib_Math.c,178 :: 		
0x0065	0x00F3      	MOVWF      R3
;__Lib_Math.c,179 :: 		
0x0066	0x087A      	MOVF       R10, 0
;__Lib_Math.c,180 :: 		
0x0067	0x00F2      	MOVWF      R2
;__Lib_Math.c,181 :: 		
0x0068	0x0879      	MOVF       R9, 0
;__Lib_Math.c,182 :: 		
0x0069	0x00F1      	MOVWF      R1
;__Lib_Math.c,183 :: 		
0x006A	0x0878      	MOVF       R8, 0
;__Lib_Math.c,184 :: 		
0x006B	0x00F0      	MOVWF      R0
;__Lib_Math.c,187 :: 		
0x006C	0x0008      	RETURN
; end of _Mul_16x16_U
_Div_16x16_U:
	ADDWF      %s, %s
;__Lib_Math.c,215 :: 		
;__Lib_Math.c,222 :: 		
0x006D	0x1283      	BCF        STATUS, 5
;__Lib_Math.c,223 :: 		
0x006E	0x1303      	BCF        STATUS, 6
;__Lib_Math.c,224 :: 		
0x006F	0x01F8      	CLRF       R8
;__Lib_Math.c,225 :: 		
0x0070	0x01F9      	CLRF       R9
;__Lib_Math.c,226 :: 		
0x0071	0x3010      	MOVLW      16
;__Lib_Math.c,227 :: 		
0x0072	0x00FC      	MOVWF      R12
;__Lib_Math.c,228 :: 		
0x0073	0x0D71      	RLF        R1, 0
;__Lib_Math.c,229 :: 		
0x0074	0x0DF8      	RLF        R8, 1
;__Lib_Math.c,230 :: 		
0x0075	0x0DF9      	RLF        R9, 1
;__Lib_Math.c,231 :: 		
0x0076	0x0874      	MOVF       R4, 0
;__Lib_Math.c,232 :: 		
0x0077	0x02F8      	SUBWF      R8, 1
;__Lib_Math.c,233 :: 		
0x0078	0x0875      	MOVF       R5, 0
;__Lib_Math.c,234 :: 		
0x0079	0x1C03      	BTFSS      STATUS, 0
;__Lib_Math.c,235 :: 		
0x007A	0x0F75      	INCFSZ     R5, 0
;__Lib_Math.c,236 :: 		
0x007B	0x02F9      	SUBWF      R9, 1
;__Lib_Math.c,237 :: 		
0x007C	0x1803      	BTFSC      STATUS, 0
;__Lib_Math.c,238 :: 		
0x007D	0x2885      	GOTO       $+8
;__Lib_Math.c,239 :: 		
0x007E	0x0874      	MOVF       R4, 0
;__Lib_Math.c,240 :: 		
0x007F	0x07F8      	ADDWF      R8, 1
;__Lib_Math.c,241 :: 		
0x0080	0x0875      	MOVF       R5, 0
;__Lib_Math.c,242 :: 		
0x0081	0x1803      	BTFSC      STATUS, 0
;__Lib_Math.c,243 :: 		
0x0082	0x0F75      	INCFSZ     R5, 0
;__Lib_Math.c,244 :: 		
0x0083	0x07F9      	ADDWF      R9, 1
;__Lib_Math.c,245 :: 		
0x0084	0x1003      	BCF        STATUS, 0
;__Lib_Math.c,246 :: 		
0x0085	0x0DF0      	RLF        R0, 1
;__Lib_Math.c,247 :: 		
0x0086	0x0DF1      	RLF        R1, 1
;__Lib_Math.c,248 :: 		
0x0087	0x0BFC      	DECFSZ     R12, 1
;__Lib_Math.c,249 :: 		
0x0088	0x2873      	GOTO       $-21
;__Lib_Math.c,251 :: 		
0x0089	0x0008      	RETURN
; end of _Div_16x16_U
_SDIV3232L:
	ADDWF      %s, %s
;__Lib_Math.c,694 :: 		
;__Lib_Math.c,703 :: 		
0x008A	0x0874      	MOVF       R4, 0
;__Lib_Math.c,704 :: 		
0x008B	0x02F8      	SUBWF      R8, 1
;__Lib_Math.c,705 :: 		
0x008C	0x0875      	MOVF       R5, 0
;__Lib_Math.c,706 :: 		
0x008D	0x1C03      	BTFSS      STATUS, 0
;__Lib_Math.c,707 :: 		
0x008E	0x0F75      	INCFSZ     R5, 0
;__Lib_Math.c,708 :: 		
0x008F	0x02F9      	SUBWF      R9, 1
;__Lib_Math.c,709 :: 		
0x0090	0x0876      	MOVF       R6, 0
;__Lib_Math.c,710 :: 		
0x0091	0x1C03      	BTFSS      STATUS, 0
;__Lib_Math.c,711 :: 		
0x0092	0x0F76      	INCFSZ     R6, 0
;__Lib_Math.c,712 :: 		
0x0093	0x02FA      	SUBWF      R10, 1
;__Lib_Math.c,713 :: 		
0x0094	0x0877      	MOVF       R7, 0
;__Lib_Math.c,714 :: 		
0x0095	0x1C03      	BTFSS      STATUS, 0
;__Lib_Math.c,715 :: 		
0x0096	0x0F77      	INCFSZ     R7, 0
;__Lib_Math.c,716 :: 		
0x0097	0x02FB      	SUBWF      R11, 1
;__Lib_Math.c,717 :: 		
0x0098	0x0DF3      	RLF        R3, 1
;__Lib_Math.c,719 :: 		
0x0099	0x3007      	MOVLW      7
;__Lib_Math.c,720 :: 		
0x009A	0x00FC      	MOVWF      R12
;__Lib_Math.c,722 :: 		
LOOPS3232A:
;__Lib_Math.c,723 :: 		
0x009B	0x0D73      	RLF        R3, 0
;__Lib_Math.c,724 :: 		
0x009C	0x0DF8      	RLF        R8, 1
;__Lib_Math.c,725 :: 		
0x009D	0x0DF9      	RLF        R9, 1
;__Lib_Math.c,726 :: 		
0x009E	0x0DFA      	RLF        R10, 1
;__Lib_Math.c,727 :: 		
0x009F	0x0DFB      	RLF        R11, 1
;__Lib_Math.c,728 :: 		
0x00A0	0x0874      	MOVF       R4, 0
;__Lib_Math.c,729 :: 		
0x00A1	0x1C73      	BTFSS      R3, 0
;__Lib_Math.c,730 :: 		
0x00A2	0x28B1      	GOTO       SADD22LA
;__Lib_Math.c,732 :: 		
0x00A3	0x02F8      	SUBWF      R8, 1
;__Lib_Math.c,733 :: 		
0x00A4	0x0875      	MOVF       R5, 0
;__Lib_Math.c,734 :: 		
0x00A5	0x1C03      	BTFSS      STATUS, 0
;__Lib_Math.c,735 :: 		
0x00A6	0x0F75      	INCFSZ     R5, 0
;__Lib_Math.c,736 :: 		
0x00A7	0x02F9      	SUBWF      R9, 1
;__Lib_Math.c,737 :: 		
0x00A8	0x0876      	MOVF       R6, 0
;__Lib_Math.c,738 :: 		
0x00A9	0x1C03      	BTFSS      STATUS, 0
;__Lib_Math.c,739 :: 		
0x00AA	0x0F76      	INCFSZ     R6, 0
;__Lib_Math.c,740 :: 		
0x00AB	0x02FA      	SUBWF      R10, 1
;__Lib_Math.c,741 :: 		
0x00AC	0x0877      	MOVF       R7, 0
;__Lib_Math.c,742 :: 		
0x00AD	0x1C03      	BTFSS      STATUS, 0
;__Lib_Math.c,743 :: 		
0x00AE	0x0F77      	INCFSZ     R7, 0
;__Lib_Math.c,744 :: 		
0x00AF	0x02FB      	SUBWF      R11, 1
;__Lib_Math.c,745 :: 		
0x00B0	0x28BE      	GOTO       SOK22LA
;__Lib_Math.c,747 :: 		
SADD22LA:
;__Lib_Math.c,748 :: 		
0x00B1	0x07F8      	ADDWF      R8, 1
;__Lib_Math.c,749 :: 		
0x00B2	0x0875      	MOVF       R5, 0
;__Lib_Math.c,750 :: 		
0x00B3	0x1803      	BTFSC      STATUS, 0
;__Lib_Math.c,751 :: 		
0x00B4	0x0F75      	INCFSZ     R5, 0
;__Lib_Math.c,752 :: 		
0x00B5	0x07F9      	ADDWF      R9, 1
;__Lib_Math.c,753 :: 		
0x00B6	0x0876      	MOVF       R6, 0
;__Lib_Math.c,754 :: 		
0x00B7	0x1803      	BTFSC      STATUS, 0
;__Lib_Math.c,755 :: 		
0x00B8	0x0F76      	INCFSZ     R6, 0
;__Lib_Math.c,756 :: 		
0x00B9	0x07FA      	ADDWF      R10, 1
;__Lib_Math.c,757 :: 		
0x00BA	0x0877      	MOVF       R7, 0
;__Lib_Math.c,758 :: 		
0x00BB	0x1803      	BTFSC      STATUS, 0
;__Lib_Math.c,759 :: 		
0x00BC	0x0F77      	INCFSZ     R7, 0
;__Lib_Math.c,760 :: 		
0x00BD	0x07FB      	ADDWF      R11, 1
;__Lib_Math.c,762 :: 		
SOK22LA:
;__Lib_Math.c,763 :: 		
0x00BE	0x0DF3      	RLF        R3, 1
;__Lib_Math.c,765 :: 		
0x00BF	0x0BFC      	DECFSZ     R12, 1
;__Lib_Math.c,766 :: 		
0x00C0	0x289B      	GOTO       LOOPS3232A
;__Lib_Math.c,768 :: 		
0x00C1	0x0D72      	RLF        R2, 0
;__Lib_Math.c,769 :: 		
0x00C2	0x0DF8      	RLF        R8, 1
;__Lib_Math.c,770 :: 		
0x00C3	0x0DF9      	RLF        R9, 1
;__Lib_Math.c,771 :: 		
0x00C4	0x0DFA      	RLF        R10, 1
;__Lib_Math.c,772 :: 		
0x00C5	0x0DFB      	RLF        R11, 1
;__Lib_Math.c,773 :: 		
0x00C6	0x0874      	MOVF       R4, 0
;__Lib_Math.c,774 :: 		
0x00C7	0x1C73      	BTFSS      R3, 0
;__Lib_Math.c,775 :: 		
0x00C8	0x28D7      	GOTO       SADD22L8
;__Lib_Math.c,777 :: 		
0x00C9	0x02F8      	SUBWF      R8, 1
;__Lib_Math.c,778 :: 		
0x00CA	0x0875      	MOVF       R5, 0
;__Lib_Math.c,779 :: 		
0x00CB	0x1C03      	BTFSS      STATUS, 0
;__Lib_Math.c,780 :: 		
0x00CC	0x0F75      	INCFSZ     R5, 0
;__Lib_Math.c,781 :: 		
0x00CD	0x02F9      	SUBWF      R9, 1
;__Lib_Math.c,782 :: 		
0x00CE	0x0876      	MOVF       R6, 0
;__Lib_Math.c,783 :: 		
0x00CF	0x1C03      	BTFSS      STATUS, 0
;__Lib_Math.c,784 :: 		
0x00D0	0x0F76      	INCFSZ     R6, 0
;__Lib_Math.c,785 :: 		
0x00D1	0x02FA      	SUBWF      R10, 1
;__Lib_Math.c,786 :: 		
0x00D2	0x0877      	MOVF       R7, 0
;__Lib_Math.c,787 :: 		
0x00D3	0x1C03      	BTFSS      STATUS, 0
;__Lib_Math.c,788 :: 		
0x00D4	0x0F77      	INCFSZ     R7, 0
;__Lib_Math.c,789 :: 		
0x00D5	0x02FB      	SUBWF      R11, 1
;__Lib_Math.c,790 :: 		
0x00D6	0x28E4      	GOTO       SOK22L8
;__Lib_Math.c,792 :: 		
SADD22L8:
;__Lib_Math.c,793 :: 		
0x00D7	0x07F8      	ADDWF      R8, 1
;__Lib_Math.c,794 :: 		
0x00D8	0x0875      	MOVF       R5, 0
;__Lib_Math.c,795 :: 		
0x00D9	0x1803      	BTFSC      STATUS, 0
;__Lib_Math.c,796 :: 		
0x00DA	0x0F75      	INCFSZ     R5, 0
;__Lib_Math.c,797 :: 		
0x00DB	0x07F9      	ADDWF      R9, 1
;__Lib_Math.c,798 :: 		
0x00DC	0x0876      	MOVF       R6, 0
;__Lib_Math.c,799 :: 		
0x00DD	0x1803      	BTFSC      STATUS, 0
;__Lib_Math.c,800 :: 		
0x00DE	0x0F76      	INCFSZ     R6, 0
;__Lib_Math.c,801 :: 		
0x00DF	0x07FA      	ADDWF      R10, 1
;__Lib_Math.c,802 :: 		
0x00E0	0x0877      	MOVF       R7, 0
;__Lib_Math.c,803 :: 		
0x00E1	0x1803      	BTFSC      STATUS, 0
;__Lib_Math.c,804 :: 		
0x00E2	0x0F77      	INCFSZ     R7, 0
;__Lib_Math.c,805 :: 		
0x00E3	0x07FB      	ADDWF      R11, 1
;__Lib_Math.c,807 :: 		
SOK22L8:
;__Lib_Math.c,808 :: 		
0x00E4	0x0DF2      	RLF        R2, 1
;__Lib_Math.c,810 :: 		
0x00E5	0x3007      	MOVLW      7
;__Lib_Math.c,811 :: 		
0x00E6	0x00FC      	MOVWF      R12
;__Lib_Math.c,813 :: 		
LOOPS3232B:
;__Lib_Math.c,814 :: 		
0x00E7	0x0D72      	RLF        R2, 0
;__Lib_Math.c,815 :: 		
0x00E8	0x0DF8      	RLF        R8, 1
;__Lib_Math.c,816 :: 		
0x00E9	0x0DF9      	RLF        R9, 1
;__Lib_Math.c,817 :: 		
0x00EA	0x0DFA      	RLF        R10, 1
;__Lib_Math.c,818 :: 		
0x00EB	0x0DFB      	RLF        R11, 1
;__Lib_Math.c,819 :: 		
0x00EC	0x0874      	MOVF       R4, 0
;__Lib_Math.c,820 :: 		
0x00ED	0x1C72      	BTFSS      R2, 0
;__Lib_Math.c,821 :: 		
0x00EE	0x28FD      	GOTO       SADD22LB
;__Lib_Math.c,823 :: 		
0x00EF	0x02F8      	SUBWF      R8, 1
;__Lib_Math.c,824 :: 		
0x00F0	0x0875      	MOVF       R5, 0
;__Lib_Math.c,825 :: 		
0x00F1	0x1C03      	BTFSS      STATUS, 0
;__Lib_Math.c,826 :: 		
0x00F2	0x0F75      	INCFSZ     R5, 0
;__Lib_Math.c,827 :: 		
0x00F3	0x02F9      	SUBWF      R9, 1
;__Lib_Math.c,828 :: 		
0x00F4	0x0876      	MOVF       R6, 0
;__Lib_Math.c,829 :: 		
0x00F5	0x1C03      	BTFSS      STATUS, 0
;__Lib_Math.c,830 :: 		
0x00F6	0x0F76      	INCFSZ     R6, 0
;__Lib_Math.c,831 :: 		
0x00F7	0x02FA      	SUBWF      R10, 1
;__Lib_Math.c,832 :: 		
0x00F8	0x0877      	MOVF       R7, 0
;__Lib_Math.c,833 :: 		
0x00F9	0x1C03      	BTFSS      STATUS, 0
;__Lib_Math.c,834 :: 		
0x00FA	0x0F77      	INCFSZ     R7, 0
;__Lib_Math.c,835 :: 		
0x00FB	0x02FB      	SUBWF      R11, 1
;__Lib_Math.c,836 :: 		
0x00FC	0x290A      	GOTO       SOK22LB
;__Lib_Math.c,838 :: 		
SADD22LB:
;__Lib_Math.c,839 :: 		
0x00FD	0x07F8      	ADDWF      R8, 1
;__Lib_Math.c,840 :: 		
0x00FE	0x0875      	MOVF       R5, 0
;__Lib_Math.c,841 :: 		
0x00FF	0x1803      	BTFSC      STATUS, 0
;__Lib_Math.c,842 :: 		
0x0100	0x0F75      	INCFSZ     R5, 0
;__Lib_Math.c,843 :: 		
0x0101	0x07F9      	ADDWF      R9, 1
;__Lib_Math.c,844 :: 		
0x0102	0x0876      	MOVF       R6, 0
;__Lib_Math.c,845 :: 		
0x0103	0x1803      	BTFSC      STATUS, 0
;__Lib_Math.c,846 :: 		
0x0104	0x0F76      	INCFSZ     R6, 0
;__Lib_Math.c,847 :: 		
0x0105	0x07FA      	ADDWF      R10, 1
;__Lib_Math.c,848 :: 		
0x0106	0x0877      	MOVF       R7, 0
;__Lib_Math.c,849 :: 		
0x0107	0x1803      	BTFSC      STATUS, 0
;__Lib_Math.c,850 :: 		
0x0108	0x0F77      	INCFSZ     R7, 0
;__Lib_Math.c,851 :: 		
0x0109	0x07FB      	ADDWF      R11, 1
;__Lib_Math.c,853 :: 		
SOK22LB:
;__Lib_Math.c,854 :: 		
0x010A	0x0DF2      	RLF        R2, 1
;__Lib_Math.c,856 :: 		
0x010B	0x0BFC      	DECFSZ     R12, 1
;__Lib_Math.c,857 :: 		
0x010C	0x28E7      	GOTO       LOOPS3232B
;__Lib_Math.c,859 :: 		
0x010D	0x0D71      	RLF        R1, 0
;__Lib_Math.c,860 :: 		
0x010E	0x0DF8      	RLF        R8, 1
;__Lib_Math.c,861 :: 		
0x010F	0x0DF9      	RLF        R9, 1
;__Lib_Math.c,862 :: 		
0x0110	0x0DFA      	RLF        R10, 1
;__Lib_Math.c,863 :: 		
0x0111	0x0DFB      	RLF        R11, 1
;__Lib_Math.c,864 :: 		
0x0112	0x0874      	MOVF       R4, 0
;__Lib_Math.c,865 :: 		
0x0113	0x1C72      	BTFSS      R2, 0
;__Lib_Math.c,866 :: 		
0x0114	0x2923      	GOTO       SADD22L16
;__Lib_Math.c,868 :: 		
0x0115	0x02F8      	SUBWF      R8, 1
;__Lib_Math.c,869 :: 		
0x0116	0x0875      	MOVF       R5, 0
;__Lib_Math.c,870 :: 		
0x0117	0x1C03      	BTFSS      STATUS, 0
;__Lib_Math.c,871 :: 		
0x0118	0x0F75      	INCFSZ     R5, 0
;__Lib_Math.c,872 :: 		
0x0119	0x02F9      	SUBWF      R9, 1
;__Lib_Math.c,873 :: 		
0x011A	0x0876      	MOVF       R6, 0
;__Lib_Math.c,874 :: 		
0x011B	0x1C03      	BTFSS      STATUS, 0
;__Lib_Math.c,875 :: 		
0x011C	0x0F76      	INCFSZ     R6, 0
;__Lib_Math.c,876 :: 		
0x011D	0x02FA      	SUBWF      R10, 1
;__Lib_Math.c,877 :: 		
0x011E	0x0877      	MOVF       R7, 0
;__Lib_Math.c,878 :: 		
0x011F	0x1C03      	BTFSS      STATUS, 0
;__Lib_Math.c,879 :: 		
0x0120	0x0F77      	INCFSZ     R7, 0
;__Lib_Math.c,880 :: 		
0x0121	0x02FB      	SUBWF      R11, 1
;__Lib_Math.c,881 :: 		
0x0122	0x2930      	GOTO       SOK22L16
;__Lib_Math.c,883 :: 		
SADD22L16:
;__Lib_Math.c,884 :: 		
0x0123	0x07F8      	ADDWF      R8, 1
;__Lib_Math.c,885 :: 		
0x0124	0x0875      	MOVF       R5, 0
;__Lib_Math.c,886 :: 		
0x0125	0x1803      	BTFSC      STATUS, 0
;__Lib_Math.c,887 :: 		
0x0126	0x0F75      	INCFSZ     R5, 0
;__Lib_Math.c,888 :: 		
0x0127	0x07F9      	ADDWF      R9, 1
;__Lib_Math.c,889 :: 		
0x0128	0x0876      	MOVF       R6, 0
;__Lib_Math.c,890 :: 		
0x0129	0x1803      	BTFSC      STATUS, 0
;__Lib_Math.c,891 :: 		
0x012A	0x0F76      	INCFSZ     R6, 0
;__Lib_Math.c,892 :: 		
0x012B	0x07FA      	ADDWF      R10, 1
;__Lib_Math.c,893 :: 		
0x012C	0x0877      	MOVF       R7, 0
;__Lib_Math.c,894 :: 		
0x012D	0x1803      	BTFSC      STATUS, 0
;__Lib_Math.c,895 :: 		
0x012E	0x0F77      	INCFSZ     R7, 0
;__Lib_Math.c,896 :: 		
0x012F	0x07FB      	ADDWF      R11, 1
;__Lib_Math.c,898 :: 		
SOK22L16:
;__Lib_Math.c,899 :: 		
0x0130	0x0DF1      	RLF        R1, 1
;__Lib_Math.c,901 :: 		
0x0131	0x3007      	MOVLW      7
;__Lib_Math.c,902 :: 		
0x0132	0x00FC      	MOVWF      R12
;__Lib_Math.c,904 :: 		
LOOPS3232C:
;__Lib_Math.c,905 :: 		
0x0133	0x0D71      	RLF        R1, 0
;__Lib_Math.c,906 :: 		
0x0134	0x0DF8      	RLF        R8, 1
;__Lib_Math.c,907 :: 		
0x0135	0x0DF9      	RLF        R9, 1
;__Lib_Math.c,908 :: 		
0x0136	0x0DFA      	RLF        R10, 1
;__Lib_Math.c,909 :: 		
0x0137	0x0DFB      	RLF        R11, 1
;__Lib_Math.c,910 :: 		
0x0138	0x0874      	MOVF       R4, 0
;__Lib_Math.c,911 :: 		
0x0139	0x1C71      	BTFSS      R1, 0
;__Lib_Math.c,912 :: 		
0x013A	0x2949      	GOTO       SADD22LC
;__Lib_Math.c,914 :: 		
0x013B	0x02F8      	SUBWF      R8, 1
;__Lib_Math.c,915 :: 		
0x013C	0x0875      	MOVF       R5, 0
;__Lib_Math.c,916 :: 		
0x013D	0x1C03      	BTFSS      STATUS, 0
;__Lib_Math.c,917 :: 		
0x013E	0x0F75      	INCFSZ     R5, 0
;__Lib_Math.c,918 :: 		
0x013F	0x02F9      	SUBWF      R9, 1
;__Lib_Math.c,919 :: 		
0x0140	0x0876      	MOVF       R6, 0
;__Lib_Math.c,920 :: 		
0x0141	0x1C03      	BTFSS      STATUS, 0
;__Lib_Math.c,921 :: 		
0x0142	0x0F76      	INCFSZ     R6, 0
;__Lib_Math.c,922 :: 		
0x0143	0x02FA      	SUBWF      R10, 1
;__Lib_Math.c,923 :: 		
0x0144	0x0877      	MOVF       R7, 0
;__Lib_Math.c,924 :: 		
0x0145	0x1C03      	BTFSS      STATUS, 0
;__Lib_Math.c,925 :: 		
0x0146	0x0F77      	INCFSZ     R7, 0
;__Lib_Math.c,926 :: 		
0x0147	0x02FB      	SUBWF      R11, 1
;__Lib_Math.c,927 :: 		
0x0148	0x2956      	GOTO       SOK22LC
;__Lib_Math.c,929 :: 		
SADD22LC:
;__Lib_Math.c,930 :: 		
0x0149	0x07F8      	ADDWF      R8, 1
;__Lib_Math.c,931 :: 		
0x014A	0x0875      	MOVF       R5, 0
;__Lib_Math.c,932 :: 		
0x014B	0x1803      	BTFSC      STATUS, 0
;__Lib_Math.c,933 :: 		
0x014C	0x0F75      	INCFSZ     R5, 0
;__Lib_Math.c,934 :: 		
0x014D	0x07F9      	ADDWF      R9, 1
;__Lib_Math.c,935 :: 		
0x014E	0x0876      	MOVF       R6, 0
;__Lib_Math.c,936 :: 		
0x014F	0x1803      	BTFSC      STATUS, 0
;__Lib_Math.c,937 :: 		
0x0150	0x0F76      	INCFSZ     R6, 0
;__Lib_Math.c,938 :: 		
0x0151	0x07FA      	ADDWF      R10, 1
;__Lib_Math.c,939 :: 		
0x0152	0x0877      	MOVF       R7, 0
;__Lib_Math.c,940 :: 		
0x0153	0x1803      	BTFSC      STATUS, 0
;__Lib_Math.c,941 :: 		
0x0154	0x0F77      	INCFSZ     R7, 0
;__Lib_Math.c,942 :: 		
0x0155	0x07FB      	ADDWF      R11, 1
;__Lib_Math.c,944 :: 		
SOK22LC:
;__Lib_Math.c,945 :: 		
0x0156	0x0DF1      	RLF        R1, 1
;__Lib_Math.c,947 :: 		
0x0157	0x0BFC      	DECFSZ     R12, 1
;__Lib_Math.c,948 :: 		
0x0158	0x2933      	GOTO       LOOPS3232C
;__Lib_Math.c,950 :: 		
0x0159	0x0D70      	RLF        R0, 0
;__Lib_Math.c,951 :: 		
0x015A	0x0DF8      	RLF        R8, 1
;__Lib_Math.c,952 :: 		
0x015B	0x0DF9      	RLF        R9, 1
;__Lib_Math.c,953 :: 		
0x015C	0x0DFA      	RLF        R10, 1
;__Lib_Math.c,954 :: 		
0x015D	0x0DFB      	RLF        R11, 1
;__Lib_Math.c,955 :: 		
0x015E	0x0874      	MOVF       R4, 0
;__Lib_Math.c,956 :: 		
0x015F	0x1C71      	BTFSS      R1, 0
;__Lib_Math.c,957 :: 		
0x0160	0x296F      	GOTO       SADD22L24
;__Lib_Math.c,959 :: 		
0x0161	0x02F8      	SUBWF      R8, 1
;__Lib_Math.c,960 :: 		
0x0162	0x0875      	MOVF       R5, 0
;__Lib_Math.c,961 :: 		
0x0163	0x1C03      	BTFSS      STATUS, 0
;__Lib_Math.c,962 :: 		
0x0164	0x0F75      	INCFSZ     R5, 0
;__Lib_Math.c,963 :: 		
0x0165	0x02F9      	SUBWF      R9, 1
;__Lib_Math.c,964 :: 		
0x0166	0x0876      	MOVF       R6, 0
;__Lib_Math.c,965 :: 		
0x0167	0x1C03      	BTFSS      STATUS, 0
;__Lib_Math.c,966 :: 		
0x0168	0x0F76      	INCFSZ     R6, 0
;__Lib_Math.c,967 :: 		
0x0169	0x02FA      	SUBWF      R10, 1
;__Lib_Math.c,968 :: 		
0x016A	0x0877      	MOVF       R7, 0
;__Lib_Math.c,969 :: 		
0x016B	0x1C03      	BTFSS      STATUS, 0
;__Lib_Math.c,970 :: 		
0x016C	0x0F77      	INCFSZ     R7, 0
;__Lib_Math.c,971 :: 		
0x016D	0x02FB      	SUBWF      R11, 1
;__Lib_Math.c,972 :: 		
0x016E	0x297C      	GOTO       SOK22L24
;__Lib_Math.c,974 :: 		
SADD22L24:
;__Lib_Math.c,975 :: 		
0x016F	0x07F8      	ADDWF      R8, 1
;__Lib_Math.c,976 :: 		
0x0170	0x0875      	MOVF       R5, 0
;__Lib_Math.c,977 :: 		
0x0171	0x1803      	BTFSC      STATUS, 0
;__Lib_Math.c,978 :: 		
0x0172	0x0F75      	INCFSZ     R5, 0
;__Lib_Math.c,979 :: 		
0x0173	0x07F9      	ADDWF      R9, 1
;__Lib_Math.c,980 :: 		
0x0174	0x0876      	MOVF       R6, 0
;__Lib_Math.c,981 :: 		
0x0175	0x1803      	BTFSC      STATUS, 0
;__Lib_Math.c,982 :: 		
0x0176	0x0F76      	INCFSZ     R6, 0
;__Lib_Math.c,983 :: 		
0x0177	0x07FA      	ADDWF      R10, 1
;__Lib_Math.c,984 :: 		
0x0178	0x0877      	MOVF       R7, 0
;__Lib_Math.c,985 :: 		
0x0179	0x1803      	BTFSC      STATUS, 0
;__Lib_Math.c,986 :: 		
0x017A	0x0F77      	INCFSZ     R7, 0
;__Lib_Math.c,987 :: 		
0x017B	0x07FB      	ADDWF      R11, 1
;__Lib_Math.c,989 :: 		
SOK22L24:
;__Lib_Math.c,990 :: 		
0x017C	0x0DF0      	RLF        R0, 1
;__Lib_Math.c,992 :: 		
0x017D	0x3007      	MOVLW      7
;__Lib_Math.c,993 :: 		
0x017E	0x00FC      	MOVWF      R12
;__Lib_Math.c,995 :: 		
LOOPS3232D:
;__Lib_Math.c,996 :: 		
0x017F	0x0D70      	RLF        R0, 0
;__Lib_Math.c,997 :: 		
0x0180	0x0DF8      	RLF        R8, 1
;__Lib_Math.c,998 :: 		
0x0181	0x0DF9      	RLF        R9, 1
;__Lib_Math.c,999 :: 		
0x0182	0x0DFA      	RLF        R10, 1
;__Lib_Math.c,1000 :: 		
0x0183	0x0DFB      	RLF        R11, 1
;__Lib_Math.c,1001 :: 		
0x0184	0x0874      	MOVF       R4, 0
;__Lib_Math.c,1002 :: 		
0x0185	0x1C70      	BTFSS      R0, 0
;__Lib_Math.c,1003 :: 		
0x0186	0x2995      	GOTO       SADD22LD
;__Lib_Math.c,1005 :: 		
0x0187	0x02F8      	SUBWF      R8, 1
;__Lib_Math.c,1006 :: 		
0x0188	0x0875      	MOVF       R5, 0
;__Lib_Math.c,1007 :: 		
0x0189	0x1C03      	BTFSS      STATUS, 0
;__Lib_Math.c,1008 :: 		
0x018A	0x0F75      	INCFSZ     R5, 0
;__Lib_Math.c,1009 :: 		
0x018B	0x02F9      	SUBWF      R9, 1
;__Lib_Math.c,1010 :: 		
0x018C	0x0876      	MOVF       R6, 0
;__Lib_Math.c,1011 :: 		
0x018D	0x1C03      	BTFSS      STATUS, 0
;__Lib_Math.c,1012 :: 		
0x018E	0x0F76      	INCFSZ     R6, 0
;__Lib_Math.c,1013 :: 		
0x018F	0x02FA      	SUBWF      R10, 1
;__Lib_Math.c,1014 :: 		
0x0190	0x0877      	MOVF       R7, 0
;__Lib_Math.c,1015 :: 		
0x0191	0x1C03      	BTFSS      STATUS, 0
;__Lib_Math.c,1016 :: 		
0x0192	0x0F77      	INCFSZ     R7, 0
;__Lib_Math.c,1017 :: 		
0x0193	0x02FB      	SUBWF      R11, 1
;__Lib_Math.c,1018 :: 		
0x0194	0x29A2      	GOTO       SOK22LD
;__Lib_Math.c,1020 :: 		
SADD22LD:
;__Lib_Math.c,1021 :: 		
0x0195	0x07F8      	ADDWF      R8, 1
;__Lib_Math.c,1022 :: 		
0x0196	0x0875      	MOVF       R5, 0
;__Lib_Math.c,1023 :: 		
0x0197	0x1803      	BTFSC      STATUS, 0
;__Lib_Math.c,1024 :: 		
0x0198	0x0F75      	INCFSZ     R5, 0
;__Lib_Math.c,1025 :: 		
0x0199	0x07F9      	ADDWF      R9, 1
;__Lib_Math.c,1026 :: 		
0x019A	0x0876      	MOVF       R6, 0
;__Lib_Math.c,1027 :: 		
0x019B	0x1803      	BTFSC      STATUS, 0
;__Lib_Math.c,1028 :: 		
0x019C	0x0F76      	INCFSZ     R6, 0
;__Lib_Math.c,1029 :: 		
0x019D	0x07FA      	ADDWF      R10, 1
;__Lib_Math.c,1030 :: 		
0x019E	0x0877      	MOVF       R7, 0
;__Lib_Math.c,1031 :: 		
0x019F	0x1803      	BTFSC      STATUS, 0
;__Lib_Math.c,1033 :: 		
0x01A0	0x0F77      	INCFSZ     R7, 0
;__Lib_Math.c,1034 :: 		
0x01A1	0x07FB      	ADDWF      R11, 1
;__Lib_Math.c,1036 :: 		
SOK22LD:
;__Lib_Math.c,1037 :: 		
0x01A2	0x0DF0      	RLF        R0, 1
;__Lib_Math.c,1039 :: 		
0x01A3	0x0BFC      	DECFSZ     R12, 1
;__Lib_Math.c,1040 :: 		
0x01A4	0x297F      	GOTO       LOOPS3232D
;__Lib_Math.c,1042 :: 		
0x01A5	0x1870      	BTFSC      R0, 0
;__Lib_Math.c,1043 :: 		
0x01A6	0x29B5      	GOTO       SOK22L
;__Lib_Math.c,1044 :: 		
0x01A7	0x0874      	MOVF       R4, 0
;__Lib_Math.c,1045 :: 		
0x01A8	0x07F8      	ADDWF      R8, 1
;__Lib_Math.c,1046 :: 		
0x01A9	0x0875      	MOVF       R5, 0
;__Lib_Math.c,1047 :: 		
0x01AA	0x1803      	BTFSC      STATUS, 0
;__Lib_Math.c,1048 :: 		
0x01AB	0x0F75      	INCFSZ     R5, 0
;__Lib_Math.c,1049 :: 		
0x01AC	0x07F9      	ADDWF      R9, 1
;__Lib_Math.c,1050 :: 		
0x01AD	0x0876      	MOVF       R6, 0
;__Lib_Math.c,1051 :: 		
0x01AE	0x1803      	BTFSC      STATUS, 0
;__Lib_Math.c,1052 :: 		
0x01AF	0x0F76      	INCFSZ     R6, 0
;__Lib_Math.c,1053 :: 		
0x01B0	0x07FA      	ADDWF      R10, 1
;__Lib_Math.c,1054 :: 		
0x01B1	0x0877      	MOVF       R7, 0
;__Lib_Math.c,1055 :: 		
0x01B2	0x1803      	BTFSC      STATUS, 0
;__Lib_Math.c,1056 :: 		
0x01B3	0x0F77      	INCFSZ     R7, 0
;__Lib_Math.c,1057 :: 		
0x01B4	0x07FB      	ADDWF      R11, 1
;__Lib_Math.c,1058 :: 		
SOK22L:
;__Lib_Math.c,1061 :: 		
0x01B5	0x0008      	RETURN
; end of _SDIV3232L
___CC2DW:
	ADDWF      %s, %s
;__Lib_System.c,24 :: 		
;__Lib_System.c,27 :: 		
_CC2D_Loop1:
;__Lib_System.c,29 :: 		
0x01B6	0x203B      	CALL       _____DoICP
0x01B7	0x118A      	BCF        PCLATH, 3
0x01B8	0x120A      	BCF        PCLATH, 4
;__Lib_System.c,31 :: 		
0x01B9	0x0080      	MOVWF      INDF
;__Lib_System.c,32 :: 		
0x01BA	0x0A84      	INCF       FSR, 1
;__Lib_System.c,33 :: 		
0x01BB	0x0AB4      	INCF       ___DoICPAddr, 1
;__Lib_System.c,35 :: 		
0x01BC	0x1903      	BTFSC      STATUS, 2
;__Lib_System.c,36 :: 		
0x01BD	0x0AB5      	INCF       ___DoICPAddr+1, 1
;__Lib_System.c,37 :: 		
0x01BE	0x03F0      	DECF       R0, 1
;__Lib_System.c,39 :: 		
0x01BF	0x1D03      	BTFSS      STATUS, 2
;__Lib_System.c,40 :: 		
0x01C0	0x29B6      	GOTO       _CC2D_Loop1
;__Lib_System.c,42 :: 		
0x01C1	0x0008      	RETURN
; end of ___CC2DW
_set_PWM:
;FRECVENTA.c,1 :: 		void  set_PWM()
;FRECVENTA.c,4 :: 		val=(ADC_Read(0))*51/1023;
0x01C2	0x1283      	BCF        STATUS, 5
0x01C3	0x1303      	BCF        STATUS, 6
0x01C4	0x01B8      	CLRF       FARG_ADC_Read_channel
0x01C5	0x2017      	CALL       _ADC_Read
0x01C6	0x3033      	MOVLW      51
0x01C7	0x00F4      	MOVWF      R4
0x01C8	0x3000      	MOVLW      0
0x01C9	0x00F5      	MOVWF      R4+1
0x01CA	0x2042      	CALL       _Mul_16x16_U
0x01CB	0x30FF      	MOVLW      255
0x01CC	0x00F4      	MOVWF      R4
0x01CD	0x3003      	MOVLW      3
0x01CE	0x00F5      	MOVWF      R4+1
0x01CF	0x206D      	CALL       _Div_16x16_U
;FRECVENTA.c,5 :: 		CCP2CON.CCP2Y=((val&(1<<0))==(1<<0));
0x01D0	0x3001      	MOVLW      1
0x01D1	0x0570      	ANDWF      R0, 0
0x01D2	0x00F3      	MOVWF      R3
0x01D3	0x0871      	MOVF       R0+1, 0
0x01D4	0x00F4      	MOVWF      R3+1
0x01D5	0x3000      	MOVLW      0
0x01D6	0x05F4      	ANDWF      R3+1, 1
0x01D7	0x3000      	MOVLW      0
0x01D8	0x0674      	XORWF      R3+1, 0
0x01D9	0x1D03      	BTFSS      STATUS, 2
0x01DA	0x29DD      	GOTO       L__set_PWM19
0x01DB	0x3001      	MOVLW      1
0x01DC	0x0673      	XORWF      R3, 0
L__set_PWM19:
0x01DD	0x3001      	MOVLW      1
0x01DE	0x1D03      	BTFSS      STATUS, 2
0x01DF	0x3000      	MOVLW      0
0x01E0	0x00F2      	MOVWF      R2
0x01E1	0x1872      	BTFSC      R2, 0
0x01E2	0x29E5      	GOTO       L__set_PWM20
0x01E3	0x121D      	BCF        CCP2CON, 4
0x01E4	0x29E6      	GOTO       L__set_PWM21
L__set_PWM20:
0x01E5	0x161D      	BSF        CCP2CON, 4
L__set_PWM21:
;FRECVENTA.c,6 :: 		CCP2CON.CCP2X=((val&(1<<1))==(1<<1));
0x01E6	0x3002      	MOVLW      2
0x01E7	0x0570      	ANDWF      R0, 0
0x01E8	0x00F3      	MOVWF      R3
0x01E9	0x0871      	MOVF       R0+1, 0
0x01EA	0x00F4      	MOVWF      R3+1
0x01EB	0x3000      	MOVLW      0
0x01EC	0x05F4      	ANDWF      R3+1, 1
0x01ED	0x3000      	MOVLW      0
0x01EE	0x0674      	XORWF      R3+1, 0
0x01EF	0x1D03      	BTFSS      STATUS, 2
0x01F0	0x29F3      	GOTO       L__set_PWM22
0x01F1	0x3002      	MOVLW      2
0x01F2	0x0673      	XORWF      R3, 0
L__set_PWM22:
0x01F3	0x3001      	MOVLW      1
0x01F4	0x1D03      	BTFSS      STATUS, 2
0x01F5	0x3000      	MOVLW      0
0x01F6	0x00F2      	MOVWF      R2
0x01F7	0x1872      	BTFSC      R2, 0
0x01F8	0x29FB      	GOTO       L__set_PWM23
0x01F9	0x129D      	BCF        CCP2CON, 5
0x01FA	0x29FC      	GOTO       L__set_PWM24
L__set_PWM23:
0x01FB	0x169D      	BSF        CCP2CON, 5
L__set_PWM24:
;FRECVENTA.c,7 :: 		CCPR2L=val>>2;
0x01FC	0x0870      	MOVF       R0, 0
0x01FD	0x00F2      	MOVWF      R2
0x01FE	0x0871      	MOVF       R0+1, 0
0x01FF	0x00F3      	MOVWF      R2+1
0x0200	0x0CF3      	RRF        R2+1, 1
0x0201	0x0CF2      	RRF        R2, 1
0x0202	0x13F3      	BCF        R2+1, 7
0x0203	0x1B73      	BTFSC      R2+1, 6
0x0204	0x17F3      	BSF        R2+1, 7
0x0205	0x0CF3      	RRF        R2+1, 1
0x0206	0x0CF2      	RRF        R2, 1
0x0207	0x13F3      	BCF        R2+1, 7
0x0208	0x1B73      	BTFSC      R2+1, 6
0x0209	0x17F3      	BSF        R2+1, 7
0x020A	0x0872      	MOVF       R2, 0
0x020B	0x009B      	MOVWF      CCPR2L
;FRECVENTA.c,8 :: 		}
0x020C	0x0008      	RETURN
; end of _set_PWM
_Div_32x32_S:
	ADDWF      %s, %s
;__Lib_Math.c,1088 :: 		
;__Lib_Math.c,1099 :: 		
;__Lib_Math.c,1102 :: 		
0x020D	0x0874      	MOVF       R4, 0
0x020E	0x3A00      	XORLW      0
0x020F	0x1D03      	BTFSS      STATUS, 2
0x0210	0x2A26      	GOTO       L_Div_32x32_S6
;__Lib_Math.c,1103 :: 		
0x0211	0x0875      	MOVF       R5, 0
0x0212	0x3A00      	XORLW      0
0x0213	0x1D03      	BTFSS      STATUS, 2
0x0214	0x2A26      	GOTO       L_Div_32x32_S7
;__Lib_Math.c,1104 :: 		
0x0215	0x0876      	MOVF       R6, 0
0x0216	0x3A00      	XORLW      0
0x0217	0x1D03      	BTFSS      STATUS, 2
0x0218	0x2A26      	GOTO       L_Div_32x32_S8
;__Lib_Math.c,1105 :: 		
0x0219	0x0877      	MOVF       R7, 0
0x021A	0x3A00      	XORLW      0
0x021B	0x1D03      	BTFSS      STATUS, 2
0x021C	0x2A26      	GOTO       L_Div_32x32_S9
;__Lib_Math.c,1106 :: 		
0x021D	0x30FF      	MOVLW      255
0x021E	0x00F0      	MOVWF      R0
;__Lib_Math.c,1107 :: 		
0x021F	0x30FF      	MOVLW      255
0x0220	0x00F1      	MOVWF      R1
;__Lib_Math.c,1108 :: 		
0x0221	0x30FF      	MOVLW      255
0x0222	0x00F2      	MOVWF      R2
;__Lib_Math.c,1109 :: 		
0x0223	0x307F      	MOVLW      127
0x0224	0x00F3      	MOVWF      R3
;__Lib_Math.c,1110 :: 		
0x0225	0x0008      	RETURN
;__Lib_Math.c,1111 :: 		
L_Div_32x32_S9:
L_Div_32x32_S8:
L_Div_32x32_S7:
L_Div_32x32_S6:
;__Lib_Math.c,1114 :: 		
0x0226	0x1283      	BCF        STATUS, 5
;__Lib_Math.c,1115 :: 		
0x0227	0x1303      	BCF        STATUS, 6
;__Lib_Math.c,1117 :: 		
0x0228	0x01FC      	CLRF       R12
;__Lib_Math.c,1118 :: 		
0x0229	0x1BF7      	BTFSC      R7, 7
;__Lib_Math.c,1119 :: 		
0x022A	0x0AFC      	INCF       R12, 1
;__Lib_Math.c,1121 :: 		
0x022B	0x01FD      	CLRF       R13
;__Lib_Math.c,1122 :: 		
0x022C	0x01FB      	CLRF       R11
;__Lib_Math.c,1123 :: 		
0x022D	0x01FA      	CLRF       R10
;__Lib_Math.c,1124 :: 		
0x022E	0x01F9      	CLRF       R9
;__Lib_Math.c,1125 :: 		
0x022F	0x01F8      	CLRF       R8
;__Lib_Math.c,1126 :: 		
0x0230	0x0873      	MOVF       R3, 0
;__Lib_Math.c,1127 :: 		
0x0231	0x0472      	IORWF      R2, 0
;__Lib_Math.c,1128 :: 		
0x0232	0x0471      	IORWF      R1, 0
;__Lib_Math.c,1129 :: 		
0x0233	0x0470      	IORWF      R0, 0
;__Lib_Math.c,1130 :: 		
0x0234	0x1903      	BTFSC      STATUS, 2
;__Lib_Math.c,1131 :: 		
0x0235	0x2ABA      	GOTO       END_ALL
;__Lib_Math.c,1133 :: 		
0x0236	0x0873      	MOVF       R3, 0
;__Lib_Math.c,1134 :: 		
0x0237	0x0677      	XORWF      R7, 0
;__Lib_Math.c,1135 :: 		
0x0238	0x00AF      	MOVWF      ___math_tempb
;__Lib_Math.c,1136 :: 		
0x0239	0x1BAF      	BTFSC      ___math_tempb, 7
;__Lib_Math.c,1137 :: 		
0x023A	0x09FD      	COMF       R13, 1
;__Lib_Math.c,1141 :: 		
0x023B	0x1FF7      	BTFSS      R7, 7
;__Lib_Math.c,1142 :: 		
0x023C	0x2A48      	GOTO       CA3232S
;__Lib_Math.c,1144 :: 		
0x023D	0x09F4      	COMF       R4, 1
;__Lib_Math.c,1145 :: 		
0x023E	0x09F5      	COMF       R5, 1
;__Lib_Math.c,1146 :: 		
0x023F	0x09F6      	COMF       R6, 1
;__Lib_Math.c,1147 :: 		
0x0240	0x09F7      	COMF       R7, 1
;__Lib_Math.c,1148 :: 		
0x0241	0x0AF4      	INCF       R4, 1
;__Lib_Math.c,1149 :: 		
0x0242	0x1903      	BTFSC      STATUS, 2
;__Lib_Math.c,1150 :: 		
0x0243	0x0AF5      	INCF       R5, 1
;__Lib_Math.c,1151 :: 		
0x0244	0x1903      	BTFSC      STATUS, 2
;__Lib_Math.c,1152 :: 		
0x0245	0x0AF6      	INCF       R6, 1
;__Lib_Math.c,1153 :: 		
0x0246	0x1903      	BTFSC      STATUS, 2
;__Lib_Math.c,1154 :: 		
0x0247	0x0AF7      	INCF       R7, 1
;__Lib_Math.c,1156 :: 		
CA3232S:
;__Lib_Math.c,1157 :: 		
0x0248	0x1FF3      	BTFSS      R3, 7
;__Lib_Math.c,1158 :: 		
0x0249	0x2A55      	GOTO       C3232SX
;__Lib_Math.c,1160 :: 		
0x024A	0x09F0      	COMF       R0, 1
;__Lib_Math.c,1161 :: 		
0x024B	0x09F1      	COMF       R1, 1
;__Lib_Math.c,1162 :: 		
0x024C	0x09F2      	COMF       R2, 1
;__Lib_Math.c,1163 :: 		
0x024D	0x09F3      	COMF       R3, 1
;__Lib_Math.c,1164 :: 		
0x024E	0x0AF0      	INCF       R0, 1
;__Lib_Math.c,1165 :: 		
0x024F	0x1903      	BTFSC      STATUS, 2
;__Lib_Math.c,1166 :: 		
0x0250	0x0AF1      	INCF       R1, 1
;__Lib_Math.c,1167 :: 		
0x0251	0x1903      	BTFSC      STATUS, 2
;__Lib_Math.c,1168 :: 		
0x0252	0x0AF2      	INCF       R2, 1
;__Lib_Math.c,1169 :: 		
0x0253	0x1903      	BTFSC      STATUS, 2
;__Lib_Math.c,1170 :: 		
0x0254	0x0AF3      	INCF       R3, 1
;__Lib_Math.c,1172 :: 		
C3232SX:
;__Lib_Math.c,1173 :: 		
0x0255	0x0873      	MOVF       R3, 0
;__Lib_Math.c,1174 :: 		
0x0256	0x0477      	IORWF      R7, 0
;__Lib_Math.c,1175 :: 		
0x0257	0x00AF      	MOVWF      ___math_tempb
;__Lib_Math.c,1176 :: 		
0x0258	0x1BAF      	BTFSC      ___math_tempb, 7
;__Lib_Math.c,1177 :: 		
0x0259	0x2A76      	GOTO       C3232SX1
;__Lib_Math.c,1179 :: 		
C3232S:
;__Lib_Math.c,1182 :: 		
0x025A	0x208A      	CALL       _SDIV3232L
;__Lib_Math.c,1186 :: 		
0x025B	0x1BFC      	BTFSC      R12, 7
;__Lib_Math.c,1187 :: 		
0x025C	0x2A93      	GOTO       C3232SX4
;__Lib_Math.c,1189 :: 		
C3232SOK:
;__Lib_Math.c,1190 :: 		
0x025D	0x1FFD      	BTFSS      R13, 7
;__Lib_Math.c,1191 :: 		
0x025E	0x2ABA      	GOTO       END_ALL
;__Lib_Math.c,1193 :: 		
0x025F	0x09F0      	COMF       R0, 1
;__Lib_Math.c,1194 :: 		
0x0260	0x09F1      	COMF       R1, 1
;__Lib_Math.c,1195 :: 		
0x0261	0x09F2      	COMF       R2, 1
;__Lib_Math.c,1196 :: 		
0x0262	0x09F3      	COMF       R3, 1
;__Lib_Math.c,1197 :: 		
0x0263	0x0AF0      	INCF       R0, 1
;__Lib_Math.c,1198 :: 		
0x0264	0x1903      	BTFSC      STATUS, 2
;__Lib_Math.c,1199 :: 		
0x0265	0x0AF1      	INCF       R1, 1
;__Lib_Math.c,1200 :: 		
0x0266	0x1903      	BTFSC      STATUS, 2
;__Lib_Math.c,1201 :: 		
0x0267	0x0AF2      	INCF       R2, 1
;__Lib_Math.c,1202 :: 		
0x0268	0x1903      	BTFSC      STATUS, 2
;__Lib_Math.c,1203 :: 		
0x0269	0x0AF3      	INCF       R3, 1
;__Lib_Math.c,1205 :: 		
0x026A	0x09F8      	COMF       R8, 1
;__Lib_Math.c,1206 :: 		
0x026B	0x09F9      	COMF       R9, 1
;__Lib_Math.c,1207 :: 		
0x026C	0x09FA      	COMF       R10, 1
;__Lib_Math.c,1208 :: 		
0x026D	0x09FB      	COMF       R11, 1
;__Lib_Math.c,1209 :: 		
0x026E	0x0AF8      	INCF       R8, 1
;__Lib_Math.c,1210 :: 		
0x026F	0x1903      	BTFSC      STATUS, 2
;__Lib_Math.c,1211 :: 		
0x0270	0x0AF9      	INCF       R9, 1
;__Lib_Math.c,1212 :: 		
0x0271	0x1903      	BTFSC      STATUS, 2
;__Lib_Math.c,1213 :: 		
0x0272	0x0AFA      	INCF       R10, 1
;__Lib_Math.c,1214 :: 		
0x0273	0x1903      	BTFSC      STATUS, 2
;__Lib_Math.c,1215 :: 		
0x0274	0x0AFB      	INCF       R11, 1
;__Lib_Math.c,1217 :: 		
0x0275	0x2ABA      	GOTO       END_ALL
;__Lib_Math.c,1219 :: 		
C3232SX1:
;__Lib_Math.c,1220 :: 		
0x0276	0x1FF7      	BTFSS      R7, 7
;__Lib_Math.c,1221 :: 		
0x0277	0x2A8D      	GOTO       C3232SX3
;__Lib_Math.c,1222 :: 		
0x0278	0x1BF3      	BTFSC      R3, 7
;__Lib_Math.c,1223 :: 		
0x0279	0x2A87      	GOTO       C3232SX2
;__Lib_Math.c,1224 :: 		
0x027A	0x0873      	MOVF       R3, 0
;__Lib_Math.c,1225 :: 		
0x027B	0x00FB      	MOVWF      R11
;__Lib_Math.c,1226 :: 		
0x027C	0x0872      	MOVF       R2, 0
;__Lib_Math.c,1227 :: 		
0x027D	0x00FA      	MOVWF      R10
;__Lib_Math.c,1228 :: 		
0x027E	0x0871      	MOVF       R1, 0
;__Lib_Math.c,1229 :: 		
0x027F	0x00F9      	MOVWF      R9
;__Lib_Math.c,1230 :: 		
0x0280	0x0870      	MOVF       R0, 0
;__Lib_Math.c,1231 :: 		
0x0281	0x00F8      	MOVWF      R8
;__Lib_Math.c,1232 :: 		
0x0282	0x01F3      	CLRF       R3
;__Lib_Math.c,1233 :: 		
0x0283	0x01F2      	CLRF       R2
;__Lib_Math.c,1234 :: 		
0x0284	0x01F1      	CLRF       R1
;__Lib_Math.c,1235 :: 		
0x0285	0x01F0      	CLRF       R0
;__Lib_Math.c,1236 :: 		
0x0286	0x2A5D      	GOTO       C3232SOK
;__Lib_Math.c,1237 :: 		
C3232SX2:
;__Lib_Math.c,1238 :: 		
0x0287	0x01F3      	CLRF       R3
;__Lib_Math.c,1239 :: 		
0x0288	0x01F2      	CLRF       R2
;__Lib_Math.c,1240 :: 		
0x0289	0x01F1      	CLRF       R1
;__Lib_Math.c,1241 :: 		
0x028A	0x01F0      	CLRF       R0
;__Lib_Math.c,1242 :: 		
0x028B	0x0AF0      	INCF       R0, 1
;__Lib_Math.c,1243 :: 		
0x028C	0x3400      	RETLW      0
;__Lib_Math.c,1245 :: 		
C3232SX3:
;__Lib_Math.c,1246 :: 		
0x028D	0x09F3      	COMF       R3, 1
;__Lib_Math.c,1247 :: 		
0x028E	0x09F2      	COMF       R2, 1
;__Lib_Math.c,1248 :: 		
0x028F	0x09F1      	COMF       R1, 1
;__Lib_Math.c,1249 :: 		
0x0290	0x09F0      	COMF       R0, 1
;__Lib_Math.c,1251 :: 		
0x0291	0x17FC      	BSF        R12, 7
;__Lib_Math.c,1253 :: 		
0x0292	0x2A5A      	GOTO       C3232S
;__Lib_Math.c,1255 :: 		
C3232SX4:
;__Lib_Math.c,1256 :: 		
0x0293	0x0AF8      	INCF       R8, 1
;__Lib_Math.c,1257 :: 		
0x0294	0x1903      	BTFSC      STATUS, 2
;__Lib_Math.c,1258 :: 		
0x0295	0x0AF9      	INCF       R9, 1
;__Lib_Math.c,1259 :: 		
0x0296	0x1903      	BTFSC      STATUS, 2
;__Lib_Math.c,1260 :: 		
0x0297	0x0AFA      	INCF       R10, 1
;__Lib_Math.c,1261 :: 		
0x0298	0x1903      	BTFSC      STATUS, 2
;__Lib_Math.c,1262 :: 		
0x0299	0x0AFB      	INCF       R11, 1
;__Lib_Math.c,1263 :: 		
0x029A	0x0874      	MOVF       R4, 0
;__Lib_Math.c,1264 :: 		
0x029B	0x0278      	SUBWF      R8, 0
;__Lib_Math.c,1265 :: 		
0x029C	0x1D03      	BTFSS      STATUS, 2
;__Lib_Math.c,1266 :: 		
0x029D	0x2A5D      	GOTO       C3232SOK
;__Lib_Math.c,1267 :: 		
0x029E	0x0875      	MOVF       R5, 0
;__Lib_Math.c,1268 :: 		
0x029F	0x0279      	SUBWF      R9, 0
;__Lib_Math.c,1269 :: 		
0x02A0	0x1D03      	BTFSS      STATUS, 2
;__Lib_Math.c,1270 :: 		
0x02A1	0x2A5D      	GOTO       C3232SOK
;__Lib_Math.c,1271 :: 		
0x02A2	0x0876      	MOVF       R6, 0
;__Lib_Math.c,1272 :: 		
0x02A3	0x027A      	SUBWF      R10, 0
;__Lib_Math.c,1273 :: 		
0x02A4	0x1D03      	BTFSS      STATUS, 2
;__Lib_Math.c,1274 :: 		
0x02A5	0x2A5D      	GOTO       C3232SOK
;__Lib_Math.c,1275 :: 		
0x02A6	0x0877      	MOVF       R7, 0
;__Lib_Math.c,1276 :: 		
0x02A7	0x027B      	SUBWF      R11, 0
;__Lib_Math.c,1277 :: 		
0x02A8	0x1D03      	BTFSS      STATUS, 2
;__Lib_Math.c,1278 :: 		
0x02A9	0x2A5D      	GOTO       C3232SOK
;__Lib_Math.c,1279 :: 		
0x02AA	0x01FB      	CLRF       R11
;__Lib_Math.c,1280 :: 		
0x02AB	0x01FA      	CLRF       R10
;__Lib_Math.c,1281 :: 		
0x02AC	0x01F9      	CLRF       R9
;__Lib_Math.c,1282 :: 		
0x02AD	0x01F8      	CLRF       R8
;__Lib_Math.c,1283 :: 		
0x02AE	0x0AF0      	INCF       R0, 1
;__Lib_Math.c,1284 :: 		
0x02AF	0x1903      	BTFSC      STATUS, 2
;__Lib_Math.c,1285 :: 		
0x02B0	0x0AF1      	INCF       R1, 1
;__Lib_Math.c,1286 :: 		
0x02B1	0x1903      	BTFSC      STATUS, 2
;__Lib_Math.c,1287 :: 		
0x02B2	0x0AF2      	INCF       R2, 1
;__Lib_Math.c,1288 :: 		
0x02B3	0x1903      	BTFSC      STATUS, 2
;__Lib_Math.c,1289 :: 		
0x02B4	0x0AF3      	INCF       R3, 1
;__Lib_Math.c,1290 :: 		
0x02B5	0x1FF3      	BTFSS      R3, 7
;__Lib_Math.c,1291 :: 		
0x02B6	0x2A5D      	GOTO       C3232SOK
;__Lib_Math.c,1292 :: 		
0x02B7	0x01AF      	CLRF       ___math_tempb
;__Lib_Math.c,1293 :: 		
0x02B8	0x162F      	BSF        ___math_tempb, 4
;__Lib_Math.c,1294 :: 		
0x02B9	0x34FF      	RETLW      255
;__Lib_Math.c,1295 :: 		
END_ALL:
;__Lib_Math.c,1296 :: 		
0x02BA	0x01AF      	CLRF       ___math_tempb
;__Lib_Math.c,1297 :: 		
0x02BB	0x1C7C      	BTFSS      R12, 0
;__Lib_Math.c,1298 :: 		
0x02BC	0x2ABE      	GOTO       avoid_comfrem
;__Lib_Math.c,1300 :: 		
0x02BD	0x200B      	CALL       _COMFREM
;__Lib_Math.c,1302 :: 		
avoid_comfrem:
;__Lib_Math.c,1303 :: 		
0x02BE	0x3E00      	ADDLW      0
;__Lib_Math.c,1305 :: 		
0x02BF	0x0008      	RETURN
; end of _Div_32x32_S
_interrupt:
0x02C0	0x00FF      	MOVWF      R15
0x02C1	0x0E03      	SWAPF      STATUS, 0
0x02C2	0x0183      	CLRF       STATUS
0x02C3	0x00B6      	MOVWF      ___saveSTATUS
0x02C4	0x080A      	MOVF       PCLATH, 0
0x02C5	0x00B7      	MOVWF      ___savePCLATH
0x02C6	0x018A      	CLRF       PCLATH
0x02C7	0x0870      	MOVF       R0, 0
0x02C8	0x00AA      	MOVWF      42
0x02C9	0x0871      	MOVF       R1, 0
0x02CA	0x00A9      	MOVWF      41
0x02CB	0x0872      	MOVF       R2, 0
0x02CC	0x1283      	BCF        STATUS, 5
0x02CD	0x1303      	BCF        STATUS, 6
0x02CE	0x00A8      	MOVWF      40
0x02CF	0x0873      	MOVF       R3, 0
0x02D0	0x00A7      	MOVWF      39
0x02D1	0x0874      	MOVF       R4, 0
0x02D2	0x00A6      	MOVWF      38
0x02D3	0x0875      	MOVF       R5, 0
0x02D4	0x00A5      	MOVWF      37
0x02D5	0x0878      	MOVF       R8, 0
0x02D6	0x00A4      	MOVWF      36
0x02D7	0x0879      	MOVF       R9, 0
0x02D8	0x00A3      	MOVWF      35
0x02D9	0x087A      	MOVF       R10, 0
0x02DA	0x00A2      	MOVWF      34
0x02DB	0x087B      	MOVF       R11, 0
0x02DC	0x00A1      	MOVWF      33
0x02DD	0x087C      	MOVF       R12, 0
0x02DE	0x00A0      	MOVWF      32
;FRECVENTA.c,10 :: 		void interrupt ()
;FRECVENTA.c,12 :: 		INTCON.GIE=0;
0x02DF	0x138B      	BCF        INTCON, 7
;FRECVENTA.c,13 :: 		if (PIR1.CCP1IF==1)
0x02E0	0x1D0C      	BTFSS      PIR1, 2
0x02E1	0x2B25      	GOTO       L_interrupt0
;FRECVENTA.c,16 :: 		TMR1H=0;
0x02E2	0x018F      	CLRF       TMR1H
;FRECVENTA.c,17 :: 		TMR1L=0;
0x02E3	0x018E      	CLRF       TMR1L
;FRECVENTA.c,18 :: 		var=CCPR1H;
0x02E4	0x0816      	MOVF       CCPR1H, 0
0x02E5	0x00AB      	MOVWF      _var
0x02E6	0x01AC      	CLRF       _var+1
0x02E7	0x01AD      	CLRF       _var+2
0x02E8	0x01AE      	CLRF       _var+3
;FRECVENTA.c,19 :: 		var=var<<8;
0x02E9	0x082D      	MOVF       _var+2, 0
0x02EA	0x00FB      	MOVWF      R8+3
0x02EB	0x082C      	MOVF       _var+1, 0
0x02EC	0x00FA      	MOVWF      R8+2
0x02ED	0x082B      	MOVF       _var, 0
0x02EE	0x00F9      	MOVWF      R8+1
0x02EF	0x01F8      	CLRF       R8
0x02F0	0x0878      	MOVF       R8, 0
0x02F1	0x00AB      	MOVWF      _var
0x02F2	0x0879      	MOVF       R8+1, 0
0x02F3	0x00AC      	MOVWF      _var+1
0x02F4	0x087A      	MOVF       R8+2, 0
0x02F5	0x00AD      	MOVWF      _var+2
0x02F6	0x087B      	MOVF       R8+3, 0
0x02F7	0x00AE      	MOVWF      _var+3
;FRECVENTA.c,20 :: 		var=var+CCPR1L;
0x02F8	0x0815      	MOVF       CCPR1L, 0
0x02F9	0x00F4      	MOVWF      R4
0x02FA	0x01F5      	CLRF       R4+1
0x02FB	0x01F6      	CLRF       R4+2
0x02FC	0x01F7      	CLRF       R4+3
0x02FD	0x0878      	MOVF       R8, 0
0x02FE	0x07F4      	ADDWF      R4, 1
0x02FF	0x0879      	MOVF       R8+1, 0
0x0300	0x1803      	BTFSC      STATUS, 0
0x0301	0x0F79      	INCFSZ     R8+1, 0
0x0302	0x07F5      	ADDWF      R4+1, 1
0x0303	0x087A      	MOVF       R8+2, 0
0x0304	0x1803      	BTFSC      STATUS, 0
0x0305	0x0F7A      	INCFSZ     R8+2, 0
0x0306	0x07F6      	ADDWF      R4+2, 1
0x0307	0x087B      	MOVF       R8+3, 0
0x0308	0x1803      	BTFSC      STATUS, 0
0x0309	0x0F7B      	INCFSZ     R8+3, 0
0x030A	0x07F7      	ADDWF      R4+3, 1
0x030B	0x0874      	MOVF       R4, 0
0x030C	0x00AB      	MOVWF      _var
0x030D	0x0875      	MOVF       R4+1, 0
0x030E	0x00AC      	MOVWF      _var+1
0x030F	0x0876      	MOVF       R4+2, 0
0x0310	0x00AD      	MOVWF      _var+2
0x0311	0x0877      	MOVF       R4+3, 0
0x0312	0x00AE      	MOVWF      _var+3
;FRECVENTA.c,21 :: 		n=937500/var;
0x0313	0x301C      	MOVLW      28
0x0314	0x00F0      	MOVWF      R0
0x0315	0x304E      	MOVLW      78
0x0316	0x00F1      	MOVWF      R0+1
0x0317	0x300E      	MOVLW      14
0x0318	0x00F2      	MOVWF      R0+2
0x0319	0x3000      	MOVLW      0
0x031A	0x00F3      	MOVWF      R0+3
0x031B	0x220D      	CALL       _Div_32x32_S
0x031C	0x0870      	MOVF       R0, 0
0x031D	0x00B0      	MOVWF      _n
0x031E	0x0871      	MOVF       R0+1, 0
0x031F	0x00B1      	MOVWF      _n+1
0x0320	0x0872      	MOVF       R0+2, 0
0x0321	0x00B2      	MOVWF      _n+2
0x0322	0x0873      	MOVF       R0+3, 0
0x0323	0x00B3      	MOVWF      _n+3
;FRECVENTA.c,23 :: 		PIR1.CCP1IF=0;
0x0324	0x110C      	BCF        PIR1, 2
;FRECVENTA.c,24 :: 		}
L_interrupt0:
;FRECVENTA.c,25 :: 		INTCON.GIE=1;
0x0325	0x178B      	BSF        INTCON, 7
;FRECVENTA.c,26 :: 		}
L__interrupt25:
0x0326	0x082A      	MOVF       42, 0
0x0327	0x00F0      	MOVWF      R0
0x0328	0x0829      	MOVF       41, 0
0x0329	0x00F1      	MOVWF      R1
0x032A	0x0828      	MOVF       40, 0
0x032B	0x00F2      	MOVWF      R2
0x032C	0x0827      	MOVF       39, 0
0x032D	0x00F3      	MOVWF      R3
0x032E	0x0826      	MOVF       38, 0
0x032F	0x00F4      	MOVWF      R4
0x0330	0x0825      	MOVF       37, 0
0x0331	0x00F5      	MOVWF      R5
0x0332	0x0824      	MOVF       36, 0
0x0333	0x00F8      	MOVWF      R8
0x0334	0x0823      	MOVF       35, 0
0x0335	0x00F9      	MOVWF      R9
0x0336	0x0822      	MOVF       34, 0
0x0337	0x00FA      	MOVWF      R10
0x0338	0x0821      	MOVF       33, 0
0x0339	0x00FB      	MOVWF      R11
0x033A	0x0820      	MOVF       32, 0
0x033B	0x00FC      	MOVWF      R12
0x033C	0x0837      	MOVF       ___savePCLATH, 0
0x033D	0x008A      	MOVWF      PCLATH
0x033E	0x0E36      	SWAPF      ___saveSTATUS, 0
0x033F	0x0083      	MOVWF      STATUS
0x0340	0x0EFF      	SWAPF      R15, 1
0x0341	0x0E7F      	SWAPF      R15, 0
0x0342	0x0009      	RETFIE
; end of _interrupt
_main:
;FRECVENTA.c,27 :: 		void main()
;FRECVENTA.c,30 :: 		PR2 = 0b00001100 ;
0x0343	0x300C      	MOVLW      12
0x0344	0x1683      	BSF        STATUS, 5
0x0345	0x1303      	BCF        STATUS, 6
0x0346	0x0092      	MOVWF      PR2
;FRECVENTA.c,31 :: 		T2CON = 0b00000100 ;
0x0347	0x3004      	MOVLW      4
0x0348	0x1283      	BCF        STATUS, 5
0x0349	0x0092      	MOVWF      T2CON
;FRECVENTA.c,32 :: 		CCPR2L = 0b00000000 ;
0x034A	0x019B      	CLRF       CCPR2L
;FRECVENTA.c,33 :: 		CCP2CON = 0b00001100 ;
0x034B	0x300C      	MOVLW      12
0x034C	0x009D      	MOVWF      CCP2CON
;FRECVENTA.c,34 :: 		TRISD.RD2=0;
0x034D	0x1683      	BSF        STATUS, 5
0x034E	0x1108      	BCF        TRISD, 2
;FRECVENTA.c,35 :: 		TRISC.RC5=1;
0x034F	0x1687      	BSF        TRISC, 5
;FRECVENTA.c,36 :: 		TRISB=0;
0x0350	0x0186      	CLRF       TRISB
;FRECVENTA.c,38 :: 		T1CON=0b00110001;
0x0351	0x3031      	MOVLW      49
0x0352	0x1283      	BCF        STATUS, 5
0x0353	0x0090      	MOVWF      T1CON
;FRECVENTA.c,39 :: 		CCP1CON=0x04;
0x0354	0x3004      	MOVLW      4
0x0355	0x0097      	MOVWF      CCP1CON
;FRECVENTA.c,42 :: 		TRISA.RA0=1;
0x0356	0x1683      	BSF        STATUS, 5
0x0357	0x1405      	BSF        TRISA, 0
;FRECVENTA.c,43 :: 		ANSEL.AN0=1;
0x0358	0x1411      	BSF        ANSEL, 0
;FRECVENTA.c,45 :: 		INTCON.GIE=1;
0x0359	0x178B      	BSF        INTCON, 7
;FRECVENTA.c,46 :: 		INTCON.PEIE=1;
0x035A	0x170B      	BSF        INTCON, 6
;FRECVENTA.c,47 :: 		PIE1.CCP1IE=1;
0x035B	0x150C      	BSF        PIE1, 2
;FRECVENTA.c,54 :: 		while(1)
L_main1:
;FRECVENTA.c,56 :: 		set_PWM();
0x035C	0x21C2      	CALL       _set_PWM
;FRECVENTA.c,58 :: 		if(n>50)
0x035D	0x3080      	MOVLW      128
0x035E	0x00F0      	MOVWF      R0
0x035F	0x3080      	MOVLW      128
0x0360	0x0633      	XORWF      _n+3, 0
0x0361	0x0270      	SUBWF      R0, 0
0x0362	0x1D03      	BTFSS      STATUS, 2
0x0363	0x2B6E      	GOTO       L__main26
0x0364	0x0832      	MOVF       _n+2, 0
0x0365	0x3C00      	SUBLW      0
0x0366	0x1D03      	BTFSS      STATUS, 2
0x0367	0x2B6E      	GOTO       L__main26
0x0368	0x0831      	MOVF       _n+1, 0
0x0369	0x3C00      	SUBLW      0
0x036A	0x1D03      	BTFSS      STATUS, 2
0x036B	0x2B6E      	GOTO       L__main26
0x036C	0x0830      	MOVF       _n, 0
0x036D	0x3C32      	SUBLW      50
L__main26:
0x036E	0x1803      	BTFSC      STATUS, 0
0x036F	0x2B72      	GOTO       L_main3
;FRECVENTA.c,59 :: 		PORTB.RB0=1;
0x0370	0x1406      	BSF        PORTB, 0
0x0371	0x2B73      	GOTO       L_main4
L_main3:
;FRECVENTA.c,60 :: 		else PORTB.RB0=0;
0x0372	0x1006      	BCF        PORTB, 0
L_main4:
;FRECVENTA.c,62 :: 		if(n>100)
0x0373	0x3080      	MOVLW      128
0x0374	0x00F0      	MOVWF      R0
0x0375	0x3080      	MOVLW      128
0x0376	0x0633      	XORWF      _n+3, 0
0x0377	0x0270      	SUBWF      R0, 0
0x0378	0x1D03      	BTFSS      STATUS, 2
0x0379	0x2B84      	GOTO       L__main27
0x037A	0x0832      	MOVF       _n+2, 0
0x037B	0x3C00      	SUBLW      0
0x037C	0x1D03      	BTFSS      STATUS, 2
0x037D	0x2B84      	GOTO       L__main27
0x037E	0x0831      	MOVF       _n+1, 0
0x037F	0x3C00      	SUBLW      0
0x0380	0x1D03      	BTFSS      STATUS, 2
0x0381	0x2B84      	GOTO       L__main27
0x0382	0x0830      	MOVF       _n, 0
0x0383	0x3C64      	SUBLW      100
L__main27:
0x0384	0x1803      	BTFSC      STATUS, 0
0x0385	0x2B88      	GOTO       L_main5
;FRECVENTA.c,63 :: 		PORTB.RB1=1;
0x0386	0x1486      	BSF        PORTB, 1
0x0387	0x2B89      	GOTO       L_main6
L_main5:
;FRECVENTA.c,64 :: 		else PORTB.RB1=0;
0x0388	0x1086      	BCF        PORTB, 1
L_main6:
;FRECVENTA.c,66 :: 		if(n>150)
0x0389	0x3080      	MOVLW      128
0x038A	0x00F0      	MOVWF      R0
0x038B	0x3080      	MOVLW      128
0x038C	0x0633      	XORWF      _n+3, 0
0x038D	0x0270      	SUBWF      R0, 0
0x038E	0x1D03      	BTFSS      STATUS, 2
0x038F	0x2B9A      	GOTO       L__main28
0x0390	0x0832      	MOVF       _n+2, 0
0x0391	0x3C00      	SUBLW      0
0x0392	0x1D03      	BTFSS      STATUS, 2
0x0393	0x2B9A      	GOTO       L__main28
0x0394	0x0831      	MOVF       _n+1, 0
0x0395	0x3C00      	SUBLW      0
0x0396	0x1D03      	BTFSS      STATUS, 2
0x0397	0x2B9A      	GOTO       L__main28
0x0398	0x0830      	MOVF       _n, 0
0x0399	0x3C96      	SUBLW      150
L__main28:
0x039A	0x1803      	BTFSC      STATUS, 0
0x039B	0x2B9E      	GOTO       L_main7
;FRECVENTA.c,67 :: 		PORTB.RB2=1;
0x039C	0x1506      	BSF        PORTB, 2
0x039D	0x2B9F      	GOTO       L_main8
L_main7:
;FRECVENTA.c,68 :: 		else PORTB.RB2=0;
0x039E	0x1106      	BCF        PORTB, 2
L_main8:
;FRECVENTA.c,70 :: 		if(n>200)
0x039F	0x3080      	MOVLW      128
0x03A0	0x00F0      	MOVWF      R0
0x03A1	0x3080      	MOVLW      128
0x03A2	0x0633      	XORWF      _n+3, 0
0x03A3	0x0270      	SUBWF      R0, 0
0x03A4	0x1D03      	BTFSS      STATUS, 2
0x03A5	0x2BB0      	GOTO       L__main29
0x03A6	0x0832      	MOVF       _n+2, 0
0x03A7	0x3C00      	SUBLW      0
0x03A8	0x1D03      	BTFSS      STATUS, 2
0x03A9	0x2BB0      	GOTO       L__main29
0x03AA	0x0831      	MOVF       _n+1, 0
0x03AB	0x3C00      	SUBLW      0
0x03AC	0x1D03      	BTFSS      STATUS, 2
0x03AD	0x2BB0      	GOTO       L__main29
0x03AE	0x0830      	MOVF       _n, 0
0x03AF	0x3CC8      	SUBLW      200
L__main29:
0x03B0	0x1803      	BTFSC      STATUS, 0
0x03B1	0x2BB4      	GOTO       L_main9
;FRECVENTA.c,71 :: 		PORTB.RB3=1;
0x03B2	0x1586      	BSF        PORTB, 3
0x03B3	0x2BB5      	GOTO       L_main10
L_main9:
;FRECVENTA.c,72 :: 		else PORTB.RB3=0;
0x03B4	0x1186      	BCF        PORTB, 3
L_main10:
;FRECVENTA.c,74 :: 		if(n>250)
0x03B5	0x3080      	MOVLW      128
0x03B6	0x00F0      	MOVWF      R0
0x03B7	0x3080      	MOVLW      128
0x03B8	0x0633      	XORWF      _n+3, 0
0x03B9	0x0270      	SUBWF      R0, 0
0x03BA	0x1D03      	BTFSS      STATUS, 2
0x03BB	0x2BC6      	GOTO       L__main30
0x03BC	0x0832      	MOVF       _n+2, 0
0x03BD	0x3C00      	SUBLW      0
0x03BE	0x1D03      	BTFSS      STATUS, 2
0x03BF	0x2BC6      	GOTO       L__main30
0x03C0	0x0831      	MOVF       _n+1, 0
0x03C1	0x3C00      	SUBLW      0
0x03C2	0x1D03      	BTFSS      STATUS, 2
0x03C3	0x2BC6      	GOTO       L__main30
0x03C4	0x0830      	MOVF       _n, 0
0x03C5	0x3CFA      	SUBLW      250
L__main30:
0x03C6	0x1803      	BTFSC      STATUS, 0
0x03C7	0x2BCA      	GOTO       L_main11
;FRECVENTA.c,75 :: 		PORTB.RB4=1;
0x03C8	0x1606      	BSF        PORTB, 4
0x03C9	0x2BCB      	GOTO       L_main12
L_main11:
;FRECVENTA.c,76 :: 		else PORTB.RB4=0;
0x03CA	0x1206      	BCF        PORTB, 4
L_main12:
;FRECVENTA.c,78 :: 		if(n>300)
0x03CB	0x3080      	MOVLW      128
0x03CC	0x00F0      	MOVWF      R0
0x03CD	0x3080      	MOVLW      128
0x03CE	0x0633      	XORWF      _n+3, 0
0x03CF	0x0270      	SUBWF      R0, 0
0x03D0	0x1D03      	BTFSS      STATUS, 2
0x03D1	0x2BDC      	GOTO       L__main31
0x03D2	0x0832      	MOVF       _n+2, 0
0x03D3	0x3C00      	SUBLW      0
0x03D4	0x1D03      	BTFSS      STATUS, 2
0x03D5	0x2BDC      	GOTO       L__main31
0x03D6	0x0831      	MOVF       _n+1, 0
0x03D7	0x3C01      	SUBLW      1
0x03D8	0x1D03      	BTFSS      STATUS, 2
0x03D9	0x2BDC      	GOTO       L__main31
0x03DA	0x0830      	MOVF       _n, 0
0x03DB	0x3C2C      	SUBLW      44
L__main31:
0x03DC	0x1803      	BTFSC      STATUS, 0
0x03DD	0x2BE0      	GOTO       L_main13
;FRECVENTA.c,79 :: 		PORTB.RB5=1;
0x03DE	0x1686      	BSF        PORTB, 5
0x03DF	0x2BE1      	GOTO       L_main14
L_main13:
;FRECVENTA.c,80 :: 		else PORTB.RB5=0;
0x03E0	0x1286      	BCF        PORTB, 5
L_main14:
;FRECVENTA.c,82 :: 		if(n>350)
0x03E1	0x3080      	MOVLW      128
0x03E2	0x00F0      	MOVWF      R0
0x03E3	0x3080      	MOVLW      128
0x03E4	0x0633      	XORWF      _n+3, 0
0x03E5	0x0270      	SUBWF      R0, 0
0x03E6	0x1D03      	BTFSS      STATUS, 2
0x03E7	0x2BF2      	GOTO       L__main32
0x03E8	0x0832      	MOVF       _n+2, 0
0x03E9	0x3C00      	SUBLW      0
0x03EA	0x1D03      	BTFSS      STATUS, 2
0x03EB	0x2BF2      	GOTO       L__main32
0x03EC	0x0831      	MOVF       _n+1, 0
0x03ED	0x3C01      	SUBLW      1
0x03EE	0x1D03      	BTFSS      STATUS, 2
0x03EF	0x2BF2      	GOTO       L__main32
0x03F0	0x0830      	MOVF       _n, 0
0x03F1	0x3C5E      	SUBLW      94
L__main32:
0x03F2	0x1803      	BTFSC      STATUS, 0
0x03F3	0x2BF6      	GOTO       L_main15
;FRECVENTA.c,83 :: 		PORTB.RB6=1;
0x03F4	0x1706      	BSF        PORTB, 6
0x03F5	0x2BF7      	GOTO       L_main16
L_main15:
;FRECVENTA.c,84 :: 		else PORTB.RB6=0;
0x03F6	0x1306      	BCF        PORTB, 6
L_main16:
;FRECVENTA.c,86 :: 		if(n>400)
0x03F7	0x3080      	MOVLW      128
0x03F8	0x00F0      	MOVWF      R0
0x03F9	0x3080      	MOVLW      128
0x03FA	0x0633      	XORWF      _n+3, 0
0x03FB	0x0270      	SUBWF      R0, 0
0x03FC	0x1D03      	BTFSS      STATUS, 2
0x03FD	0x2C08      	GOTO       L__main33
0x03FE	0x0832      	MOVF       _n+2, 0
0x03FF	0x3C00      	SUBLW      0
0x0400	0x1D03      	BTFSS      STATUS, 2
0x0401	0x2C08      	GOTO       L__main33
0x0402	0x0831      	MOVF       _n+1, 0
0x0403	0x3C01      	SUBLW      1
0x0404	0x1D03      	BTFSS      STATUS, 2
0x0405	0x2C08      	GOTO       L__main33
0x0406	0x0830      	MOVF       _n, 0
0x0407	0x3C90      	SUBLW      144
L__main33:
0x0408	0x1803      	BTFSC      STATUS, 0
0x0409	0x2C0C      	GOTO       L_main17
;FRECVENTA.c,87 :: 		PORTB.RB7=1;
0x040A	0x1786      	BSF        PORTB, 7
0x040B	0x2C0D      	GOTO       L_main18
L_main17:
;FRECVENTA.c,88 :: 		else PORTB.RB7=0;
0x040C	0x1386      	BCF        PORTB, 7
L_main18:
;FRECVENTA.c,89 :: 		}
0x040D	0x2B5C      	GOTO       L_main1
;FRECVENTA.c,90 :: 		}
0x040E	0x2C0E      	GOTO       $+0
; end of _main
Symbol List:
//** Routines locations **
//ADDRESS    SIZE    PROCEDURE
//----------------------------------------------
0x0005       [6]    _Delay_22us
0x000B      [12]    _COMFREM
0x0017      [36]    _ADC_Read
0x003B       [7]    _____DoICP
0x0042      [43]    _Mul_16x16_U
0x006D      [29]    _Div_16x16_U
0x008A     [300]    _SDIV3232L
0x01B6      [12]    ___CC2DW
0x01C2      [75]    _set_PWM
0x020D     [179]    _Div_32x32_S
0x02C0     [131]    _interrupt
0x0343     [204]    _main
//** Variables locations ** 
//ADDRESS    SIZE    VARIABLE
//----------------------------------------------
0x0000       [1]    INDF
0x0001       [1]    TMR0
0x0002       [1]    PCL
0x0003       [0]    Z_bit
0x0003       [0]    RP0_bit
0x0003       [0]    NOT_TO_bit
0x0003       [0]    NOT_PD_bit
0x0003       [0]    DC_bit
0x0003       [0]    C_bit
0x0003       [0]    IRP_bit
0x0003       [1]    STATUS
0x0003       [0]    RP1_bit
0x0004       [1]    FSRPTR
0x0004       [1]    FSR
0x0005       [1]    PORTA
0x0005       [0]    RA2_bit
0x0005       [0]    RA0_bit
0x0005       [0]    RA1_bit
0x0005       [0]    RA5_bit
0x0005       [0]    RA6_bit
0x0005       [0]    RA7_bit
0x0005       [0]    RA4_bit
0x0005       [0]    RA3_bit
0x0006       [0]    RB0_bit
0x0006       [0]    RB3_bit
0x0006       [0]    RB1_bit
0x0006       [0]    RB2_bit
0x0006       [0]    RB4_bit
0x0006       [0]    RB7_bit
0x0006       [1]    PORTB
0x0006       [0]    RB5_bit
0x0006       [0]    RB6_bit
0x0007       [0]    RC6_bit
0x0007       [0]    RC3_bit
0x0007       [0]    RC0_bit
0x0007       [0]    RC5_bit
0x0007       [0]    RC2_bit
0x0007       [0]    RC4_bit
0x0007       [0]    RC1_bit
0x0007       [0]    RC7_bit
0x0007       [1]    PORTC
0x0008       [0]    RD4_bit
0x0008       [0]    RD0_bit
0x0008       [0]    RD6_bit
0x0008       [0]    RD5_bit
0x0008       [1]    PORTD
0x0008       [0]    RD2_bit
0x0008       [0]    RD7_bit
0x0008       [0]    RD3_bit
0x0008       [0]    RD1_bit
0x0009       [0]    RE1_bit
0x0009       [0]    RE2_bit
0x0009       [0]    RE0_bit
0x0009       [1]    PORTE
0x0009       [0]    RE3_bit
0x000A       [1]    PCLATH
0x000B       [0]    INTE_bit
0x000B       [0]    TMR0IF_bit
0x000B       [0]    RBIE_bit
0x000B       [0]    T0IF_bit
0x000B       [1]    INTCON
0x000B       [0]    TMR0IE_bit
0x000B       [0]    T0IE_bit
0x000B       [0]    INTF_bit
0x000B       [0]    PEIE_bit
0x000B       [0]    GIE_bit
0x000B       [0]    RBIF_bit
0x000C       [0]    SSPIF_bit
0x000C       [0]    TXIF_bit
0x000C       [0]    CCP1IF_bit
0x000C       [0]    TMR2IF_bit
0x000C       [0]    TMR1IF_bit
0x000C       [0]    EEIF_bit
0x000C       [0]    RCIF_bit
0x000C       [0]    ADIF_bit
0x000C       [1]    PIR1
0x000D       [0]    LCDIF_bit
0x000D       [0]    C2IF_bit
0x000D       [1]    PIR2
0x000D       [0]    LVDIF_bit
0x000D       [0]    CCP2IF_bit
0x000D       [0]    C1IF_bit
0x000D       [0]    OSFIF_bit
0x000E       [1]    TMR1L
0x000F       [1]    TMR1H
0x0010       [1]    T1CON
0x0010       [0]    T1OSCEN_bit
0x0010       [0]    T1CKPS1_bit
0x0010       [0]    T1GE_bit
0x0010       [0]    TMR1CS_bit
0x0010       [0]    NOT_T1SYNC_bit
0x0010       [0]    T1CKPS0_bit
0x0010       [0]    T1SYNC_bit
0x0010       [0]    TMR1ON_bit
0x0010       [0]    T1INSYNC_bit
0x0010       [0]    T1GINV_bit
0x0011       [1]    TMR2
0x0012       [0]    T2CKPS1_bit
0x0012       [0]    T2CKPS0_bit
0x0012       [0]    TOUTPS3_bit
0x0012       [1]    T2CON
0x0012       [0]    TOUTPS2_bit
0x0012       [0]    TOUTPS1_bit
0x0012       [0]    TOUTPS0_bit
0x0012       [0]    TMR2ON_bit
0x0013       [1]    SSPBUF
0x0014       [0]    SSPM3_bit
0x0014       [0]    SSPM2_bit
0x0014       [0]    SSPM0_bit
0x0014       [0]    SSPM1_bit
0x0014       [1]    SSPCON
0x0014       [0]    WCOL_bit
0x0014       [0]    SSPOV_bit
0x0014       [0]    CKP_bit
0x0014       [0]    SSPEN_bit
0x0015       [1]    CCPR1L
0x0015       [2]    CCPR1
0x0016       [1]    CCPR1H
0x0017       [0]    CCP1X_bit
0x0017       [0]    CCP1M2_bit
0x0017       [0]    CCP1M0_bit
0x0017       [0]    CCP1M3_bit
0x0017       [1]    CCP1CON
0x0017       [0]    CCP1M1_bit
0x0017       [0]    CCP1Y_bit
0x0018       [0]    ADDEN_bit
0x0018       [0]    FERR_bit
0x0018       [0]    RCD8_bit
0x0018       [0]    RX9D_bit
0x0018       [0]    OERR_bit
0x0018       [0]    RX9_bit
0x0018       [0]    SPEN_bit
0x0018       [0]    NOT_RC8_bit
0x0018       [0]    RC9_bit
0x0018       [0]    RC8_9_bit
0x0018       [1]    RCSTA
0x0018       [0]    SREN_bit
0x0018       [0]    CREN_bit
0x0019       [1]    TXREG
0x001A       [1]    RCREG
0x001B       [1]    CCPR2L
0x001C       [1]    CCPR2H
0x001D       [0]    CCP2M2_bit
0x001D       [0]    CCP2M3_bit
0x001D       [0]    CCP2M0_bit
0x001D       [0]    CCP2M1_bit
0x001D       [0]    CCP2Y_bit
0x001D       [1]    CCP2CON
0x001D       [0]    CCP2X_bit
0x001E       [1]    ADRESH
0x001F       [1]    ADCON0
0x001F       [0]    NOT_DONE_bit
0x001F       [0]    CHS0_bit
0x001F       [0]    GO_DONE_bit
0x001F       [0]    ADON_bit
0x001F       [0]    GO_bit
0x001F       [0]    VCFG1_bit
0x001F       [0]    ADFM_bit
0x001F       [0]    VCFG0_bit
0x001F       [0]    CHS1_bit
0x001F       [0]    CHS2_bit
0x002B       [4]    _var
0x002F       [1]    ___math_tempb
0x0030       [4]    _n
0x0034       [2]    ___DoICPAddr
0x0036       [1]    ___saveSTATUS
0x0037       [1]    ___savePCLATH
0x0038       [1]    FARG_ADC_Read_channel
0x0070       [1]    R0
0x0071       [1]    R1
0x0072       [1]    R2
0x0073       [1]    R3
0x0074       [1]    R4
0x0075       [1]    R5
0x0076       [1]    R6
0x0077       [1]    R7
0x0078       [1]    R8
0x0079       [1]    R9
0x007A       [1]    R10
0x007B       [1]    R11
0x007C       [1]    R12
0x007D       [1]    R13
0x007E       [1]    R14
0x007F       [1]    R15
0x0081       [0]    T0SE_bit
0x0081       [0]    T0CS_bit
0x0081       [0]    PS2_bit
0x0081       [0]    PSA_bit
0x0081       [0]    PS1_bit
0x0081       [1]    OPTION_REG
0x0081       [0]    PS0_bit
0x0081       [0]    INTEDG_bit
0x0081       [0]    NOT_RBPU_bit
0x0085       [0]    TRISA3_bit
0x0085       [0]    TRISA4_bit
0x0085       [0]    TRISA5_bit
0x0085       [0]    TRISA2_bit
0x0085       [1]    TRISA
0x0085       [0]    TRISA0_bit
0x0085       [0]    TRISA1_bit
0x0085       [0]    TRISA6_bit
0x0085       [0]    TRISA7_bit
0x0086       [0]    TRISB5_bit
0x0086       [0]    TRISB6_bit
0x0086       [1]    TRISB
0x0086       [0]    TRISB4_bit
0x0086       [0]    TRISB7_bit
0x0086       [0]    TRISB3_bit
0x0086       [0]    TRISB1_bit
0x0086       [0]    TRISB0_bit
0x0086       [0]    TRISB2_bit
0x0087       [0]    TRISC6_bit
0x0087       [0]    TRISC7_bit
0x0087       [0]    TRISC1_bit
0x0087       [0]    TRISC2_bit
0x0087       [0]    TRISC3_bit
0x0087       [0]    TRISC5_bit
0x0087       [0]    TRISC4_bit
0x0087       [1]    TRISC
0x0087       [0]    TRISC0_bit
0x0088       [0]    TRISD3_bit
0x0088       [0]    TRISD4_bit
0x0088       [0]    TRISD2_bit
0x0088       [0]    TRISD0_bit
0x0088       [0]    TRISD1_bit
0x0088       [1]    TRISD
0x0088       [0]    TRISD6_bit
0x0088       [0]    TRISD7_bit
0x0088       [0]    TRISD5_bit
0x0089       [0]    TRISE2_bit
0x0089       [0]    TRISE3_bit
0x0089       [1]    TRISE
0x0089       [0]    TRISE0_bit
0x0089       [0]    TRISE1_bit
0x008C       [0]    SSPIE_bit
0x008C       [0]    TXIE_bit
0x008C       [0]    TMR1IE_bit
0x008C       [0]    TMR2IE_bit
0x008C       [0]    CCP1IE_bit
0x008C       [1]    PIE1
0x008C       [0]    EEIE_bit
0x008C       [0]    ADIE_bit
0x008C       [0]    RCIE_bit
0x008D       [0]    C1IE_bit
0x008D       [0]    OSFIE_bit
0x008D       [0]    C2IE_bit
0x008D       [1]    PIE2
0x008D       [0]    CCP2IE_bit
0x008D       [0]    LCDIE_bit
0x008D       [0]    LVDIE_bit
0x008E       [1]    PCON
0x008E       [0]    NOT_BO_bit
0x008E       [0]    NOT_BOR_bit
0x008E       [0]    NOT_POR_bit
0x008E       [0]    SBOREN_bit
0x008F       [0]    IRCF2_bit
0x008F       [0]    IRCF1_bit
0x008F       [0]    OSTS_bit
0x008F       [0]    IRCF0_bit
0x008F       [1]    OSCCON
0x008F       [0]    SCS_bit
0x008F       [0]    HTS_bit
0x008F       [0]    LTS_bit
0x0090       [0]    TUN2_bit
0x0090       [0]    TUN3_bit
0x0090       [0]    TUN1_bit
0x0090       [1]    OSCTUNE
0x0090       [0]    TUN0_bit
0x0090       [0]    TUN4_bit
0x0091       [0]    ANS1_bit
0x0091       [0]    AN6_bit
0x0091       [0]    AN2_bit
0x0091       [0]    ANS6_bit
0x0091       [0]    AN1_bit
0x0091       [0]    ANS4_bit
0x0091       [0]    AN5_bit
0x0091       [0]    ANS3_bit
0x0091       [0]    AN3_bit
0x0091       [0]    ANS2_bit
0x0091       [0]    AN4_bit
0x0091       [0]    ANS5_bit
0x0091       [0]    AN7_bit
0x0091       [0]    ANS7_bit
0x0091       [0]    AN0_bit
0x0091       [0]    ANS0_bit
0x0091       [1]    ANSEL
0x0092       [1]    PR2
0x0093       [1]    SSPADD
0x0094       [0]    NOT_W_bit
0x0094       [0]    R_bit
0x0094       [0]    I2C_READ_bit
0x0094       [0]    READ_WRITE_bit
0x0094       [0]    NOT_WRITE_bit
0x0094       [1]    SSPSTAT
0x0094       [0]    R_W_bit
0x0094       [0]    S_bit
0x0094       [0]    I2C_START__bit
0x0094       [0]    NOT_A_bit
0x0094       [0]    SMP_bit
0x0094       [0]    NOT_ADDRESS_bit
0x0094       [0]    I2C_DATA_bit
0x0094       [0]    D_bit
0x0094       [0]    CKE_bit
0x0094       [0]    D_A_bit
0x0094       [0]    P_bit
0x0094       [0]    BF_bit
0x0094       [0]    I2C_STOP__bit
0x0094       [0]    UA_bit
0x0094       [0]    DATA_ADDRESS_bit
0x0095       [1]    WPU
0x0095       [0]    WPUB6_bit
0x0095       [0]    WPUB7_bit
0x0095       [0]    WPUB5_bit
0x0095       [0]    WPUB4_bit
0x0095       [0]    WPUB1_bit
0x0095       [0]    WPUB0_bit
0x0095       [0]    WPUB2_bit
0x0095       [1]    WPUB
0x0095       [0]    WPUB3_bit
0x0096       [0]    IOCB6_bit
0x0096       [0]    IOCB4_bit
0x0096       [0]    IOCB5_bit
0x0096       [1]    IOCB
0x0096       [1]    IOC
0x0096       [0]    IOCB7_bit
0x0097       [1]    CMCON1
0x0097       [0]    C2SYNC_bit
0x0097       [0]    T1GSS_bit
0x0098       [0]    TRMT_bit
0x0098       [0]    BRGH_bit
0x0098       [0]    TX9D_bit
0x0098       [1]    TXSTA
0x0098       [0]    TXD8_bit
0x0098       [0]    NOT_TX8_bit
0x0098       [0]    TX9_bit
0x0098       [0]    CSRC_bit
0x0098       [0]    SYNC_bit
0x0098       [0]    TXEN_bit
0x0098       [0]    TX8_9_bit
0x0099       [1]    SPBRG
0x009C       [1]    CMCON0
0x009C       [0]    C1INV_bit
0x009C       [0]    C2INV_bit
0x009C       [0]    C1OUT_bit
0x009C       [0]    CIS_bit
0x009C       [0]    CM0_bit
0x009C       [0]    CM1_bit
0x009C       [0]    CM2_bit
0x009C       [0]    C2OUT_bit
0x009D       [0]    VR2_bit
0x009D       [0]    VR1_bit
0x009D       [0]    VR0_bit
0x009D       [0]    VREN_bit
0x009D       [0]    VRR_bit
0x009D       [0]    VR3_bit
0x009D       [1]    VRCON
0x009E       [1]    ADRESL
0x009F       [0]    ADCS2_bit
0x009F       [0]    ADCS0_bit
0x009F       [0]    ADCS1_bit
0x009F       [1]    ADCON1
0x0105       [0]    WDTPS0_bit
0x0105       [0]    WDTPS1_bit
0x0105       [0]    SWDTE_bit
0x0105       [0]    SWDTEN_bit
0x0105       [0]    WDTPS2_bit
0x0105       [1]    WDTCON
0x0105       [0]    WDTPS3_bit
0x0107       [0]    CS1_bit
0x0107       [0]    VLCDEN_bit
0x0107       [0]    CS0_bit
0x0107       [0]    LMUX0_bit
0x0107       [0]    LMUX1_bit
0x0107       [0]    LCDEN_bit
0x0107       [1]    LCDCON
0x0107       [0]    WERR_bit
0x0107       [0]    SLPEN_bit
0x0108       [0]    LP2_bit
0x0108       [0]    LP3_bit
0x0108       [0]    LP0_bit
0x0108       [0]    LP1_bit
0x0108       [0]    WA_bit
0x0108       [0]    WFT_bit
0x0108       [1]    LCDPS
0x0108       [0]    LCDA_bit
0x0108       [0]    BIASMD_bit
0x0109       [0]    LVDL1_bit
0x0109       [0]    LVDL0_bit
0x0109       [1]    LVDCON
0x0109       [0]    IRVST_bit
0x0109       [0]    LVDEN_bit
0x0109       [0]    LVDL2_bit
0x010C       [1]    EEDATL
0x010C       [1]    EEDATA
0x010D       [0]    EEADRL4_bit
0x010D       [1]    EEADR
0x010D       [0]    EEADRL7_bit
0x010D       [0]    EEADRL6_bit
0x010D       [0]    EEADRL5_bit
0x010D       [0]    EEADRL2_bit
0x010D       [0]    EEADRL1_bit
0x010D       [0]    EEADRL0_bit
0x010D       [1]    EEADRL
0x010D       [0]    EEADRL3_bit
0x010E       [1]    EEDATH
0x010F       [0]    EEADRH3_bit
0x010F       [0]    EEADRH1_bit
0x010F       [0]    EEADRH2_bit
0x010F       [0]    EEADRH4_bit
0x010F       [1]    EEADRH
0x010F       [0]    EEADRH0_bit
0x0110       [1]    LCDDATA0
0x0110       [0]    S5C0_bit
0x0110       [0]    S4C0_bit
0x0110       [0]    S7C0_bit
0x0110       [0]    S6C0_bit
0x0110       [0]    S1C0_bit
0x0110       [0]    S0C0_bit
0x0110       [0]    S3C0_bit
0x0110       [0]    S2C0_bit
0x0110       [0]    SEG5COM0_bit
0x0110       [0]    SEG4COM0_bit
0x0110       [0]    SEG7COM0_bit
0x0110       [0]    SEG6COM0_bit
0x0110       [0]    SEG1COM0_bit
0x0110       [0]    SEG0COM0_bit
0x0110       [0]    SEG3COM0_bit
0x0110       [0]    SEG2COM0_bit
0x0111       [0]    S12C0_bit
0x0111       [0]    S13C0_bit
0x0111       [0]    S10C0_bit
0x0111       [0]    S11C0_bit
0x0111       [0]    S14C0_bit
0x0111       [0]    SEG9COM0_bit
0x0111       [0]    SEG10COM0_bit
0x0111       [0]    S15C0_bit
0x0111       [0]    SEG8COM0_bit
0x0111       [1]    LCDDATA1
0x0111       [0]    SEG13COM0_bit
0x0111       [0]    SEG15COM0_bit
0x0111       [0]    SEG14COM0_bit
0x0111       [0]    S9C0_bit
0x0111       [0]    S8C0_bit
0x0111       [0]    SEG12COM0_bit
0x0111       [0]    SEG11COM0_bit
0x0112       [1]    LCDDATA2
0x0112       [0]    SEG18COM0_bit
0x0112       [0]    SEG19COM0_bit
0x0112       [0]    SEG16COM0_bit
0x0112       [0]    SEG17COM0_bit
0x0112       [0]    SEG22COM0_bit
0x0112       [0]    SEG23COM0_bit
0x0112       [0]    SEG20COM0_bit
0x0112       [0]    SEG21COM0_bit
0x0112       [0]    S16C0_bit
0x0112       [0]    S19C0_bit
0x0112       [0]    S18C0_bit
0x0112       [0]    S17C0_bit
0x0112       [0]    S22C0_bit
0x0112       [0]    S23C0_bit
0x0112       [0]    S20C0_bit
0x0112       [0]    S21C0_bit
0x0113       [0]    SEG1COM1_bit
0x0113       [0]    S3C1_bit
0x0113       [0]    S5C1_bit
0x0113       [0]    S4C1_bit
0x0113       [0]    S0C1_bit
0x0113       [1]    LCDDATA3
0x0113       [0]    S2C1_bit
0x0113       [0]    S1C1_bit
0x0113       [0]    SEG2COM1_bit
0x0113       [0]    S6C1_bit
0x0113       [0]    SEG7COM1_bit
0x0113       [0]    SEG0COM1_bit
0x0113       [0]    S7C1_bit
0x0113       [0]    SEG4COM1_bit
0x0113       [0]    SEG3COM1_bit
0x0113       [0]    SEG6COM1_bit
0x0113       [0]    SEG5COM1_bit
0x0114       [0]    S10C1_bit
0x0114       [0]    S11C1_bit
0x0114       [0]    S8C1_bit
0x0114       [0]    S9C1_bit
0x0114       [0]    S12C1_bit
0x0114       [0]    S15C1_bit
0x0114       [0]    SEG8COM1_bit
0x0114       [0]    S13C1_bit
0x0114       [0]    S14C1_bit
0x0114       [0]    SEG14COM1_bit
0x0114       [0]    SEG13COM1_bit
0x0114       [1]    LCDDATA4
0x0114       [0]    SEG15COM1_bit
0x0114       [0]    SEG10COM1_bit
0x0114       [0]    SEG9COM1_bit
0x0114       [0]    SEG11COM1_bit
0x0114       [0]    SEG12COM1_bit
0x0115       [1]    LCDDATA5
0x0115       [0]    SEG18COM1_bit
0x0115       [0]    SEG19COM1_bit
0x0115       [0]    SEG16COM1_bit
0x0115       [0]    SEG17COM1_bit
0x0115       [0]    SEG22COM1_bit
0x0115       [0]    SEG23COM1_bit
0x0115       [0]    SEG20COM1_bit
0x0115       [0]    SEG21COM1_bit
0x0115       [0]    S18C1_bit
0x0115       [0]    S19C1_bit
0x0115       [0]    S16C1_bit
0x0115       [0]    S17C1_bit
0x0115       [0]    S20C1_bit
0x0115       [0]    S22C1_bit
0x0115       [0]    S23C1_bit
0x0115       [0]    S21C1_bit
0x0116       [1]    LCDDATA6
0x0116       [0]    S6C2_bit
0x0116       [0]    S7C2_bit
0x0116       [0]    SEG0COM2_bit
0x0116       [0]    S5C2_bit
0x0116       [0]    S2C2_bit
0x0116       [0]    S3C2_bit
0x0116       [0]    S4C2_bit
0x0116       [0]    SEG5COM2_bit
0x0116       [0]    SEG6COM2_bit
0x0116       [0]    SEG7COM2_bit
0x0116       [0]    SEG4COM2_bit
0x0116       [0]    SEG1COM2_bit
0x0116       [0]    SEG2COM2_bit
0x0116       [0]    SEG3COM2_bit
0x0116       [0]    S0C2_bit
0x0116       [0]    S1C2_bit
0x0117       [0]    SEG9COM2_bit
0x0117       [0]    SEG8COM2_bit
0x0117       [1]    LCDDATA7
0x0117       [0]    S14C2_bit
0x0117       [0]    S15C2_bit
0x0117       [0]    SEG13COM2_bit
0x0117       [0]    SEG15COM2_bit
0x0117       [0]    SEG14COM2_bit
0x0117       [0]    SEG10COM2_bit
0x0117       [0]    SEG11COM2_bit
0x0117       [0]    SEG12COM2_bit
0x0117       [0]    S10C2_bit
0x0117       [0]    S9C2_bit
0x0117       [0]    S11C2_bit
0x0117       [0]    S13C2_bit
0x0117       [0]    S12C2_bit
0x0117       [0]    S8C2_bit
0x0118       [0]    S18C2_bit
0x0118       [0]    SEG21COM2_bit
0x0118       [1]    LCDDATA8
0x0118       [0]    S19C2_bit
0x0118       [0]    SEG22COM2_bit
0x0118       [0]    SEG23COM2_bit
0x0118       [0]    S17C2_bit
0x0118       [0]    S16C2_bit
0x0118       [0]    SEG17COM2_bit
0x0118       [0]    SEG16COM2_bit
0x0118       [0]    SEG18COM2_bit
0x0118       [0]    SEG20COM2_bit
0x0118       [0]    SEG19COM2_bit
0x0118       [0]    S22C2_bit
0x0118       [0]    S21C2_bit
0x0118       [0]    S20C2_bit
0x0118       [0]    S23C2_bit
0x0119       [0]    S4C3_bit
0x0119       [0]    S6C3_bit
0x0119       [0]    S5C3_bit
0x0119       [0]    S7C3_bit
0x0119       [1]    LCDDATA9
0x0119       [0]    S2C3_bit
0x0119       [0]    S3C3_bit
0x0119       [0]    S0C3_bit
0x0119       [0]    S1C3_bit
0x0119       [0]    SEG5COM3_bit
0x0119       [0]    SEG2COM3_bit
0x0119       [0]    SEG4COM3_bit
0x0119       [0]    SEG3COM3_bit
0x0119       [0]    SEG0COM3_bit
0x0119       [0]    SEG6COM3_bit
0x0119       [0]    SEG1COM3_bit
0x0119       [0]    SEG7COM3_bit
0x011A       [0]    SEG11COM3_bit
0x011A       [0]    SEG12COM3_bit
0x011A       [0]    SEG15COM3_bit
0x011A       [0]    SEG14COM3_bit
0x011A       [0]    SEG13COM3_bit
0x011A       [0]    S11C3_bit
0x011A       [0]    S12C3_bit
0x011A       [0]    S10C3_bit
0x011A       [0]    S8C3_bit
0x011A       [0]    S9C3_bit
0x011A       [0]    S13C3_bit
0x011A       [0]    SEG9COM3_bit
0x011A       [0]    SEG10COM3_bit
0x011A       [0]    SEG8COM3_bit
0x011A       [0]    S14C3_bit
0x011A       [0]    S15C3_bit
0x011A       [1]    LCDDATA10
0x011B       [0]    S19C3_bit
0x011B       [0]    S18C3_bit
0x011B       [1]    LCDDATA11
0x011B       [0]    SEG20COM3_bit
0x011B       [0]    S16C3_bit
0x011B       [0]    SEG18COM3_bit
0x011B       [0]    SEG19COM3_bit
0x011B       [0]    S17C3_bit
0x011B       [0]    S22C3_bit
0x011B       [0]    SEG23COM3_bit
0x011B       [0]    SEG16COM3_bit
0x011B       [0]    S23C3_bit
0x011B       [0]    S20C3_bit
0x011B       [0]    SEG21COM3_bit
0x011B       [0]    S21C3_bit
0x011B       [0]    SEG22COM3_bit
0x011B       [0]    SEG17COM3_bit
0x011C       [0]    SEGEN0_bit
0x011C       [0]    SEGEN3_bit
0x011C       [1]    LCDSE0
0x011C       [0]    SEGEN2_bit
0x011C       [0]    SEGEN7_bit
0x011C       [0]    SEGEN6_bit
0x011C       [0]    SEGEN1_bit
0x011C       [0]    SE1_bit
0x011C       [0]    SE0_bit
0x011C       [0]    SE2_bit
0x011C       [0]    SE5_bit
0x011C       [0]    SE4_bit
0x011C       [0]    SE7_bit
0x011C       [0]    SE6_bit
0x011C       [0]    SEGEN4_bit
0x011C       [0]    SEGEN5_bit
0x011C       [0]    SE3_bit
0x011D       [0]    SE8_bit
0x011D       [0]    SEGEN15_bit
0x011D       [0]    SEGEN14_bit
0x011D       [0]    SEGEN13_bit
0x011D       [0]    SE9_bit
0x011D       [0]    SE12_bit
0x011D       [0]    SE11_bit
0x011D       [0]    SEGEN8_bit
0x011D       [0]    SE15_bit
0x011D       [0]    SE14_bit
0x011D       [0]    SE13_bit
0x011D       [0]    SE10_bit
0x011D       [0]    SEGEN11_bit
0x011D       [0]    SEGEN12_bit
0x011D       [0]    SEGEN9_bit
0x011D       [1]    LCDSE1
0x011D       [0]    SEGEN10_bit
0x011E       [0]    SE20_bit
0x011E       [0]    SEGEN17_bit
0x011E       [0]    SEGEN16_bit
0x011E       [0]    SE22_bit
0x011E       [0]    SE21_bit
0x011E       [0]    SEGEN21_bit
0x011E       [0]    SEGEN22_bit
0x011E       [0]    SEGEN20_bit
0x011E       [0]    SEGEN18_bit
0x011E       [0]    SEGEN19_bit
0x011E       [0]    SE17_bit
0x011E       [1]    LCDSE2
0x011E       [0]    SEGEN23_bit
0x011E       [0]    SE16_bit
0x011E       [0]    SE19_bit
0x011E       [0]    SE18_bit
0x011E       [0]    SE23_bit
0x018C       [0]    EEWR_bit
0x018C       [0]    EERD_bit
0x018C       [0]    WRERR_bit
0x018C       [0]    RD_bit
0x018C       [1]    EECON1
0x018C       [0]    EEPGD_bit
0x018C       [0]    WREN_bit
0x018C       [0]    WR_bit
0x018D       [1]    EECON2
//** Label List: ** 
//----------------------------------------------
  L_interrupt0
  L_main1
  L_main2
  L_main3
  L_main4
  L_main5
  L_main6
  L_main7
  L_main8
  L_main9
  L_main10
  L_main11
  L_main12
  L_main13
  L_main14
  L_main15
  L_main16
  L_main17
  L_main18
  _set_PWM
  L__set_PWM19
  L__set_PWM20
  L__set_PWM21
  L__set_PWM22
  L__set_PWM23
  L__set_PWM24
  _interrupt
  L__interrupt25
  _main
  L__main26
  L__main27
  L__main28
  L__main29
  L__main30
  L__main31
  L__main32
  L__main33
  L_ADC_Read0
  L_ADC_Read1
  _ADC_Read
  L_Delay_1us0
  L_Delay_10us1
  L_Delay_22us2
  L_Delay_50us3
  L_Delay_80us4
  L_Delay_500us5
  L_Delay_5500us6
  L_Delay_8ms7
  L_Delay_5ms8
  L_Delay_100ms9
  L_Delay_1sec10
  L_boot16_Delay_5ms11
  L_Delay_Cyc12
  L_Delay_Cyc13
  L_VDelay_ms14
  L_VDelay_ms15
  L_VDelay_ms16
  L_VDelay_Advanced_ms17
  L_VDelay_Advanced_ms18
  L_VDelay_Advanced_ms19
  _Get_Fosc_kHz
  _Delay_1us
  _Delay_10us
  _Delay_22us
  _Delay_50us
  _Delay_80us
  _Delay_500us
  _Delay_5500us
  _Delay_8ms
  _Delay_5ms
  _Delay_100ms
  _Delay_1sec
  _boot16_Delay_5ms
  _Delay_Cyc
  _VDelay_ms
  L__VDelay_ms20
  L__VDelay_ms21
  L__VDelay_ms22
  _VDelay_Advanced_ms
  L__VDelay_Advanced_ms23
  L__VDelay_Advanced_ms24
  L__VDelay_Advanced_ms25
  L_Div_16x16_S0
  L_Div_16x16_S1
  LOOPS3232A
  SADD22LA
  SOK22LA
  SADD22L8
  SOK22L8
  LOOPS3232B
  SADD22LB
  SOK22LB
  SADD22L16
  SOK22L16
  LOOPS3232C
  SADD22LC
  SOK22LC
  SADD22L24
  SOK22L24
  LOOPS3232D
  SADD22LD
  SOK22LD
  SOK22L
  L_Div_32x32_S6
  L_Div_32x32_S7
  L_Div_32x32_S8
  L_Div_32x32_S9
  FXD3232S
  END_ALL
  CA3232S
  C3232SX
  C3232SX1
  C3232S
  C3232S2
  C3232SX4
  C3232SOK
  C3232SX3
  C3232SX2
  avoid_comfrem
  LOOPU3232A
  UADD22LA
  UOK22LA
  UADD22L8
  UOK22L8
  LOOPU3232B
  UADD22LB
  UOK22LB
  UADD22L16
  UOK22L16
  LOOPU3232C
  UADD22LC
  UOK22LC
  UADD22L24
  UOK22L24
  LOOPU3232D
  UADD22LD
  UOK22LD
  UOK22L
  _NEXT
  _EXIT2
  _LOOP
  _EXIT1
  _IF_FIRST
  _IF_SECOND
  _INVERCE_FIRST
  _MULT
  _INBERSE_SECOND
  _EXIT
  _Mul_8x8_U
  _Mul_16x16_U
  _Div_8x8_U
  _Div_16x16_U
  _Mul_8x8_S
  _Mul_16x16_S
  _Div_16x16_S_L
  _Div_16x16_S
  _Div_8x8_S
  _SDIV3232L
  _COMFREM
  _Div_32x32_S
  _Div_32x32_U
  _Mul_32x32_U
  _Mul_32x32_S
  _CC2D_Loop1
  _____DoICP
  _____DoIFC
  ___CC2DW
  _Swap
  L_interrupt0
  L_main1
  L_main2
  L_main3
  L_main4
  L_main5
  L_main6
  L_main7
  L_main8
  L_main9
  L_main10
  L_main11
  L_main12
  L_main13
  L_main14
  L_main15
  L_main16
  L_main17
  L_main18
  _set_PWM
  L__set_PWM19
  L__set_PWM20
  L__set_PWM21
  L__set_PWM22
  L__set_PWM23
  L__set_PWM24
  _interrupt
  L__interrupt25
  _main
  L__main26
  L__main27
  L__main28
  L__main29
  L__main30
  L__main31
  L__main32
  L__main33
  L_Div_16x16_S0
  L_Div_16x16_S1
  LOOPS3232A
  SADD22LA
  SOK22LA
  SADD22L8
  SOK22L8
  LOOPS3232B
  SADD22LB
  SOK22LB
  SADD22L16
  SOK22L16
  LOOPS3232C
  SADD22LC
  SOK22LC
  SADD22L24
  SOK22L24
  LOOPS3232D
  SADD22LD
  SOK22LD
  SOK22L
  L_Div_32x32_S6
  L_Div_32x32_S7
  L_Div_32x32_S8
  L_Div_32x32_S9
  FXD3232S
  END_ALL
  CA3232S
  C3232SX
  C3232SX1
  C3232S
  C3232S2
  C3232SX4
  C3232SOK
  C3232SX3
  C3232SX2
  avoid_comfrem
  LOOPU3232A
  UADD22LA
  UOK22LA
  UADD22L8
  UOK22L8
  LOOPU3232B
  UADD22LB
  UOK22LB
  UADD22L16
  UOK22L16
  LOOPU3232C
  UADD22LC
  UOK22LC
  UADD22L24
  UOK22L24
  LOOPU3232D
  UADD22LD
  UOK22LD
  UOK22L
  _NEXT
  _EXIT2
  _LOOP
  _EXIT1
  _IF_FIRST
  _IF_SECOND
  _INVERCE_FIRST
  _MULT
  _INBERSE_SECOND
  _EXIT
  _Mul_8x8_U
  _Mul_16x16_U
  _Div_8x8_U
  _Div_16x16_U
  _Mul_8x8_S
  _Mul_16x16_S
  _Div_16x16_S_L
  _Div_16x16_S
  _Div_8x8_S
  _SDIV3232L
  _COMFREM
  _Div_32x32_S
  _Div_32x32_U
  _Mul_32x32_U
  _Mul_32x32_S
