:020000002D28A9
:10000800FF00030E8301AE000A08AF008A018B13BC
:100018008B1C13280130AC000030AD008B102F086A
:0C0028008A002E0E8300FF0E7F0E0900E0
:0E003400831203132B088A002A08820008009A
:100042001A208A110A128000840AAA0A0319AB0A2A
:08005200F003031D2128080042
:10005A003F3083120313A0000630A1005B30A200D8
:10006A004F30A3006630A4006D30A5007C30A60096
:10007A000730A7007F30A8006F30A9000A30B0000F
:10008A000030B1008B170B16831688018312880182
:10009A008316870106148312870108148816003014
:1000AA002D06031D5A2800302C06031D5D285428EE
:1000BA00881208160230FB000430FC00BA30FD003A
:1000CA00FD0B6528FC0B6528FB0B65280000081250
:1000DA008815081008150A30B0000030B1008030C9
:1000EA003106F00080307002031D7D280030300296
:1000FA00031C96283008203E84000008870002303E
:10010A00FB000430FC00BA30FD00FD0B8A28FC0B12
:10011A008A28FB0B8A2800000130B002031CB103B5
:10012A00742887010A30B0000030B1000811881421
:10013A000230FB000430FC00BA30FD00FD0BA3289E
:10014A00FC0BA328FB0BA3280000881008148811B5
:10015A0088160530FB000F30FC00F130FD00FD0B66
:0E016A00B428FC0BB428FB0BB4285228BB2889
:02400E00F21F9F
:00000001FF
