main
	__CC2DW
		____DoICP
	Add_32x32_FP
		NRM4032
			RES032
			SETFUN32
			FIXSIGN32
			SETFOV32
		NRM3232
			RES032
			SETFUN32
			FIXSIGN32
		SETFOV32
	Mul_32x32_FP
		RES032
		SETFOV32
		SETFUN32
	Div_32x32_FP
		SETFDZ32
		RES032
		SETFOV32
		SETFUN32
	Double2Int
		SETIOV3224
	Sub_32x32_FP
		Add_32x32_FP
			NRM4032
				RES032
				SETFUN32
				FIXSIGN32
				SETFOV32
			NRM3232
				RES032
				SETFUN32
				FIXSIGN32
			SETFOV32
interrupt
