;  LST file generated by mikroListExporter - v.2.0 
; Date/Time: 4/5/2012 4:23:35 PM
;----------------------------------------------

;Address Opcode 	ASM
0x0000	0x28EE      	GOTO       238
0x0001	0x0000      	NOP
0x0002	0x0000      	NOP
0x0003	0x0000      	NOP
0x0004	0x2800      	GOTO       0
_Delay_50us:
;__Lib_Delays.c,19 :: 		void Delay_50us() {
;__Lib_Delays.c,20 :: 		Delay_us(50);
0x0005	0x3021      	MOVLW      33
0x0006	0x00FD      	MOVWF      R13
L_Delay_50us3:
0x0007	0x0BFD      	DECFSZ     R13, 1
0x0008	0x2807      	GOTO       L_Delay_50us3
;__Lib_Delays.c,21 :: 		}
0x0009	0x0008      	RETURN
; end of _Delay_50us
_Delay_1us:
;__Lib_Delays.c,7 :: 		void Delay_1us() {
;__Lib_Delays.c,8 :: 		Delay_us(1);
0x000A	0x0000      	NOP
0x000B	0x0000      	NOP
;__Lib_Delays.c,9 :: 		}
0x000C	0x0008      	RETURN
; end of _Delay_1us
_Delay_5500us:
;__Lib_Delays.c,31 :: 		void Delay_5500us() {
;__Lib_Delays.c,32 :: 		Delay_us(5500);
0x000D	0x300F      	MOVLW      15
0x000E	0x00FC      	MOVWF      R12
0x000F	0x3047      	MOVLW      71
0x0010	0x00FD      	MOVWF      R13
L_Delay_5500us6:
0x0011	0x0BFD      	DECFSZ     R13, 1
0x0012	0x2811      	GOTO       L_Delay_5500us6
0x0013	0x0BFC      	DECFSZ     R12, 1
0x0014	0x2811      	GOTO       L_Delay_5500us6
0x0015	0x0000      	NOP
0x0016	0x0000      	NOP
;__Lib_Delays.c,33 :: 		}
0x0017	0x0008      	RETURN
; end of _Delay_5500us
_Lcd_Cmd:
	ADDWF      %s, %s
;__Lib_Lcd.c,18 :: 		
;__Lib_Lcd.c,20 :: 		
0x0018	0x1283      	BCF        STATUS, 5
0x0019	0x1303      	BCF        STATUS, 6
0x001A	0x1BA7      	BTFSC      FARG_Lcd_Cmd_out_char, 7
0x001B	0x281E      	GOTO       L__Lcd_Cmd20
0x001C	0x1186      	BCF        LCD_D7, BitPos(LCD_D7+0)
0x001D	0x281F      	GOTO       L__Lcd_Cmd21
L__Lcd_Cmd20:
0x001E	0x1586      	BSF        LCD_D7, BitPos(LCD_D7+0)
L__Lcd_Cmd21:
;__Lib_Lcd.c,21 :: 		
0x001F	0x1B27      	BTFSC      FARG_Lcd_Cmd_out_char, 6
0x0020	0x2823      	GOTO       L__Lcd_Cmd22
0x0021	0x1106      	BCF        LCD_D6, BitPos(LCD_D6+0)
0x0022	0x2824      	GOTO       L__Lcd_Cmd23
L__Lcd_Cmd22:
0x0023	0x1506      	BSF        LCD_D6, BitPos(LCD_D6+0)
L__Lcd_Cmd23:
;__Lib_Lcd.c,22 :: 		
0x0024	0x1AA7      	BTFSC      FARG_Lcd_Cmd_out_char, 5
0x0025	0x2828      	GOTO       L__Lcd_Cmd24
0x0026	0x1086      	BCF        LCD_D5, BitPos(LCD_D5+0)
0x0027	0x2829      	GOTO       L__Lcd_Cmd25
L__Lcd_Cmd24:
0x0028	0x1486      	BSF        LCD_D5, BitPos(LCD_D5+0)
L__Lcd_Cmd25:
;__Lib_Lcd.c,23 :: 		
0x0029	0x1A27      	BTFSC      FARG_Lcd_Cmd_out_char, 4
0x002A	0x282D      	GOTO       L__Lcd_Cmd26
0x002B	0x1006      	BCF        LCD_D4, BitPos(LCD_D4+0)
0x002C	0x282E      	GOTO       L__Lcd_Cmd27
L__Lcd_Cmd26:
0x002D	0x1406      	BSF        LCD_D4, BitPos(LCD_D4+0)
L__Lcd_Cmd27:
;__Lib_Lcd.c,25 :: 		
0x002E	0x1820      	BTFSC      __Lib_Lcd_cmd_status, BitPos(__Lib_Lcd_cmd_status+0)
0x002F	0x2832      	GOTO       L__Lcd_Cmd28
0x0030	0x1606      	BSF        LCD_RS, BitPos(LCD_RS+0)
0x0031	0x2833      	GOTO       L__Lcd_Cmd29
L__Lcd_Cmd28:
0x0032	0x1206      	BCF        LCD_RS, BitPos(LCD_RS+0)
L__Lcd_Cmd29:
;__Lib_Lcd.c,28 :: 		
0x0033	0x1686      	BSF        LCD_EN, BitPos(LCD_EN+0)
;__Lib_Lcd.c,29 :: 		
0x0034	0x200A      	CALL       _Delay_1us
;__Lib_Lcd.c,30 :: 		
0x0035	0x1286      	BCF        LCD_EN, BitPos(LCD_EN+0)
;__Lib_Lcd.c,33 :: 		
0x0036	0x19A7      	BTFSC      FARG_Lcd_Cmd_out_char, 3
0x0037	0x283A      	GOTO       L__Lcd_Cmd30
0x0038	0x1186      	BCF        LCD_D7, BitPos(LCD_D7+0)
0x0039	0x283B      	GOTO       L__Lcd_Cmd31
L__Lcd_Cmd30:
0x003A	0x1586      	BSF        LCD_D7, BitPos(LCD_D7+0)
L__Lcd_Cmd31:
;__Lib_Lcd.c,34 :: 		
0x003B	0x1927      	BTFSC      FARG_Lcd_Cmd_out_char, 2
0x003C	0x283F      	GOTO       L__Lcd_Cmd32
0x003D	0x1106      	BCF        LCD_D6, BitPos(LCD_D6+0)
0x003E	0x2840      	GOTO       L__Lcd_Cmd33
L__Lcd_Cmd32:
0x003F	0x1506      	BSF        LCD_D6, BitPos(LCD_D6+0)
L__Lcd_Cmd33:
;__Lib_Lcd.c,35 :: 		
0x0040	0x18A7      	BTFSC      FARG_Lcd_Cmd_out_char, 1
0x0041	0x2844      	GOTO       L__Lcd_Cmd34
0x0042	0x1086      	BCF        LCD_D5, BitPos(LCD_D5+0)
0x0043	0x2845      	GOTO       L__Lcd_Cmd35
L__Lcd_Cmd34:
0x0044	0x1486      	BSF        LCD_D5, BitPos(LCD_D5+0)
L__Lcd_Cmd35:
;__Lib_Lcd.c,36 :: 		
0x0045	0x1827      	BTFSC      FARG_Lcd_Cmd_out_char, 0
0x0046	0x2849      	GOTO       L__Lcd_Cmd36
0x0047	0x1006      	BCF        LCD_D4, BitPos(LCD_D4+0)
0x0048	0x284A      	GOTO       L__Lcd_Cmd37
L__Lcd_Cmd36:
0x0049	0x1406      	BSF        LCD_D4, BitPos(LCD_D4+0)
L__Lcd_Cmd37:
;__Lib_Lcd.c,38 :: 		
0x004A	0x1820      	BTFSC      __Lib_Lcd_cmd_status, BitPos(__Lib_Lcd_cmd_status+0)
0x004B	0x284E      	GOTO       L__Lcd_Cmd38
0x004C	0x1606      	BSF        LCD_RS, BitPos(LCD_RS+0)
0x004D	0x284F      	GOTO       L__Lcd_Cmd39
L__Lcd_Cmd38:
0x004E	0x1206      	BCF        LCD_RS, BitPos(LCD_RS+0)
L__Lcd_Cmd39:
;__Lib_Lcd.c,40 :: 		
0x004F	0x1686      	BSF        LCD_EN, BitPos(LCD_EN+0)
;__Lib_Lcd.c,41 :: 		
0x0050	0x200A      	CALL       _Delay_1us
;__Lib_Lcd.c,42 :: 		
0x0051	0x1286      	BCF        LCD_EN, BitPos(LCD_EN+0)
;__Lib_Lcd.c,44 :: 		
0x0052	0x1C20      	BTFSS      __Lib_Lcd_cmd_status, BitPos(__Lib_Lcd_cmd_status+0)
0x0053	0x2856      	GOTO       L_Lcd_Cmd0
;__Lib_Lcd.c,45 :: 		
0x0054	0x200D      	CALL       _Delay_5500us
0x0055	0x2857      	GOTO       L_Lcd_Cmd1
L_Lcd_Cmd0:
;__Lib_Lcd.c,47 :: 		
0x0056	0x2005      	CALL       _Delay_50us
L_Lcd_Cmd1:
;__Lib_Lcd.c,48 :: 		
0x0057	0x0008      	RETURN
; end of _Lcd_Cmd
_____DoICP:
	ADDWF      %s, %s
;__Lib_System.c,6 :: 		
;__Lib_System.c,9 :: 		
0x0058	0x1283      	BCF        STATUS, 5
0x0059	0x1303      	BCF        STATUS, 6
0x005A	0x0823      	MOVF       ___DoICPAddr+1, 0
0x005B	0x008A      	MOVWF      PCLATH
;__Lib_System.c,10 :: 		
0x005C	0x0822      	MOVF       ___DoICPAddr, 0
0x005D	0x0082      	MOVWF      PCL
;__Lib_System.c,12 :: 		
0x005E	0x0008      	RETURN
; end of _____DoICP
___CC2DW:
	ADDWF      %s, %s
;__Lib_System.c,24 :: 		
;__Lib_System.c,27 :: 		
_CC2D_Loop1:
;__Lib_System.c,29 :: 		
0x005F	0x2058      	CALL       _____DoICP
0x0060	0x118A      	BCF        PCLATH, 3
0x0061	0x120A      	BCF        PCLATH, 4
;__Lib_System.c,31 :: 		
0x0062	0x0080      	MOVWF      INDF
;__Lib_System.c,32 :: 		
0x0063	0x0A84      	INCF       FSR, 1
;__Lib_System.c,33 :: 		
0x0064	0x0AA2      	INCF       ___DoICPAddr, 1
;__Lib_System.c,35 :: 		
0x0065	0x1903      	BTFSC      STATUS, 2
;__Lib_System.c,36 :: 		
0x0066	0x0AA3      	INCF       ___DoICPAddr+1, 1
;__Lib_System.c,37 :: 		
0x0067	0x03F0      	DECF       R0, 1
;__Lib_System.c,39 :: 		
0x0068	0x1D03      	BTFSS      STATUS, 2
;__Lib_System.c,40 :: 		
0x0069	0x285F      	GOTO       _CC2D_Loop1
;__Lib_System.c,42 :: 		
0x006A	0x0008      	RETURN
; end of ___CC2DW
_Lcd_Chr:
	ADDWF      %s, %s
;__Lib_Lcd.c,65 :: 		
;__Lib_Lcd.c,66 :: 		
0x006B	0x287D      	GOTO       L_Lcd_Chr4
;__Lib_Lcd.c,67 :: 		
L_Lcd_Chr6:
0x006C	0x3080      	MOVLW      128
0x006D	0x1283      	BCF        STATUS, 5
0x006E	0x1303      	BCF        STATUS, 6
0x006F	0x00A4      	MOVWF      FARG_Lcd_Chr_row
0x0070	0x2890      	GOTO       L_Lcd_Chr5
;__Lib_Lcd.c,68 :: 		
L_Lcd_Chr7:
0x0071	0x30C0      	MOVLW      192
0x0072	0x00A4      	MOVWF      FARG_Lcd_Chr_row
0x0073	0x2890      	GOTO       L_Lcd_Chr5
;__Lib_Lcd.c,69 :: 		
L_Lcd_Chr8:
0x0074	0x3094      	MOVLW      148
0x0075	0x00A4      	MOVWF      FARG_Lcd_Chr_row
0x0076	0x2890      	GOTO       L_Lcd_Chr5
;__Lib_Lcd.c,70 :: 		
L_Lcd_Chr9:
0x0077	0x30D4      	MOVLW      212
0x0078	0x00A4      	MOVWF      FARG_Lcd_Chr_row
0x0079	0x2890      	GOTO       L_Lcd_Chr5
;__Lib_Lcd.c,71 :: 		
L_Lcd_Chr10:
0x007A	0x3080      	MOVLW      128
0x007B	0x00A4      	MOVWF      FARG_Lcd_Chr_row
;__Lib_Lcd.c,72 :: 		
0x007C	0x2890      	GOTO       L_Lcd_Chr5
L_Lcd_Chr4:
0x007D	0x1283      	BCF        STATUS, 5
0x007E	0x1303      	BCF        STATUS, 6
0x007F	0x0824      	MOVF       FARG_Lcd_Chr_row, 0
0x0080	0x3A01      	XORLW      1
0x0081	0x1903      	BTFSC      STATUS, 2
0x0082	0x286C      	GOTO       L_Lcd_Chr6
0x0083	0x0824      	MOVF       FARG_Lcd_Chr_row, 0
0x0084	0x3A02      	XORLW      2
0x0085	0x1903      	BTFSC      STATUS, 2
0x0086	0x2871      	GOTO       L_Lcd_Chr7
0x0087	0x0824      	MOVF       FARG_Lcd_Chr_row, 0
0x0088	0x3A03      	XORLW      3
0x0089	0x1903      	BTFSC      STATUS, 2
0x008A	0x2874      	GOTO       L_Lcd_Chr8
0x008B	0x0824      	MOVF       FARG_Lcd_Chr_row, 0
0x008C	0x3A04      	XORLW      4
0x008D	0x1903      	BTFSC      STATUS, 2
0x008E	0x2877      	GOTO       L_Lcd_Chr9
0x008F	0x287A      	GOTO       L_Lcd_Chr10
L_Lcd_Chr5:
;__Lib_Lcd.c,74 :: 		
0x0090	0x0325      	DECF       FARG_Lcd_Chr_column, 0
0x0091	0x00F0      	MOVWF      R0
0x0092	0x0824      	MOVF       FARG_Lcd_Chr_row, 0
0x0093	0x07F0      	ADDWF      R0, 1
0x0094	0x0870      	MOVF       R0, 0
0x0095	0x00A4      	MOVWF      FARG_Lcd_Chr_row
;__Lib_Lcd.c,76 :: 		
0x0096	0x1420      	BSF        __Lib_Lcd_cmd_status, BitPos(__Lib_Lcd_cmd_status+0)
;__Lib_Lcd.c,77 :: 		
0x0097	0x0870      	MOVF       R0, 0
0x0098	0x00A7      	MOVWF      FARG_Lcd_Cmd_out_char
0x0099	0x2018      	CALL       _Lcd_Cmd
;__Lib_Lcd.c,79 :: 		
0x009A	0x1020      	BCF        __Lib_Lcd_cmd_status, BitPos(__Lib_Lcd_cmd_status+0)
;__Lib_Lcd.c,80 :: 		
0x009B	0x0826      	MOVF       FARG_Lcd_Chr_out_char, 0
0x009C	0x00A7      	MOVWF      FARG_Lcd_Cmd_out_char
0x009D	0x2018      	CALL       _Lcd_Cmd
;__Lib_Lcd.c,81 :: 		
0x009E	0x1420      	BSF        __Lib_Lcd_cmd_status, BitPos(__Lib_Lcd_cmd_status+0)
;__Lib_Lcd.c,82 :: 		
0x009F	0x0008      	RETURN
; end of _Lcd_Chr
_Lcd_Init:
	ADDWF      %s, %s
;__Lib_Lcd.c,84 :: 		
;__Lib_Lcd.c,86 :: 		
0x00A0	0x1683      	BSF        STATUS, 5
0x00A1	0x1303      	BCF        STATUS, 6
0x00A2	0x1286      	BCF        LCD_EN_Direction, BitPos(LCD_EN_Direction+0)
;__Lib_Lcd.c,87 :: 		
0x00A3	0x1206      	BCF        LCD_RS_Direction, BitPos(LCD_RS_Direction+0)
;__Lib_Lcd.c,88 :: 		
0x00A4	0x1006      	BCF        LCD_D4_Direction, BitPos(LCD_D4_Direction+0)
;__Lib_Lcd.c,89 :: 		
0x00A5	0x1086      	BCF        LCD_D5_Direction, BitPos(LCD_D5_Direction+0)
;__Lib_Lcd.c,90 :: 		
0x00A6	0x1106      	BCF        LCD_D6_Direction, BitPos(LCD_D6_Direction+0)
;__Lib_Lcd.c,91 :: 		
0x00A7	0x1186      	BCF        LCD_D7_Direction, BitPos(LCD_D7_Direction+0)
;__Lib_Lcd.c,93 :: 		
0x00A8	0x1283      	BCF        STATUS, 5
0x00A9	0x1286      	BCF        LCD_EN, BitPos(LCD_EN+0)
;__Lib_Lcd.c,94 :: 		
0x00AA	0x1206      	BCF        LCD_RS, BitPos(LCD_RS+0)
;__Lib_Lcd.c,95 :: 		
0x00AB	0x1186      	BCF        LCD_D7, BitPos(LCD_D7+0)
;__Lib_Lcd.c,96 :: 		
0x00AC	0x1106      	BCF        LCD_D6, BitPos(LCD_D6+0)
;__Lib_Lcd.c,97 :: 		
0x00AD	0x1086      	BCF        LCD_D5, BitPos(LCD_D5+0)
;__Lib_Lcd.c,98 :: 		
0x00AE	0x1006      	BCF        LCD_D4, BitPos(LCD_D4+0)
;__Lib_Lcd.c,100 :: 		
0x00AF	0x200D      	CALL       _Delay_5500us
;__Lib_Lcd.c,101 :: 		
0x00B0	0x200D      	CALL       _Delay_5500us
;__Lib_Lcd.c,102 :: 		
0x00B1	0x200D      	CALL       _Delay_5500us
;__Lib_Lcd.c,105 :: 		
0x00B2	0x1486      	BSF        LCD_D5, BitPos(LCD_D5+0)
;__Lib_Lcd.c,106 :: 		
0x00B3	0x1406      	BSF        LCD_D4, BitPos(LCD_D4+0)
;__Lib_Lcd.c,107 :: 		
0x00B4	0x1686      	BSF        LCD_EN, BitPos(LCD_EN+0)
;__Lib_Lcd.c,108 :: 		
0x00B5	0x200A      	CALL       _Delay_1us
;__Lib_Lcd.c,109 :: 		
0x00B6	0x1286      	BCF        LCD_EN, BitPos(LCD_EN+0)
;__Lib_Lcd.c,110 :: 		
0x00B7	0x200D      	CALL       _Delay_5500us
;__Lib_Lcd.c,112 :: 		
0x00B8	0x1686      	BSF        LCD_EN, BitPos(LCD_EN+0)
;__Lib_Lcd.c,113 :: 		
0x00B9	0x200A      	CALL       _Delay_1us
;__Lib_Lcd.c,114 :: 		
0x00BA	0x1286      	BCF        LCD_EN, BitPos(LCD_EN+0)
;__Lib_Lcd.c,115 :: 		
0x00BB	0x200D      	CALL       _Delay_5500us
;__Lib_Lcd.c,117 :: 		
0x00BC	0x1686      	BSF        LCD_EN, BitPos(LCD_EN+0)
;__Lib_Lcd.c,118 :: 		
0x00BD	0x200A      	CALL       _Delay_1us
;__Lib_Lcd.c,119 :: 		
0x00BE	0x1286      	BCF        LCD_EN, BitPos(LCD_EN+0)
;__Lib_Lcd.c,120 :: 		
0x00BF	0x200D      	CALL       _Delay_5500us
;__Lib_Lcd.c,123 :: 		
0x00C0	0x1006      	BCF        LCD_D4, BitPos(LCD_D4+0)
;__Lib_Lcd.c,124 :: 		
0x00C1	0x1686      	BSF        LCD_EN, BitPos(LCD_EN+0)
;__Lib_Lcd.c,125 :: 		
0x00C2	0x200A      	CALL       _Delay_1us
;__Lib_Lcd.c,126 :: 		
0x00C3	0x1286      	BCF        LCD_EN, BitPos(LCD_EN+0)
;__Lib_Lcd.c,127 :: 		
0x00C4	0x200D      	CALL       _Delay_5500us
;__Lib_Lcd.c,130 :: 		
0x00C5	0x1686      	BSF        LCD_EN, BitPos(LCD_EN+0)
;__Lib_Lcd.c,131 :: 		
0x00C6	0x200A      	CALL       _Delay_1us
;__Lib_Lcd.c,132 :: 		
0x00C7	0x1286      	BCF        LCD_EN, BitPos(LCD_EN+0)
;__Lib_Lcd.c,134 :: 		
0x00C8	0x1086      	BCF        LCD_D5, BitPos(LCD_D5+0)
;__Lib_Lcd.c,135 :: 		
0x00C9	0x1586      	BSF        LCD_D7, BitPos(LCD_D7+0)
;__Lib_Lcd.c,136 :: 		
0x00CA	0x1686      	BSF        LCD_EN, BitPos(LCD_EN+0)
;__Lib_Lcd.c,137 :: 		
0x00CB	0x200A      	CALL       _Delay_1us
;__Lib_Lcd.c,138 :: 		
0x00CC	0x1286      	BCF        LCD_EN, BitPos(LCD_EN+0)
;__Lib_Lcd.c,139 :: 		
0x00CD	0x200D      	CALL       _Delay_5500us
;__Lib_Lcd.c,142 :: 		
0x00CE	0x1186      	BCF        LCD_D7, BitPos(LCD_D7+0)
;__Lib_Lcd.c,143 :: 		
0x00CF	0x1406      	BSF        LCD_D4, BitPos(LCD_D4+0)
;__Lib_Lcd.c,144 :: 		
0x00D0	0x1686      	BSF        LCD_EN, BitPos(LCD_EN+0)
;__Lib_Lcd.c,145 :: 		
0x00D1	0x200A      	CALL       _Delay_1us
;__Lib_Lcd.c,146 :: 		
0x00D2	0x1286      	BCF        LCD_EN, BitPos(LCD_EN+0)
;__Lib_Lcd.c,148 :: 		
0x00D3	0x1006      	BCF        LCD_D4, BitPos(LCD_D4+0)
;__Lib_Lcd.c,149 :: 		
0x00D4	0x1686      	BSF        LCD_EN, BitPos(LCD_EN+0)
;__Lib_Lcd.c,150 :: 		
0x00D5	0x200A      	CALL       _Delay_1us
;__Lib_Lcd.c,151 :: 		
0x00D6	0x1286      	BCF        LCD_EN, BitPos(LCD_EN+0)
;__Lib_Lcd.c,152 :: 		
0x00D7	0x200D      	CALL       _Delay_5500us
;__Lib_Lcd.c,155 :: 		
0x00D8	0x1686      	BSF        LCD_EN, BitPos(LCD_EN+0)
;__Lib_Lcd.c,156 :: 		
0x00D9	0x200A      	CALL       _Delay_1us
;__Lib_Lcd.c,157 :: 		
0x00DA	0x1286      	BCF        LCD_EN, BitPos(LCD_EN+0)
;__Lib_Lcd.c,159 :: 		
0x00DB	0x1406      	BSF        LCD_D4, BitPos(LCD_D4+0)
;__Lib_Lcd.c,160 :: 		
0x00DC	0x1686      	BSF        LCD_EN, BitPos(LCD_EN+0)
;__Lib_Lcd.c,161 :: 		
0x00DD	0x200A      	CALL       _Delay_1us
;__Lib_Lcd.c,162 :: 		
0x00DE	0x1286      	BCF        LCD_EN, BitPos(LCD_EN+0)
;__Lib_Lcd.c,163 :: 		
0x00DF	0x200D      	CALL       _Delay_5500us
;__Lib_Lcd.c,166 :: 		
0x00E0	0x1006      	BCF        LCD_D4, BitPos(LCD_D4+0)
;__Lib_Lcd.c,167 :: 		
0x00E1	0x1686      	BSF        LCD_EN, BitPos(LCD_EN+0)
;__Lib_Lcd.c,168 :: 		
0x00E2	0x200A      	CALL       _Delay_1us
;__Lib_Lcd.c,169 :: 		
0x00E3	0x1286      	BCF        LCD_EN, BitPos(LCD_EN+0)
;__Lib_Lcd.c,171 :: 		
0x00E4	0x1586      	BSF        LCD_D7, BitPos(LCD_D7+0)
;__Lib_Lcd.c,172 :: 		
0x00E5	0x1506      	BSF        LCD_D6, BitPos(LCD_D6+0)
;__Lib_Lcd.c,173 :: 		
0x00E6	0x1486      	BSF        LCD_D5, BitPos(LCD_D5+0)
;__Lib_Lcd.c,174 :: 		
0x00E7	0x1406      	BSF        LCD_D4, BitPos(LCD_D4+0)
;__Lib_Lcd.c,175 :: 		
0x00E8	0x1686      	BSF        LCD_EN, BitPos(LCD_EN+0)
;__Lib_Lcd.c,176 :: 		
0x00E9	0x200A      	CALL       _Delay_1us
;__Lib_Lcd.c,177 :: 		
0x00EA	0x1286      	BCF        LCD_EN, BitPos(LCD_EN+0)
;__Lib_Lcd.c,179 :: 		
0x00EB	0x200D      	CALL       _Delay_5500us
;__Lib_Lcd.c,181 :: 		
0x00EC	0x1420      	BSF        __Lib_Lcd_cmd_status, BitPos(__Lib_Lcd_cmd_status+0)
;__Lib_Lcd.c,182 :: 		
0x00ED	0x0008      	RETURN
; end of _Lcd_Init
_main:
;lab5.c,23 :: 		void main(){
;lab5.c,24 :: 		TRISB = 0;
0x00EE	0x1683      	BSF        STATUS, 5
0x00EF	0x1303      	BCF        STATUS, 6
0x00F0	0x0186      	CLRF       TRISB
;lab5.c,25 :: 		PORTB = 0xFF;
0x00F1	0x30FF      	MOVLW      255
0x00F2	0x1283      	BCF        STATUS, 5
0x00F3	0x0086      	MOVWF      PORTB
;lab5.c,26 :: 		TRISB = 0xff;
0x00F4	0x30FF      	MOVLW      255
0x00F5	0x1683      	BSF        STATUS, 5
0x00F6	0x0086      	MOVWF      TRISB
;lab5.c,27 :: 		ANSEL  = 0;                        // Configure AN pins as digital I/O
0x00F7	0x0191      	CLRF       ANSEL
;lab5.c,29 :: 		Lcd_Init();                        // Initialize LCD
0x00F8	0x20A0      	CALL       _Lcd_Init
;lab5.c,31 :: 		Lcd_Cmd(_LCD_CLEAR);                // Clear display
0x00F9	0x3001      	MOVLW      1
0x00FA	0x00A7      	MOVWF      FARG_Lcd_Cmd_out_char
0x00FB	0x2018      	CALL       _Lcd_Cmd
;lab5.c,32 :: 		Lcd_Cmd(_LCD_CURSOR_OFF);           // Cursor off
0x00FC	0x300C      	MOVLW      12
0x00FD	0x00A7      	MOVWF      FARG_Lcd_Cmd_out_char
0x00FE	0x2018      	CALL       _Lcd_Cmd
;lab5.c,34 :: 		i=0;
0x00FF	0x01A1      	CLRF       _i
;lab5.c,35 :: 		for(i=0; i<21; i++) {
0x0100	0x01A1      	CLRF       _i
L_main1:
0x0101	0x3015      	MOVLW      21
0x0102	0x0221      	SUBWF      _i, 0
0x0103	0x1803      	BTFSC      STATUS, 0
0x0104	0x291C      	GOTO       L_main2
;lab5.c,37 :: 		delay_ms(500);
0x0105	0x3006      	MOVLW      6
0x0106	0x00FB      	MOVWF      R11
0x0107	0x3013      	MOVLW      19
0x0108	0x00FC      	MOVWF      R12
0x0109	0x30AD      	MOVLW      173
0x010A	0x00FD      	MOVWF      R13
L_main4:
0x010B	0x0BFD      	DECFSZ     R13, 1
0x010C	0x290B      	GOTO       L_main4
0x010D	0x0BFC      	DECFSZ     R12, 1
0x010E	0x290B      	GOTO       L_main4
0x010F	0x0BFB      	DECFSZ     R11, 1
0x0110	0x290B      	GOTO       L_main4
0x0111	0x0000      	NOP
0x0112	0x0000      	NOP
;lab5.c,38 :: 		Lcd_Chr(1,1,i);                 // Write text in first row
0x0113	0x3001      	MOVLW      1
0x0114	0x00A4      	MOVWF      FARG_Lcd_Chr_row
0x0115	0x3001      	MOVLW      1
0x0116	0x00A5      	MOVWF      FARG_Lcd_Chr_column
0x0117	0x0821      	MOVF       _i, 0
0x0118	0x00A6      	MOVWF      FARG_Lcd_Chr_out_char
0x0119	0x206B      	CALL       _Lcd_Chr
;lab5.c,35 :: 		for(i=0; i<21; i++) {
0x011A	0x0AA1      	INCF       _i, 1
;lab5.c,39 :: 		}
0x011B	0x2901      	GOTO       L_main1
L_main2:
;lab5.c,41 :: 		Delay_ms(2000);
0x011C	0x3015      	MOVLW      21
0x011D	0x00FB      	MOVWF      R11
0x011E	0x304B      	MOVLW      75
0x011F	0x00FC      	MOVWF      R12
0x0120	0x30BE      	MOVLW      190
0x0121	0x00FD      	MOVWF      R13
L_main5:
0x0122	0x0BFD      	DECFSZ     R13, 1
0x0123	0x2922      	GOTO       L_main5
0x0124	0x0BFC      	DECFSZ     R12, 1
0x0125	0x2922      	GOTO       L_main5
0x0126	0x0BFB      	DECFSZ     R11, 1
0x0127	0x2922      	GOTO       L_main5
0x0128	0x0000      	NOP
;lab5.c,44 :: 		}
0x0129	0x2929      	GOTO       $+0
; end of _main
Symbol List:
//** Routines locations **
//ADDRESS    SIZE    PROCEDURE
//----------------------------------------------
0x0005       [5]    _Delay_50us
0x000A       [3]    _Delay_1us
0x000D      [11]    _Delay_5500us
0x0018      [64]    _Lcd_Cmd
0x0058       [7]    _____DoICP
0x005F      [12]    ___CC2DW
0x006B      [53]    _Lcd_Chr
0x00A0      [78]    _Lcd_Init
0x00EE      [60]    _main
//** Variables locations ** 
//ADDRESS    SIZE    VARIABLE
//----------------------------------------------
0x0000       [1]    INDF
0x0001       [1]    TMR0
0x0002       [1]    PCL
0x0003       [1]    STATUS
0x0003       [0]    IRP_bit
0x0003       [0]    RP1_bit
0x0003       [0]    RP0_bit
0x0003       [0]    Z_bit
0x0003       [0]    DC_bit
0x0003       [0]    C_bit
0x0003       [0]    NOT_PD_bit
0x0003       [0]    NOT_TO_bit
0x0004       [1]    FSR
0x0004       [1]    FSRPTR
0x0005       [0]    RA1_bit
0x0005       [0]    RA0_bit
0x0005       [0]    RA5_bit
0x0005       [0]    RA7_bit
0x0005       [0]    RA4_bit
0x0005       [0]    RA6_bit
0x0005       [0]    RA2_bit
0x0005       [0]    RA3_bit
0x0005       [1]    PORTA
0x0006       [0]    RB6_bit
0x0006       [0]    RB7_bit
0x0006       [0]    RB5_bit
0x0006       [0]    LCD_D4
0x0006       [0]    RB1_bit
0x0006       [0]    LCD_D6
0x0006       [0]    LCD_D5
0x0006       [0]    LCD_EN
0x0006       [0]    LCD_RS
0x0006       [0]    RB3_bit
0x0006       [0]    RB2_bit
0x0006       [0]    RB0_bit
0x0006       [1]    PORTB
0x0006       [0]    RB4_bit
0x0006       [0]    LCD_D7
0x0007       [0]    RC6_bit
0x0007       [0]    RC7_bit
0x0007       [0]    RC2_bit
0x0007       [0]    RC4_bit
0x0007       [0]    RC3_bit
0x0007       [0]    RC5_bit
0x0007       [0]    RC1_bit
0x0007       [1]    PORTC
0x0007       [0]    RC0_bit
0x0008       [0]    RD5_bit
0x0008       [0]    RD6_bit
0x0008       [0]    RD2_bit
0x0008       [1]    PORTD
0x0008       [0]    RD3_bit
0x0008       [0]    RD1_bit
0x0008       [0]    RD7_bit
0x0008       [0]    RD0_bit
0x0008       [0]    RD4_bit
0x0009       [0]    RE3_bit
0x0009       [1]    PORTE
0x0009       [0]    RE0_bit
0x0009       [0]    RE1_bit
0x0009       [0]    RE2_bit
0x000A       [1]    PCLATH
0x000B       [1]    INTCON
0x000B       [0]    TMR0IF_bit
0x000B       [0]    RBIF_bit
0x000B       [0]    INTF_bit
0x000B       [0]    T0IF_bit
0x000B       [0]    T0IE_bit
0x000B       [0]    TMR0IE_bit
0x000B       [0]    GIE_bit
0x000B       [0]    PEIE_bit
0x000B       [0]    INTE_bit
0x000B       [0]    RBIE_bit
0x000C       [0]    TXIF_bit
0x000C       [0]    SSPIF_bit
0x000C       [0]    TMR1IF_bit
0x000C       [0]    TMR2IF_bit
0x000C       [0]    CCP1IF_bit
0x000C       [0]    RCIF_bit
0x000C       [0]    EEIF_bit
0x000C       [1]    PIR1
0x000C       [0]    ADIF_bit
0x000D       [0]    LVDIF_bit
0x000D       [0]    OSFIF_bit
0x000D       [1]    PIR2
0x000D       [0]    C2IF_bit
0x000D       [0]    CCP2IF_bit
0x000D       [0]    LCDIF_bit
0x000D       [0]    C1IF_bit
0x000E       [1]    TMR1L
0x000F       [1]    TMR1H
0x0010       [0]    T1CKPS0_bit
0x0010       [0]    T1SYNC_bit
0x0010       [0]    T1CKPS1_bit
0x0010       [0]    TMR1ON_bit
0x0010       [0]    TMR1CS_bit
0x0010       [0]    T1OSCEN_bit
0x0010       [0]    T1INSYNC_bit
0x0010       [0]    NOT_T1SYNC_bit
0x0010       [0]    T1GE_bit
0x0010       [0]    T1GINV_bit
0x0010       [1]    T1CON
0x0011       [1]    TMR2
0x0012       [0]    TOUTPS1_bit
0x0012       [0]    TOUTPS2_bit
0x0012       [0]    TOUTPS3_bit
0x0012       [0]    TOUTPS0_bit
0x0012       [0]    T2CKPS0_bit
0x0012       [0]    T2CKPS1_bit
0x0012       [0]    TMR2ON_bit
0x0012       [1]    T2CON
0x0013       [1]    SSPBUF
0x0014       [1]    SSPCON
0x0014       [0]    SSPM1_bit
0x0014       [0]    SSPM2_bit
0x0014       [0]    SSPM3_bit
0x0014       [0]    SSPM0_bit
0x0014       [0]    SSPEN_bit
0x0014       [0]    SSPOV_bit
0x0014       [0]    WCOL_bit
0x0014       [0]    CKP_bit
0x0015       [2]    CCPR1
0x0015       [1]    CCPR1L
0x0016       [1]    CCPR1H
0x0017       [0]    CCP1M0_bit
0x0017       [0]    CCP1Y_bit
0x0017       [0]    CCP1M3_bit
0x0017       [0]    CCP1M2_bit
0x0017       [0]    CCP1M1_bit
0x0017       [1]    CCP1CON
0x0017       [0]    CCP1X_bit
0x0018       [0]    RX9_bit
0x0018       [0]    RC9_bit
0x0018       [0]    NOT_RC8_bit
0x0018       [0]    RC8_9_bit
0x0018       [0]    SPEN_bit
0x0018       [0]    SREN_bit
0x0018       [0]    RX9D_bit
0x0018       [0]    OERR_bit
0x0018       [1]    RCSTA
0x0018       [0]    RCD8_bit
0x0018       [0]    ADDEN_bit
0x0018       [0]    CREN_bit
0x0018       [0]    FERR_bit
0x0019       [1]    TXREG
0x001A       [1]    RCREG
0x001B       [1]    CCPR2L
0x001C       [1]    CCPR2H
0x001D       [1]    CCP2CON
0x001D       [0]    CCP2M3_bit
0x001D       [0]    CCP2Y_bit
0x001D       [0]    CCP2X_bit
0x001D       [0]    CCP2M0_bit
0x001D       [0]    CCP2M1_bit
0x001D       [0]    CCP2M2_bit
0x001E       [1]    ADRESH
0x001F       [0]    ADON_bit
0x001F       [0]    GO_bit
0x001F       [0]    ADFM_bit
0x001F       [0]    VCFG0_bit
0x001F       [0]    GO_DONE_bit
0x001F       [0]    CHS2_bit
0x001F       [1]    ADCON0
0x001F       [0]    CHS1_bit
0x001F       [0]    NOT_DONE_bit
0x001F       [0]    CHS0_bit
0x001F       [0]    VCFG1_bit
0x0020       [0]    __Lib_Lcd_cmd_status
0x0021       [1]    _i
0x0022       [2]    ___DoICPAddr
0x0024       [1]    FARG_Lcd_Chr_row
0x0025       [1]    FARG_Lcd_Chr_column
0x0026       [1]    FARG_Lcd_Chr_out_char
0x0027       [1]    FARG_Lcd_Cmd_out_char
0x0070       [1]    R0
0x0071       [1]    R1
0x0072       [1]    R2
0x0073       [1]    R3
0x0074       [1]    R4
0x0075       [1]    R5
0x0076       [1]    R6
0x0077       [1]    R7
0x0078       [1]    R8
0x0079       [1]    R9
0x007A       [1]    R10
0x007B       [1]    R11
0x007C       [1]    R12
0x007D       [1]    R13
0x007E       [1]    R14
0x007F       [1]    R15
0x0081       [0]    NOT_RBPU_bit
0x0081       [0]    PS2_bit
0x0081       [1]    OPTION_REG
0x0081       [0]    T0SE_bit
0x0081       [0]    T0CS_bit
0x0081       [0]    PS0_bit
0x0081       [0]    PS1_bit
0x0081       [0]    INTEDG_bit
0x0081       [0]    PSA_bit
0x0085       [1]    TRISA
0x0085       [0]    TRISA0_bit
0x0085       [0]    TRISA7_bit
0x0085       [0]    TRISA2_bit
0x0085       [0]    TRISA4_bit
0x0085       [0]    TRISA3_bit
0x0085       [0]    TRISA6_bit
0x0085       [0]    TRISA5_bit
0x0085       [0]    TRISA1_bit
0x0086       [0]    LCD_D7_Direction
0x0086       [0]    LCD_D6_Direction
0x0086       [0]    TRISB5_bit
0x0086       [0]    TRISB6_bit
0x0086       [0]    LCD_D5_Direction
0x0086       [0]    TRISB7_bit
0x0086       [0]    LCD_RS_Direction
0x0086       [0]    LCD_D4_Direction
0x0086       [0]    LCD_EN_Direction
0x0086       [0]    TRISB2_bit
0x0086       [0]    TRISB3_bit
0x0086       [0]    TRISB1_bit
0x0086       [0]    TRISB0_bit
0x0086       [1]    TRISB
0x0086       [0]    TRISB4_bit
0x0087       [0]    TRISC0_bit
0x0087       [0]    TRISC6_bit
0x0087       [0]    TRISC5_bit
0x0087       [0]    TRISC4_bit
0x0087       [0]    TRISC7_bit
0x0087       [0]    TRISC1_bit
0x0087       [0]    TRISC2_bit
0x0087       [0]    TRISC3_bit
0x0087       [1]    TRISC
0x0088       [0]    TRISD5_bit
0x0088       [0]    TRISD1_bit
0x0088       [0]    TRISD2_bit
0x0088       [1]    TRISD
0x0088       [0]    TRISD0_bit
0x0088       [0]    TRISD4_bit
0x0088       [0]    TRISD7_bit
0x0088       [0]    TRISD3_bit
0x0088       [0]    TRISD6_bit
0x0089       [1]    TRISE
0x0089       [0]    TRISE0_bit
0x0089       [0]    TRISE3_bit
0x0089       [0]    TRISE2_bit
0x0089       [0]    TRISE1_bit
0x008C       [0]    SSPIE_bit
0x008C       [0]    TXIE_bit
0x008C       [0]    TMR2IE_bit
0x008C       [0]    CCP1IE_bit
0x008C       [0]    ADIE_bit
0x008C       [0]    EEIE_bit
0x008C       [0]    RCIE_bit
0x008C       [1]    PIE1
0x008C       [0]    TMR1IE_bit
0x008D       [0]    CCP2IE_bit
0x008D       [0]    LCDIE_bit
0x008D       [0]    LVDIE_bit
0x008D       [0]    C1IE_bit
0x008D       [0]    OSFIE_bit
0x008D       [0]    C2IE_bit
0x008D       [1]    PIE2
0x008E       [0]    NOT_POR_bit
0x008E       [1]    PCON
0x008E       [0]    NOT_BO_bit
0x008E       [0]    NOT_BOR_bit
0x008E       [0]    SBOREN_bit
0x008F       [0]    HTS_bit
0x008F       [0]    IRCF2_bit
0x008F       [0]    OSTS_bit
0x008F       [1]    OSCCON
0x008F       [0]    IRCF1_bit
0x008F       [0]    SCS_bit
0x008F       [0]    IRCF0_bit
0x008F       [0]    LTS_bit
0x0090       [0]    TUN0_bit
0x0090       [1]    OSCTUNE
0x0090       [0]    TUN2_bit
0x0090       [0]    TUN3_bit
0x0090       [0]    TUN1_bit
0x0090       [0]    TUN4_bit
0x0091       [0]    ANS3_bit
0x0091       [0]    AN4_bit
0x0091       [0]    AN3_bit
0x0091       [0]    AN2_bit
0x0091       [0]    ANS2_bit
0x0091       [1]    ANSEL
0x0091       [0]    ANS6_bit
0x0091       [0]    AN7_bit
0x0091       [0]    ANS7_bit
0x0091       [0]    AN6_bit
0x0091       [0]    ANS4_bit
0x0091       [0]    AN5_bit
0x0091       [0]    ANS5_bit
0x0091       [0]    AN1_bit
0x0091       [0]    ANS0_bit
0x0091       [0]    AN0_bit
0x0091       [0]    ANS1_bit
0x0092       [1]    PR2
0x0093       [1]    SSPADD
0x0094       [0]    NOT_W_bit
0x0094       [0]    NOT_ADDRESS_bit
0x0094       [0]    I2C_READ_bit
0x0094       [0]    R_W_bit
0x0094       [0]    READ_WRITE_bit
0x0094       [0]    NOT_WRITE_bit
0x0094       [0]    NOT_A_bit
0x0094       [0]    S_bit
0x0094       [0]    P_bit
0x0094       [0]    I2C_STOP__bit
0x0094       [0]    I2C_START__bit
0x0094       [0]    D_A_bit
0x0094       [0]    R_bit
0x0094       [0]    DATA_ADDRESS_bit
0x0094       [0]    I2C_DATA_bit
0x0094       [1]    SSPSTAT
0x0094       [0]    CKE_bit
0x0094       [0]    SMP_bit
0x0094       [0]    UA_bit
0x0094       [0]    BF_bit
0x0094       [0]    D_bit
0x0095       [0]    WPUB2_bit
0x0095       [0]    WPUB0_bit
0x0095       [0]    WPUB1_bit
0x0095       [0]    WPUB3_bit
0x0095       [0]    WPUB6_bit
0x0095       [0]    WPUB7_bit
0x0095       [0]    WPUB4_bit
0x0095       [0]    WPUB5_bit
0x0095       [1]    WPU
0x0095       [1]    WPUB
0x0096       [0]    IOCB6_bit
0x0096       [0]    IOCB7_bit
0x0096       [1]    IOCB
0x0096       [0]    IOCB4_bit
0x0096       [1]    IOC
0x0096       [0]    IOCB5_bit
0x0097       [1]    CMCON1
0x0097       [0]    T1GSS_bit
0x0097       [0]    C2SYNC_bit
0x0098       [0]    TXEN_bit
0x0098       [0]    TX9D_bit
0x0098       [1]    TXSTA
0x0098       [0]    TRMT_bit
0x0098       [0]    TXD8_bit
0x0098       [0]    BRGH_bit
0x0098       [0]    SYNC_bit
0x0098       [0]    NOT_TX8_bit
0x0098       [0]    TX9_bit
0x0098       [0]    CSRC_bit
0x0098       [0]    TX8_9_bit
0x0099       [1]    SPBRG
0x009C       [0]    CM1_bit
0x009C       [0]    CM2_bit
0x009C       [0]    CM0_bit
0x009C       [1]    CMCON0
0x009C       [0]    C2INV_bit
0x009C       [0]    C1OUT_bit
0x009C       [0]    C1INV_bit
0x009C       [0]    CIS_bit
0x009C       [0]    C2OUT_bit
0x009D       [0]    VR3_bit
0x009D       [0]    VR2_bit
0x009D       [0]    VR1_bit
0x009D       [0]    VR0_bit
0x009D       [0]    VREN_bit
0x009D       [1]    VRCON
0x009D       [0]    VRR_bit
0x009E       [1]    ADRESL
0x009F       [0]    ADCS1_bit
0x009F       [0]    ADCS0_bit
0x009F       [1]    ADCON1
0x009F       [0]    ADCS2_bit
0x0105       [0]    WDTPS2_bit
0x0105       [0]    WDTPS3_bit
0x0105       [1]    WDTCON
0x0105       [0]    WDTPS1_bit
0x0105       [0]    SWDTE_bit
0x0105       [0]    SWDTEN_bit
0x0105       [0]    WDTPS0_bit
0x0107       [0]    LCDEN_bit
0x0107       [0]    CS1_bit
0x0107       [0]    VLCDEN_bit
0x0107       [0]    CS0_bit
0x0107       [0]    LMUX0_bit
0x0107       [0]    LMUX1_bit
0x0107       [1]    LCDCON
0x0107       [0]    SLPEN_bit
0x0107       [0]    WERR_bit
0x0108       [0]    LP2_bit
0x0108       [0]    LP3_bit
0x0108       [0]    WA_bit
0x0108       [0]    LP0_bit
0x0108       [1]    LCDPS
0x0108       [0]    LP1_bit
0x0108       [0]    WFT_bit
0x0108       [0]    BIASMD_bit
0x0108       [0]    LCDA_bit
0x0109       [0]    LVDL1_bit
0x0109       [0]    LVDL2_bit
0x0109       [0]    LVDL0_bit
0x0109       [1]    LVDCON
0x0109       [0]    LVDEN_bit
0x0109       [0]    IRVST_bit
0x010C       [1]    EEDATA
0x010C       [1]    EEDATL
0x010D       [0]    EEADRL3_bit
0x010D       [1]    EEADRL
0x010D       [0]    EEADRL1_bit
0x010D       [0]    EEADRL2_bit
0x010D       [0]    EEADRL7_bit
0x010D       [1]    EEADR
0x010D       [0]    EEADRL5_bit
0x010D       [0]    EEADRL4_bit
0x010D       [0]    EEADRL6_bit
0x010D       [0]    EEADRL0_bit
0x010E       [1]    EEDATH
0x010F       [0]    EEADRH4_bit
0x010F       [0]    EEADRH0_bit
0x010F       [0]    EEADRH2_bit
0x010F       [0]    EEADRH3_bit
0x010F       [1]    EEADRH
0x010F       [0]    EEADRH1_bit
0x0110       [0]    S4C0_bit
0x0110       [0]    S5C0_bit
0x0110       [0]    S6C0_bit
0x0110       [0]    S1C0_bit
0x0110       [0]    S0C0_bit
0x0110       [0]    S3C0_bit
0x0110       [0]    S2C0_bit
0x0110       [0]    S7C0_bit
0x0110       [0]    SEG6COM0_bit
0x0110       [0]    SEG5COM0_bit
0x0110       [1]    LCDDATA0
0x0110       [0]    SEG7COM0_bit
0x0110       [0]    SEG4COM0_bit
0x0110       [0]    SEG1COM0_bit
0x0110       [0]    SEG0COM0_bit
0x0110       [0]    SEG3COM0_bit
0x0110       [0]    SEG2COM0_bit
0x0111       [0]    S12C0_bit
0x0111       [0]    S11C0_bit
0x0111       [0]    S14C0_bit
0x0111       [0]    S13C0_bit
0x0111       [0]    S8C0_bit
0x0111       [1]    LCDDATA1
0x0111       [0]    S10C0_bit
0x0111       [0]    S9C0_bit
0x0111       [0]    S15C0_bit
0x0111       [0]    SEG13COM0_bit
0x0111       [0]    SEG12COM0_bit
0x0111       [0]    SEG15COM0_bit
0x0111       [0]    SEG14COM0_bit
0x0111       [0]    SEG9COM0_bit
0x0111       [0]    SEG8COM0_bit
0x0111       [0]    SEG11COM0_bit
0x0111       [0]    SEG10COM0_bit
0x0112       [0]    S21C0_bit
0x0112       [0]    SEG18COM0_bit
0x0112       [0]    S20C0_bit
0x0112       [0]    S19C0_bit
0x0112       [0]    SEG17COM0_bit
0x0112       [0]    SEG22COM0_bit
0x0112       [0]    SEG23COM0_bit
0x0112       [0]    SEG21COM0_bit
0x0112       [0]    SEG19COM0_bit
0x0112       [0]    SEG20COM0_bit
0x0112       [0]    SEG16COM0_bit
0x0112       [1]    LCDDATA2
0x0112       [0]    S17C0_bit
0x0112       [0]    S16C0_bit
0x0112       [0]    S18C0_bit
0x0112       [0]    S23C0_bit
0x0112       [0]    S22C0_bit
0x0113       [0]    SEG4COM1_bit
0x0113       [0]    S0C1_bit
0x0113       [0]    S1C1_bit
0x0113       [0]    SEG3COM1_bit
0x0113       [0]    SEG5COM1_bit
0x0113       [0]    SEG1COM1_bit
0x0113       [0]    SEG2COM1_bit
0x0113       [1]    LCDDATA3
0x0113       [0]    S5C1_bit
0x0113       [0]    SEG6COM1_bit
0x0113       [0]    S4C1_bit
0x0113       [0]    S6C1_bit
0x0113       [0]    SEG0COM1_bit
0x0113       [0]    SEG7COM1_bit
0x0113       [0]    S7C1_bit
0x0113       [0]    S3C1_bit
0x0113       [0]    S2C1_bit
0x0114       [0]    S12C1_bit
0x0114       [0]    S13C1_bit
0x0114       [0]    S14C1_bit
0x0114       [0]    S10C1_bit
0x0114       [0]    SEG15COM1_bit
0x0114       [0]    S11C1_bit
0x0114       [0]    S15C1_bit
0x0114       [1]    LCDDATA4
0x0114       [0]    SEG12COM1_bit
0x0114       [0]    SEG11COM1_bit
0x0114       [0]    SEG10COM1_bit
0x0114       [0]    SEG14COM1_bit
0x0114       [0]    SEG8COM1_bit
0x0114       [0]    SEG13COM1_bit
0x0114       [0]    SEG9COM1_bit
0x0114       [0]    S9C1_bit
0x0114       [0]    S8C1_bit
0x0115       [0]    SEG18COM1_bit
0x0115       [0]    S23C1_bit
0x0115       [0]    SEG21COM1_bit
0x0115       [0]    SEG23COM1_bit
0x0115       [0]    SEG16COM1_bit
0x0115       [0]    SEG22COM1_bit
0x0115       [0]    S19C1_bit
0x0115       [0]    S22C1_bit
0x0115       [0]    S17C1_bit
0x0115       [0]    SEG19COM1_bit
0x0115       [0]    S20C1_bit
0x0115       [0]    S16C1_bit
0x0115       [1]    LCDDATA5
0x0115       [0]    S18C1_bit
0x0115       [0]    SEG20COM1_bit
0x0115       [0]    S21C1_bit
0x0115       [0]    SEG17COM1_bit
0x0116       [0]    S6C2_bit
0x0116       [0]    S7C2_bit
0x0116       [0]    SEG5COM2_bit
0x0116       [0]    SEG2COM2_bit
0x0116       [0]    SEG4COM2_bit
0x0116       [1]    LCDDATA6
0x0116       [0]    S4C2_bit
0x0116       [0]    S5C2_bit
0x0116       [0]    SEG6COM2_bit
0x0116       [0]    SEG0COM2_bit
0x0116       [0]    S3C2_bit
0x0116       [0]    SEG7COM2_bit
0x0116       [0]    SEG3COM2_bit
0x0116       [0]    S1C2_bit
0x0116       [0]    SEG1COM2_bit
0x0116       [0]    S0C2_bit
0x0116       [0]    S2C2_bit
0x0117       [0]    S13C2_bit
0x0117       [0]    S14C2_bit
0x0117       [0]    SEG11COM2_bit
0x0117       [0]    S15C2_bit
0x0117       [0]    SEG8COM2_bit
0x0117       [0]    SEG13COM2_bit
0x0117       [0]    S10C2_bit
0x0117       [0]    S11C2_bit
0x0117       [0]    SEG9COM2_bit
0x0117       [0]    SEG10COM2_bit
0x0117       [0]    SEG12COM2_bit
0x0117       [1]    LCDDATA7
0x0117       [0]    S9C2_bit
0x0117       [0]    S8C2_bit
0x0117       [0]    SEG15COM2_bit
0x0117       [0]    S12C2_bit
0x0117       [0]    SEG14COM2_bit
0x0118       [0]    SEG17COM2_bit
0x0118       [0]    S19C2_bit
0x0118       [0]    S22C2_bit
0x0118       [0]    SEG18COM2_bit
0x0118       [0]    S20C2_bit
0x0118       [0]    SEG19COM2_bit
0x0118       [0]    SEG16COM2_bit
0x0118       [0]    S23C2_bit
0x0118       [0]    SEG20COM2_bit
0x0118       [0]    S18C2_bit
0x0118       [0]    SEG23COM2_bit
0x0118       [0]    S21C2_bit
0x0118       [0]    SEG22COM2_bit
0x0118       [0]    SEG21COM2_bit
0x0118       [0]    S17C2_bit
0x0118       [1]    LCDDATA8
0x0118       [0]    S16C2_bit
0x0119       [0]    S7C3_bit
0x0119       [0]    SEG4COM3_bit
0x0119       [1]    LCDDATA9
0x0119       [0]    SEG2COM3_bit
0x0119       [0]    SEG3COM3_bit
0x0119       [0]    S6C3_bit
0x0119       [0]    SEG0COM3_bit
0x0119       [0]    S2C3_bit
0x0119       [0]    S4C3_bit
0x0119       [0]    S3C3_bit
0x0119       [0]    S5C3_bit
0x0119       [0]    S0C3_bit
0x0119       [0]    SEG6COM3_bit
0x0119       [0]    SEG5COM3_bit
0x0119       [0]    S1C3_bit
0x0119       [0]    SEG7COM3_bit
0x0119       [0]    SEG1COM3_bit
0x011A       [0]    SEG15COM3_bit
0x011A       [0]    SEG14COM3_bit
0x011A       [0]    SEG9COM3_bit
0x011A       [0]    S9C3_bit
0x011A       [0]    SEG10COM3_bit
0x011A       [0]    S8C3_bit
0x011A       [0]    S14C3_bit
0x011A       [0]    S15C3_bit
0x011A       [0]    SEG8COM3_bit
0x011A       [0]    S10C3_bit
0x011A       [0]    SEG13COM3_bit
0x011A       [0]    S12C3_bit
0x011A       [1]    LCDDATA10
0x011A       [0]    SEG12COM3_bit
0x011A       [0]    S11C3_bit
0x011A       [0]    SEG11COM3_bit
0x011A       [0]    S13C3_bit
0x011B       [0]    SEG19COM3_bit
0x011B       [0]    SEG18COM3_bit
0x011B       [0]    SEG22COM3_bit
0x011B       [0]    SEG23COM3_bit
0x011B       [0]    SEG20COM3_bit
0x011B       [0]    SEG21COM3_bit
0x011B       [0]    SEG17COM3_bit
0x011B       [0]    S18C3_bit
0x011B       [0]    S19C3_bit
0x011B       [1]    LCDDATA11
0x011B       [0]    S16C3_bit
0x011B       [0]    S17C3_bit
0x011B       [0]    S22C3_bit
0x011B       [0]    S23C3_bit
0x011B       [0]    SEG16COM3_bit
0x011B       [0]    S20C3_bit
0x011B       [0]    S21C3_bit
0x011C       [0]    SEGEN2_bit
0x011C       [0]    SEGEN7_bit
0x011C       [0]    SEGEN3_bit
0x011C       [0]    SEGEN0_bit
0x011C       [0]    SEGEN5_bit
0x011C       [0]    SEGEN6_bit
0x011C       [0]    SEGEN4_bit
0x011C       [0]    SEGEN1_bit
0x011C       [0]    SE2_bit
0x011C       [0]    SE3_bit
0x011C       [0]    SE0_bit
0x011C       [0]    SE1_bit
0x011C       [0]    SE6_bit
0x011C       [0]    SE7_bit
0x011C       [0]    SE4_bit
0x011C       [0]    SE5_bit
0x011C       [1]    LCDSE0
0x011D       [0]    SE9_bit
0x011D       [0]    SE8_bit
0x011D       [0]    SEGEN8_bit
0x011D       [0]    SE10_bit
0x011D       [0]    SE13_bit
0x011D       [0]    SE12_bit
0x011D       [0]    SE11_bit
0x011D       [0]    SEGEN11_bit
0x011D       [0]    SEGEN10_bit
0x011D       [0]    SEGEN9_bit
0x011D       [0]    SEGEN12_bit
0x011D       [0]    SEGEN15_bit
0x011D       [0]    SEGEN14_bit
0x011D       [0]    SEGEN13_bit
0x011D       [0]    SE15_bit
0x011D       [0]    SE14_bit
0x011D       [1]    LCDSE1
0x011E       [0]    SE20_bit
0x011E       [0]    SEGEN23_bit
0x011E       [0]    SE19_bit
0x011E       [0]    SE16_bit
0x011E       [0]    SEGEN21_bit
0x011E       [1]    LCDSE2
0x011E       [0]    SEGEN22_bit
0x011E       [0]    SEGEN19_bit
0x011E       [0]    SEGEN18_bit
0x011E       [0]    SEGEN20_bit
0x011E       [0]    SE18_bit
0x011E       [0]    SE23_bit
0x011E       [0]    SE21_bit
0x011E       [0]    SE22_bit
0x011E       [0]    SE17_bit
0x011E       [0]    SEGEN17_bit
0x011E       [0]    SEGEN16_bit
0x018C       [0]    WREN_bit
0x018C       [1]    EECON1
0x018C       [0]    EEPGD_bit
0x018C       [0]    WR_bit
0x018C       [0]    RD_bit
0x018C       [0]    EEWR_bit
0x018C       [0]    EERD_bit
0x018C       [0]    WRERR_bit
0x018D       [1]    EECON2
//** Label List: ** 
//----------------------------------------------
  L_Move_Delay0
  L_main1
  L_main2
  L_main3
  L_main4
  L_main5
  _Move_Delay
  _main
  L_Delay_1us0
  L_Delay_10us1
  L_Delay_22us2
  L_Delay_50us3
  L_Delay_80us4
  L_Delay_500us5
  L_Delay_5500us6
  L_Delay_8ms7
  L_Delay_5ms8
  L_Delay_100ms9
  L_Delay_1sec10
  L_boot16_Delay_5ms11
  L_Delay_Cyc12
  L_Delay_Cyc13
  L_VDelay_ms14
  L_VDelay_ms15
  L_VDelay_ms16
  L_VDelay_Advanced_ms17
  L_VDelay_Advanced_ms18
  L_VDelay_Advanced_ms19
  _Get_Fosc_kHz
  _Delay_1us
  _Delay_10us
  _Delay_22us
  _Delay_50us
  _Delay_80us
  _Delay_500us
  _Delay_5500us
  _Delay_8ms
  _Delay_5ms
  _Delay_100ms
  _Delay_1sec
  _boot16_Delay_5ms
  _Delay_Cyc
  _VDelay_ms
  L__VDelay_ms20
  L__VDelay_ms21
  L__VDelay_ms22
  _VDelay_Advanced_ms
  L__VDelay_Advanced_ms23
  L__VDelay_Advanced_ms24
  L__VDelay_Advanced_ms25
  L_Lcd_Cmd0
  L_Lcd_Cmd1
  L_Lcd_Out_CP2
  L_Lcd_Out_CP3
  L_Lcd_Chr4
  L_Lcd_Chr5
  L_Lcd_Chr6
  L_Lcd_Chr7
  L_Lcd_Chr8
  L_Lcd_Chr9
  L_Lcd_Chr10
  L_Lcd_Out11
  L_Lcd_Out12
  L_Lcd_Out13
  L_Lcd_Out14
  L_Lcd_Out15
  L_Lcd_Out16
  L_Lcd_Out17
  L_Lcd_Out18
  L_Lcd_Out19
  _Lcd_Cmd
  L__Lcd_Cmd20
  L__Lcd_Cmd21
  L__Lcd_Cmd22
  L__Lcd_Cmd23
  L__Lcd_Cmd24
  L__Lcd_Cmd25
  L__Lcd_Cmd26
  L__Lcd_Cmd27
  L__Lcd_Cmd28
  L__Lcd_Cmd29
  L__Lcd_Cmd30
  L__Lcd_Cmd31
  L__Lcd_Cmd32
  L__Lcd_Cmd33
  L__Lcd_Cmd34
  L__Lcd_Cmd35
  L__Lcd_Cmd36
  L__Lcd_Cmd37
  L__Lcd_Cmd38
  L__Lcd_Cmd39
  _Lcd_Chr_CP
  _Lcd_Out_CP
  _Lcd_Chr
  _Lcd_Init
  _Lcd_Out
  _CC2D_Loop1
  _____DoICP
  _____DoIFC
  ___CC2DW
  _Swap
