
#pragma used+
sfrb TWBR=0;
sfrb TWSR=1;
sfrb TWAR=2;
sfrb TWDR=3;
sfrb ADCL=4;
sfrb ADCH=5;
sfrw ADCW=4;      
sfrb ADCSRA=6;
sfrb ADMUX=7;
sfrb ACSR=8;
sfrb UBRRL=9;
sfrb UCSRB=0xa;
sfrb UCSRA=0xb;
sfrb UDR=0xc;
sfrb SPCR=0xd;
sfrb SPSR=0xe;
sfrb SPDR=0xf;
sfrb PIND=0x10;
sfrb DDRD=0x11;
sfrb PORTD=0x12;
sfrb PINC=0x13;
sfrb DDRC=0x14;
sfrb PORTC=0x15;
sfrb PINB=0x16;
sfrb DDRB=0x17;
sfrb PORTB=0x18;
sfrb EECR=0x1c;
sfrb EEDR=0x1d;
sfrb EEARL=0x1e;
sfrb EEARH=0x1f;
sfrw EEAR=0x1e;   
sfrb UBRRH=0x20;
sfrb UCSRC=0X20;
sfrb WDTCR=0x21;
sfrb ASSR=0x22;
sfrb OCR2=0x23;
sfrb TCNT2=0x24;
sfrb TCCR2=0x25;
sfrb ICR1L=0x26;
sfrb ICR1H=0x27;
sfrw ICR1=0x26;   
sfrb OCR1BL=0x28;
sfrb OCR1BH=0x29;
sfrw OCR1B=0x28;  
sfrb OCR1AL=0x2a;
sfrb OCR1AH=0x2b;
sfrw OCR1A=0x2a;  
sfrb TCNT1L=0x2c;
sfrb TCNT1H=0x2d;
sfrw TCNT1=0x2c;  
sfrb TCCR1B=0x2e;
sfrb TCCR1A=0x2f;
sfrb SFIOR=0x30;
sfrb OSCCAL=0x31;
sfrb TCNT0=0x32;
sfrb TCCR0=0x33;
sfrb MCUCSR=0x34;
sfrb MCUCR=0x35;
sfrb TWCR=0x36;
sfrb SPMCR=0x37;
sfrb TIFR=0x38;
sfrb TIMSK=0x39;
sfrb GIFR=0x3a;
sfrb GICR=0x3b;
sfrb SPL=0x3d;
sfrb SPH=0x3e;
sfrb SREG=0x3f;
#pragma used-

#asm
	#ifndef __SLEEP_DEFINED__
	#define __SLEEP_DEFINED__
	.EQU __se_bit=0x80
	.EQU __sm_mask=0x70
	.EQU __sm_powerdown=0x20
	.EQU __sm_powersave=0x30
	.EQU __sm_standby=0x60
	.EQU __sm_ext_standby=0x70
	.EQU __sm_adc_noise_red=0x10
	.SET power_ctrl_reg=mcucr
	#endif
#endasm

#asm
   .equ __lcd_port=0x12 ;PORTD
#endasm

#pragma used+

void _lcd_ready(void);
void _lcd_write_data(unsigned char data);

void lcd_write_byte(unsigned char addr, unsigned char data);

unsigned char lcd_read_byte(unsigned char addr);

void lcd_gotoxy(unsigned char x, unsigned char y);

void lcd_clear(void);
void lcd_putchar(char c);

void lcd_puts(char *str);

void lcd_putsf(char flash *str);

unsigned char lcd_init(unsigned char lcd_columns);

void lcd_control (unsigned char control);

#pragma used-
#pragma library lcd.lib

typedef char *va_list;

#pragma used+

char getchar(void);
void putchar(char c);
void puts(char *str);
void putsf(char flash *str);
int printf(char flash *fmtstr,...);
int sprintf(char *str, char flash *fmtstr,...);
int vprintf(char flash * fmtstr, va_list argptr);
int vsprintf(char *str, char flash * fmtstr, va_list argptr);

char *gets(char *str,unsigned int len);
int snprintf(char *str, unsigned int size, char flash *fmtstr,...);
int vsnprintf(char *str, unsigned int size, char flash * fmtstr, va_list argptr);

int scanf(char flash *fmtstr,...);
int sscanf(char *str, char flash *fmtstr,...);

#pragma used-

#pragma library stdio.lib

#pragma used+

void delay_us(unsigned int n);
void delay_ms(unsigned int n);

#pragma used-

unsigned int contor;
float distanta,var,var2,var3;
unsigned char buffer[10];
void main(void)
{     char sir[16];

PORTB=0x00;
DDRB=0x01;

PORTC=0x00;
DDRC=0x00;

PORTD=0x00;
DDRD=0x00;

TCCR0=0x00;
TCNT0=0x00;

TCCR1A=0x00;
TCCR1B=0x00;
TCNT1H=0x00;
TCNT1L=0x00;
ICR1H=0x00;
ICR1L=0x00;
OCR1AH=0x00;
OCR1AL=0x00;
OCR1BH=0x00;
OCR1BL=0x00;

ASSR=0x00;
TCCR2=0x00;
TCNT2=0x00;
OCR2=0x00;

MCUCR=0x00;

TIMSK=0x00;

ACSR=0x80;
SFIOR=0x00;

lcd_init(16);

while (1)
{ 
contor=0;
DDRC.5=1;
PORTC.5=1;
delay_us(5);
PORTC.5=0;

DDRC.5=0;
PORTC.5=1;
while (PINC.5==0) {}
while(PINC.5==1)
{

contor++;

};
contor=contor*3.15;
distanta=(contor*0.034442)/2; 

if (distanta>5){ PORTB.0=1;}
else{PORTB.0=0;
}      
sprintf(sir,"%f:2",distanta);
lcd_gotoxy(0,0);
lcd_puts(sir);

};
}
