0	1	mikroCPIC1618.exe -MSF -DBG -pP16F917 -DL -O11111114 -fo8 -N"X:\MC\Laborator 2\L2 P1\mikroC\L2 P1.mcppi" -SP"C:\Program Files\Mikroelektronika\mikroC PRO for PIC\defs\" -SP"C:\Program Files\Mikroelektronika\mikroC PRO for PIC\Uses\P16\" -SP"X:\MC\Laborator 2\L2 P1\mikroC\" -SP"C:\Documents and Settings\Admin\Desktop\MC\Laborator 2\L2 P1\mikroC\" -SP"C:\Documents and Settings\Admin\Desktop\MC\Laborator 2\L2 P1\" "L2 P1.c" "__Lib_Math.mcl" "__Lib_MathDouble.mcl" "__Lib_System.mcl" "__Lib_Delays.mcl" "__Lib_CType.mcl" "__Lib_CString.mcl" "__Lib_CStdlib.mcl" "__Lib_CMath.mcl" "__Lib_MemManager.mcl" "__Lib_Conversions.mcl" "__Lib_Sprinti.mcl" "__Lib_Sprintl.mcl" "__Lib_Time.mcl" "__Lib_Trigonometry.mcl" "__Lib_Button.mcl" "__Lib_Keypad4x4.mcl" "__Lib_Manchester.mcl" "__Lib_OneWire.mcl" "__Lib_PS2.mcl" "__Lib_Sound.mcl" "__Lib_SoftI2C.mcl" "__Lib_SoftSPI.mcl" "__Lib_SoftUART.mcl" "__Lib_ADC_A_B.mcl" "__Lib_EEPROM.mcl" "__Lib_FLASH_R.mcl" "__Lib_PWM_c5d2.mcl" "__Lib_SPI_c674.mcl" "__Lib_UART_c67.mcl" "__Lib_PortExpander.mcl" "__Lib_CANSPI.mcl" "__Lib_CF.mcl" "__Lib_GlcdFonts.mcl" "__Lib_Glcd.mcl" "__Lib_LcdConsts.mcl" "__Lib_Lcd.mcl" "__Lib_RS485.mcl" "__Lib_S1D13700.mcl" "__Lib_T6963C.mcl" "__Lib_SPIGlcd.mcl" "__Lib_SPILcd.mcl" "__Lib_SPILcd8.mcl" "__Lib_SPIT6963C.mcl" "__Lib_EthEnc28j60.mcl" "__Lib_EthEnc24j600.mcl" "__Lib_TouchPanel.mcl"	 
warning: 0	1501	Specified search path does not exist: 'C:\Documents and Settings\Admin\Desktop\MC\Laborator 2\L2 P1\mikroC'	 
warning: 0	1501	Specified search path does not exist: 'C:\Documents and Settings\Admin\Desktop\MC\Laborator 2\L2 P1'	 
hint: 0	1139	Available RAM: 336 [bytes], Available ROM: 8192 [bytes]	 
diagnostics: 0	126	All files Preprocessed in 140 ms	 
diagnostics: 0	122	Compilation Started	L2 P1.c
diagnostics: 9	123	Compiled Successfully	L2 P1.c
diagnostics: 0	127	All files Compiled in 481 ms	 
hint: 0	1144	Used RAM (bytes): 3 (1%)  Free RAM (bytes): 333 (99%)	Used RAM (bytes): 3 (1%)  Free RAM (bytes): 333 (99%)
hint: 0	1144	Used ROM (program words): 26 (1%)  Free ROM (program words): 8166 (99%)	Used ROM (program words): 26 (1%)  Free ROM (program words): 8166 (99%)
diagnostics: 0	125	Project Linked Successfully	L2 P1.mcppi
diagnostics: 0	128	Linked in 1121 ms	 
diagnostics: 0	129	Project 'L2 P1.mcppi' completed: 2473 ms	 
diagnostics: 0	103	Finished successfully: 06 Jun 2012, 13:17:30	L2 P1.mcppi
