:0A000000182800000000000000288E
:0E000A008312031321088A00200882000800D8
:1000180005208A110A128000840AA00A0319A10A7D
:08002800F003031D0C28080081
:100030008316031386010130831286000B30FB0008
:100040002630FC005D30FD00FD0B2428FC0B24282D
:10005000FB0B24280000000086010B30FB0026303B
:10006000FC005D30FD00FD0B3328FC0B3328FB0B3F
:10007000332800000000023086000B30FB002630E1
:10008000FC005D30FD00FD0B4328FC0B4328FB0BFF
:080090004328000000004B288A
:02400E00F21F9F
:00000001FF
