:0A0000001C29000000000000002889
:06000A00000000000800E8
:100010000F30FC004730FD00FD0B0C28FC0B0C28BA
:06002000000000000800D2
:0A0026002130FD00FD0B1528080035
:1000300083160313B51B1F288312881121288312EE
:1000400088158316351B2728831208112928831247
:1000500008158316B51A2F288312881031288312A9
:1000600088148316351A372883120810392883120A
:1000700008146C183D2808163E280812881605201A
:1000800088128316B51947288312881149288312CC
:100090008815831635194F288312081151288312A9
:1000A00008158316B518572883128810592883120B
:1000B0008814831635185F2883120810612883126C
:1000C00008146C186528081666280812881605207A
:0E00D00088126C1C6D2808206E281320080072
:1000DE00831203136C1083163408B50018206C14A9
:0200EE00080008
:0E00F000831203136B088A006A08820008005E
:1000FE0078208A110A128000840AEA0A0319EB0A90
:08010E00F003031D7F28080027
:100116009D28803083160313B000B028C030B0008D
:10012600B0289430B000B028D430B000B028803069
:10013600B000B028831603133008013A03198C283F
:100146003008023A031991283008033A0319942813
:100156003008043A031997289A283103F00030082A
:10016600F0077008B0007008B50018206C108316F0
:10017600B30133083207840000080319CB2833087B
:10018600320784000008B4006F208316B30ABC2827
:0601960083126C14080046
:10019C00831603138812081208108810081188118E
:1001AC008312881208128811081188100810082070
:1001BC0008200820881408148816052088120820A6
:1001CC008816052088120820881605208812082019
:1001DC000810881605208812082088160520881219
:1001EC008810881588160520881208208811081494
:1001FC0088160520881208108816052088120820F9
:10020C0088160520881208148816052088120820E4
:10021C0008108816052088128815081588140814EB
:0C022C0088160520881208206C140800B9
:100238005422CE200F308316860001308312ED0041
:10024800EE01EF018316AE01AF0183126D08013A8A
:10025800031D3329061C3329ED010130EE006E0819
:10026800013A031D3C29861C3C29EE010130EF00B0
:100278006E08013A031D4529861D4529EE01013006
:10028800ED006E08013A031D4F29061C4F29EE01A7
:1002980001308316AE0083126F08013A031D5A29F4
:1002A800061C5A29EF0101308316AF0083126F082C
:1002B800013A031D6429061D6429EF010130EE008F
:1002C8006F08013A031D6D29861D6D29EF01013064
:1002D800ED0083162E08013A031D7A298312061CA5
:1002E8007A298316AE0101308312ED0083162F0898
:1002F800013A031D87298312061C87298316AF013B
:1003080001308312ED0083126D08013A031D9D2907
:1003180001308316B0000130B1002030B2008B20CC
:1003280002308316B0000130B1004F30B2008B208C
:1003380006146E08013A031DB42901308316B00073
:100348000130B1004030B2008B2002308316B0007B
:100358000130B1005230B2008B2006148614861585
:100368006F08013A031DCB2901308316B000013014
:10037800B100A030B2008B2002308316B0000130EB
:10038800B1005E30B2008B20061406158615831660
:100398002E08013A031DE0290130B0000130B100F8
:1003A8002F30B2008B2002308316B0000130B1002C
:1003B8002C30B2008B20061683162F08013A031D35
:1003C800F5290130B0000130B1003630B2008B2081
:1003D80002308316B0000130B1003D30B2008B20EE
:0603E80006122929F62986
:1004A800203084004A3083120313F000FC30EA0045
:1004B8000130EB007F20A03084000E30831203133C
:0E04C800F0004630EA000230EB007F20080012
:1003F800533465347434613472346534203452347F
:08040800423434343A3400346C
:060410004F346B34003490
:0E0416005234423434343D3431343A340034FC
:0E0424005234423434343D3430343A340034EF
:060432004F346B3400346E
:1004380041347034723469346E34643465347234DF
:0E044800653420345234423434343A340034B3
:060456004F346B3400344A
:10045C004F346B3420343E342034433461346E34A6
:08046C00633465346C34003484
:100474004F346B3420343C342034433461346E3490
:08048400633465346C3400346C
:10048C005334743469346E3467346534723465347F
:0C049C0020345234423434343A340034FA
:02400E00F21F9F
:00000001FF
