;  LST file generated by mikroListExporter - v.2.0 
; Date/Time: 02-Jun-14 5:37:13 PM
;----------------------------------------------

;Address Opcode 	ASM
0x0000	0x291B      	GOTO       283
_interrupt:
0x0004	0x00FF      	MOVWF      R15
0x0005	0x0E03      	SWAPF      STATUS, 0
0x0006	0x0183      	CLRF       STATUS
0x0007	0x00AE      	MOVWF      ___saveSTATUS
0x0008	0x080A      	MOVF       PCLATH, 0
0x0009	0x00AB      	MOVWF      ___savePCLATH
0x000A	0x018A      	CLRF       PCLATH
;v3.c,16 :: 		void interrupt()
;v3.c,18 :: 		intcon.gie=0;
0x000B	0x138B      	BCF        INTCON, 7
;v3.c,19 :: 		if (intcon.t0if==1)
0x000C	0x1D0B      	BTFSS      INTCON, 2
0x000D	0x2810      	GOTO       L_interrupt0
;v3.c,20 :: 		{       a=0;
0x000E	0x01AC      	CLRF       _a
0x000F	0x01AD      	CLRF       _a+1
;v3.c,23 :: 		}
L_interrupt0:
;v3.c,24 :: 		intcon.t0if=0;
0x0010	0x110B      	BCF        INTCON, 2
;v3.c,25 :: 		intcon.gie=1;
0x0011	0x178B      	BSF        INTCON, 7
;v3.c,26 :: 		Tmr0=011;
0x0012	0x3009      	MOVLW      9
0x0013	0x0081      	MOVWF      TMR0
;v3.c,28 :: 		}
L_end_interrupt:
L__interrupt6:
0x0014	0x082B      	MOVF       ___savePCLATH, 0
0x0015	0x008A      	MOVWF      PCLATH
0x0016	0x0E2E      	SWAPF      ___saveSTATUS, 0
0x0017	0x0083      	MOVWF      STATUS
0x0018	0x0EFF      	SWAPF      R15, 1
0x0019	0x0E7F      	SWAPF      R15, 0
0x001A	0x0009      	RETFIE
; end of _interrupt
_Delay_50us:
;__Lib_Delays.c,19 :: 		void Delay_50us() {
;__Lib_Delays.c,20 :: 		Delay_us(50);
0x001B	0x3021      	MOVLW      33
0x001C	0x1283      	BCF        STATUS, 5
0x001D	0x1303      	BCF        STATUS, 6
0x001E	0x00FD      	MOVWF      R13
L_Delay_50us2:
0x001F	0x0BFD      	DECFSZ     R13, 1
0x0020	0x281F      	GOTO       L_Delay_50us2
;__Lib_Delays.c,21 :: 		}
L_end_Delay_50us:
0x0021	0x0008      	RETURN
; end of _Delay_50us
_Delay_1us:
;__Lib_Delays.c,7 :: 		void Delay_1us() {
;__Lib_Delays.c,8 :: 		Delay_us(1);
0x0022	0x0000      	NOP
0x0023	0x0000      	NOP
;__Lib_Delays.c,9 :: 		}
L_end_Delay_1us:
0x0024	0x0008      	RETURN
; end of _Delay_1us
_Delay_5500us:
;__Lib_Delays.c,31 :: 		void Delay_5500us() {
;__Lib_Delays.c,32 :: 		Delay_us(5500);
0x0025	0x300F      	MOVLW      15
0x0026	0x1283      	BCF        STATUS, 5
0x0027	0x1303      	BCF        STATUS, 6
0x0028	0x00FC      	MOVWF      R12
0x0029	0x3047      	MOVLW      71
0x002A	0x00FD      	MOVWF      R13
L_Delay_5500us5:
0x002B	0x0BFD      	DECFSZ     R13, 1
0x002C	0x282B      	GOTO       L_Delay_5500us5
0x002D	0x0BFC      	DECFSZ     R12, 1
0x002E	0x282B      	GOTO       L_Delay_5500us5
0x002F	0x0000      	NOP
0x0030	0x0000      	NOP
;__Lib_Delays.c,33 :: 		}
L_end_Delay_5500us:
0x0031	0x0008      	RETURN
; end of _Delay_5500us
_Lcd_Cmd:
;__Lib_Lcd.c,18 :: 		
;__Lib_Lcd.c,20 :: 		
0x0032	0x1283      	BCF        STATUS, 5
0x0033	0x1303      	BCF        STATUS, 6
0x0034	0x1BB4      	BTFSC      FARG_Lcd_Cmd_out_char, 7
0x0035	0x2838      	GOTO       L__Lcd_Cmd21
0x0036	0x1187      	BCF        LCD_D7, BitPos(LCD_D7+0)
0x0037	0x2839      	GOTO       L__Lcd_Cmd22
L__Lcd_Cmd21:
0x0038	0x1587      	BSF        LCD_D7, BitPos(LCD_D7+0)
L__Lcd_Cmd22:
;__Lib_Lcd.c,21 :: 		
0x0039	0x1B34      	BTFSC      FARG_Lcd_Cmd_out_char, 6
0x003A	0x283D      	GOTO       L__Lcd_Cmd23
0x003B	0x1107      	BCF        LCD_D6, BitPos(LCD_D6+0)
0x003C	0x283E      	GOTO       L__Lcd_Cmd24
L__Lcd_Cmd23:
0x003D	0x1507      	BSF        LCD_D6, BitPos(LCD_D6+0)
L__Lcd_Cmd24:
;__Lib_Lcd.c,22 :: 		
0x003E	0x1AB4      	BTFSC      FARG_Lcd_Cmd_out_char, 5
0x003F	0x2842      	GOTO       L__Lcd_Cmd25
0x0040	0x1087      	BCF        LCD_D5, BitPos(LCD_D5+0)
0x0041	0x2843      	GOTO       L__Lcd_Cmd26
L__Lcd_Cmd25:
0x0042	0x1487      	BSF        LCD_D5, BitPos(LCD_D5+0)
L__Lcd_Cmd26:
;__Lib_Lcd.c,23 :: 		
0x0043	0x1A34      	BTFSC      FARG_Lcd_Cmd_out_char, 4
0x0044	0x2847      	GOTO       L__Lcd_Cmd27
0x0045	0x1007      	BCF        LCD_D4, BitPos(LCD_D4+0)
0x0046	0x2848      	GOTO       L__Lcd_Cmd28
L__Lcd_Cmd27:
0x0047	0x1407      	BSF        LCD_D4, BitPos(LCD_D4+0)
L__Lcd_Cmd28:
;__Lib_Lcd.c,25 :: 		
0x0048	0x1828      	BTFSC      __Lib_Lcd_cmd_status, BitPos(__Lib_Lcd_cmd_status+0)
0x0049	0x284C      	GOTO       L__Lcd_Cmd29
0x004A	0x1607      	BSF        LCD_RS, BitPos(LCD_RS+0)
0x004B	0x284D      	GOTO       L__Lcd_Cmd30
L__Lcd_Cmd29:
0x004C	0x1207      	BCF        LCD_RS, BitPos(LCD_RS+0)
L__Lcd_Cmd30:
;__Lib_Lcd.c,28 :: 		
0x004D	0x1687      	BSF        LCD_EN, BitPos(LCD_EN+0)
;__Lib_Lcd.c,29 :: 		
0x004E	0x2022      	CALL       _Delay_1us
;__Lib_Lcd.c,30 :: 		
0x004F	0x1287      	BCF        LCD_EN, BitPos(LCD_EN+0)
;__Lib_Lcd.c,33 :: 		
0x0050	0x19B4      	BTFSC      FARG_Lcd_Cmd_out_char, 3
0x0051	0x2854      	GOTO       L__Lcd_Cmd31
0x0052	0x1187      	BCF        LCD_D7, BitPos(LCD_D7+0)
0x0053	0x2855      	GOTO       L__Lcd_Cmd32
L__Lcd_Cmd31:
0x0054	0x1587      	BSF        LCD_D7, BitPos(LCD_D7+0)
L__Lcd_Cmd32:
;__Lib_Lcd.c,34 :: 		
0x0055	0x1934      	BTFSC      FARG_Lcd_Cmd_out_char, 2
0x0056	0x2859      	GOTO       L__Lcd_Cmd33
0x0057	0x1107      	BCF        LCD_D6, BitPos(LCD_D6+0)
0x0058	0x285A      	GOTO       L__Lcd_Cmd34
L__Lcd_Cmd33:
0x0059	0x1507      	BSF        LCD_D6, BitPos(LCD_D6+0)
L__Lcd_Cmd34:
;__Lib_Lcd.c,35 :: 		
0x005A	0x18B4      	BTFSC      FARG_Lcd_Cmd_out_char, 1
0x005B	0x285E      	GOTO       L__Lcd_Cmd35
0x005C	0x1087      	BCF        LCD_D5, BitPos(LCD_D5+0)
0x005D	0x285F      	GOTO       L__Lcd_Cmd36
L__Lcd_Cmd35:
0x005E	0x1487      	BSF        LCD_D5, BitPos(LCD_D5+0)
L__Lcd_Cmd36:
;__Lib_Lcd.c,36 :: 		
0x005F	0x1834      	BTFSC      FARG_Lcd_Cmd_out_char, 0
0x0060	0x2863      	GOTO       L__Lcd_Cmd37
0x0061	0x1007      	BCF        LCD_D4, BitPos(LCD_D4+0)
0x0062	0x2864      	GOTO       L__Lcd_Cmd38
L__Lcd_Cmd37:
0x0063	0x1407      	BSF        LCD_D4, BitPos(LCD_D4+0)
L__Lcd_Cmd38:
;__Lib_Lcd.c,38 :: 		
0x0064	0x1828      	BTFSC      __Lib_Lcd_cmd_status, BitPos(__Lib_Lcd_cmd_status+0)
0x0065	0x2868      	GOTO       L__Lcd_Cmd39
0x0066	0x1607      	BSF        LCD_RS, BitPos(LCD_RS+0)
0x0067	0x2869      	GOTO       L__Lcd_Cmd40
L__Lcd_Cmd39:
0x0068	0x1207      	BCF        LCD_RS, BitPos(LCD_RS+0)
L__Lcd_Cmd40:
;__Lib_Lcd.c,40 :: 		
0x0069	0x1687      	BSF        LCD_EN, BitPos(LCD_EN+0)
;__Lib_Lcd.c,41 :: 		
0x006A	0x2022      	CALL       _Delay_1us
;__Lib_Lcd.c,42 :: 		
0x006B	0x1287      	BCF        LCD_EN, BitPos(LCD_EN+0)
;__Lib_Lcd.c,44 :: 		
0x006C	0x1C28      	BTFSS      __Lib_Lcd_cmd_status, BitPos(__Lib_Lcd_cmd_status+0)
0x006D	0x2870      	GOTO       L_Lcd_Cmd0
;__Lib_Lcd.c,45 :: 		
0x006E	0x2025      	CALL       _Delay_5500us
0x006F	0x2871      	GOTO       L_Lcd_Cmd1
L_Lcd_Cmd0:
;__Lib_Lcd.c,47 :: 		
0x0070	0x201B      	CALL       _Delay_50us
L_Lcd_Cmd1:
;__Lib_Lcd.c,48 :: 		
L_end_Lcd_Cmd:
0x0071	0x0008      	RETURN
; end of _Lcd_Cmd
_____DoICP:
;__Lib_System.c,6 :: 		
;__Lib_System.c,9 :: 		
0x0072	0x1283      	BCF        STATUS, 5
0x0073	0x1303      	BCF        STATUS, 6
0x0074	0x082A      	MOVF       ___DoICPAddr+1, 0
0x0075	0x008A      	MOVWF      PCLATH
;__Lib_System.c,10 :: 		
0x0076	0x0829      	MOVF       ___DoICPAddr, 0
0x0077	0x0082      	MOVWF      PCL
;__Lib_System.c,12 :: 		
L_end_____DoICP:
0x0078	0x0008      	RETURN
; end of _____DoICP
_Lcd_Chr_CP:
;__Lib_Lcd.c,50 :: 		
;__Lib_Lcd.c,52 :: 		
0x0079	0x1283      	BCF        STATUS, 5
0x007A	0x1303      	BCF        STATUS, 6
0x007B	0x1028      	BCF        __Lib_Lcd_cmd_status, BitPos(__Lib_Lcd_cmd_status+0)
;__Lib_Lcd.c,53 :: 		
0x007C	0x0833      	MOVF       FARG_Lcd_Chr_CP_out_char, 0
0x007D	0x00B4      	MOVWF      FARG_Lcd_Cmd_out_char
0x007E	0x2032      	CALL       _Lcd_Cmd
;__Lib_Lcd.c,54 :: 		
0x007F	0x1428      	BSF        __Lib_Lcd_cmd_status, BitPos(__Lib_Lcd_cmd_status+0)
;__Lib_Lcd.c,55 :: 		
L_end_Lcd_Chr_CP:
0x0080	0x0008      	RETURN
; end of _Lcd_Chr_CP
_Lcd_Out:
;__Lib_Lcd.c,184 :: 		
;__Lib_Lcd.c,187 :: 		
0x0081	0x2893      	GOTO       L_Lcd_Out11
;__Lib_Lcd.c,188 :: 		
L_Lcd_Out13:
0x0082	0x3080      	MOVLW      128
0x0083	0x1283      	BCF        STATUS, 5
0x0084	0x1303      	BCF        STATUS, 6
0x0085	0x00AF      	MOVWF      FARG_Lcd_Out_row
0x0086	0x28A6      	GOTO       L_Lcd_Out12
;__Lib_Lcd.c,189 :: 		
L_Lcd_Out14:
0x0087	0x30C0      	MOVLW      192
0x0088	0x00AF      	MOVWF      FARG_Lcd_Out_row
0x0089	0x28A6      	GOTO       L_Lcd_Out12
;__Lib_Lcd.c,190 :: 		
L_Lcd_Out15:
0x008A	0x3094      	MOVLW      148
0x008B	0x00AF      	MOVWF      FARG_Lcd_Out_row
0x008C	0x28A6      	GOTO       L_Lcd_Out12
;__Lib_Lcd.c,191 :: 		
L_Lcd_Out16:
0x008D	0x30D4      	MOVLW      212
0x008E	0x00AF      	MOVWF      FARG_Lcd_Out_row
0x008F	0x28A6      	GOTO       L_Lcd_Out12
;__Lib_Lcd.c,192 :: 		
L_Lcd_Out17:
0x0090	0x3080      	MOVLW      128
0x0091	0x00AF      	MOVWF      FARG_Lcd_Out_row
;__Lib_Lcd.c,193 :: 		
0x0092	0x28A6      	GOTO       L_Lcd_Out12
L_Lcd_Out11:
0x0093	0x1283      	BCF        STATUS, 5
0x0094	0x1303      	BCF        STATUS, 6
0x0095	0x082F      	MOVF       FARG_Lcd_Out_row, 0
0x0096	0x3A01      	XORLW      1
0x0097	0x1903      	BTFSC      STATUS, 2
0x0098	0x2882      	GOTO       L_Lcd_Out13
0x0099	0x082F      	MOVF       FARG_Lcd_Out_row, 0
0x009A	0x3A02      	XORLW      2
0x009B	0x1903      	BTFSC      STATUS, 2
0x009C	0x2887      	GOTO       L_Lcd_Out14
0x009D	0x082F      	MOVF       FARG_Lcd_Out_row, 0
0x009E	0x3A03      	XORLW      3
0x009F	0x1903      	BTFSC      STATUS, 2
0x00A0	0x288A      	GOTO       L_Lcd_Out15
0x00A1	0x082F      	MOVF       FARG_Lcd_Out_row, 0
0x00A2	0x3A04      	XORLW      4
0x00A3	0x1903      	BTFSC      STATUS, 2
0x00A4	0x288D      	GOTO       L_Lcd_Out16
0x00A5	0x2890      	GOTO       L_Lcd_Out17
L_Lcd_Out12:
;__Lib_Lcd.c,194 :: 		
0x00A6	0x0330      	DECF       FARG_Lcd_Out_column, 0
0x00A7	0x00F0      	MOVWF      R0
0x00A8	0x082F      	MOVF       FARG_Lcd_Out_row, 0
0x00A9	0x07F0      	ADDWF      R0, 1
0x00AA	0x0870      	MOVF       R0, 0
0x00AB	0x00AF      	MOVWF      FARG_Lcd_Out_row
;__Lib_Lcd.c,196 :: 		
0x00AC	0x0870      	MOVF       R0, 0
0x00AD	0x00B4      	MOVWF      FARG_Lcd_Cmd_out_char
0x00AE	0x2032      	CALL       _Lcd_Cmd
;__Lib_Lcd.c,197 :: 		
0x00AF	0x1028      	BCF        __Lib_Lcd_cmd_status, BitPos(__Lib_Lcd_cmd_status+0)
;__Lib_Lcd.c,198 :: 		
0x00B0	0x01B2      	CLRF       Lcd_Out_i_L0
;__Lib_Lcd.c,199 :: 		
L_Lcd_Out18:
0x00B1	0x0832      	MOVF       Lcd_Out_i_L0, 0
0x00B2	0x0731      	ADDWF      FARG_Lcd_Out_text, 0
0x00B3	0x0084      	MOVWF      FSR
0x00B4	0x0800      	MOVF       INDF, 0
0x00B5	0x1903      	BTFSC      STATUS, 2
0x00B6	0x28BF      	GOTO       L_Lcd_Out19
;__Lib_Lcd.c,200 :: 		
0x00B7	0x0832      	MOVF       Lcd_Out_i_L0, 0
0x00B8	0x0731      	ADDWF      FARG_Lcd_Out_text, 0
0x00B9	0x0084      	MOVWF      FSR
0x00BA	0x0800      	MOVF       INDF, 0
0x00BB	0x00B3      	MOVWF      FARG_Lcd_Chr_CP_out_char
0x00BC	0x2079      	CALL       _Lcd_Chr_CP
0x00BD	0x0AB2      	INCF       Lcd_Out_i_L0, 1
0x00BE	0x28B1      	GOTO       L_Lcd_Out18
L_Lcd_Out19:
;__Lib_Lcd.c,201 :: 		
0x00BF	0x1428      	BSF        __Lib_Lcd_cmd_status, BitPos(__Lib_Lcd_cmd_status+0)
;__Lib_Lcd.c,202 :: 		
L_end_Lcd_Out:
0x00C0	0x0008      	RETURN
; end of _Lcd_Out
_Lcd_Init:
;__Lib_Lcd.c,84 :: 		
;__Lib_Lcd.c,86 :: 		
0x00C1	0x1683      	BSF        STATUS, 5
0x00C2	0x1303      	BCF        STATUS, 6
0x00C3	0x1287      	BCF        LCD_EN_Direction, BitPos(LCD_EN_Direction+0)
;__Lib_Lcd.c,87 :: 		
0x00C4	0x1207      	BCF        LCD_RS_Direction, BitPos(LCD_RS_Direction+0)
;__Lib_Lcd.c,88 :: 		
0x00C5	0x1007      	BCF        LCD_D4_Direction, BitPos(LCD_D4_Direction+0)
;__Lib_Lcd.c,89 :: 		
0x00C6	0x1087      	BCF        LCD_D5_Direction, BitPos(LCD_D5_Direction+0)
;__Lib_Lcd.c,90 :: 		
0x00C7	0x1107      	BCF        LCD_D6_Direction, BitPos(LCD_D6_Direction+0)
;__Lib_Lcd.c,91 :: 		
0x00C8	0x1187      	BCF        LCD_D7_Direction, BitPos(LCD_D7_Direction+0)
;__Lib_Lcd.c,93 :: 		
0x00C9	0x1283      	BCF        STATUS, 5
0x00CA	0x1287      	BCF        LCD_EN, BitPos(LCD_EN+0)
;__Lib_Lcd.c,94 :: 		
0x00CB	0x1207      	BCF        LCD_RS, BitPos(LCD_RS+0)
;__Lib_Lcd.c,95 :: 		
0x00CC	0x1187      	BCF        LCD_D7, BitPos(LCD_D7+0)
;__Lib_Lcd.c,96 :: 		
0x00CD	0x1107      	BCF        LCD_D6, BitPos(LCD_D6+0)
;__Lib_Lcd.c,97 :: 		
0x00CE	0x1087      	BCF        LCD_D5, BitPos(LCD_D5+0)
;__Lib_Lcd.c,98 :: 		
0x00CF	0x1007      	BCF        LCD_D4, BitPos(LCD_D4+0)
;__Lib_Lcd.c,100 :: 		
0x00D0	0x2025      	CALL       _Delay_5500us
;__Lib_Lcd.c,101 :: 		
0x00D1	0x2025      	CALL       _Delay_5500us
;__Lib_Lcd.c,102 :: 		
0x00D2	0x2025      	CALL       _Delay_5500us
;__Lib_Lcd.c,105 :: 		
0x00D3	0x1487      	BSF        LCD_D5, BitPos(LCD_D5+0)
;__Lib_Lcd.c,106 :: 		
0x00D4	0x1407      	BSF        LCD_D4, BitPos(LCD_D4+0)
;__Lib_Lcd.c,107 :: 		
0x00D5	0x1687      	BSF        LCD_EN, BitPos(LCD_EN+0)
;__Lib_Lcd.c,108 :: 		
0x00D6	0x2022      	CALL       _Delay_1us
;__Lib_Lcd.c,109 :: 		
0x00D7	0x1287      	BCF        LCD_EN, BitPos(LCD_EN+0)
;__Lib_Lcd.c,110 :: 		
0x00D8	0x2025      	CALL       _Delay_5500us
;__Lib_Lcd.c,112 :: 		
0x00D9	0x1687      	BSF        LCD_EN, BitPos(LCD_EN+0)
;__Lib_Lcd.c,113 :: 		
0x00DA	0x2022      	CALL       _Delay_1us
;__Lib_Lcd.c,114 :: 		
0x00DB	0x1287      	BCF        LCD_EN, BitPos(LCD_EN+0)
;__Lib_Lcd.c,115 :: 		
0x00DC	0x2025      	CALL       _Delay_5500us
;__Lib_Lcd.c,117 :: 		
0x00DD	0x1687      	BSF        LCD_EN, BitPos(LCD_EN+0)
;__Lib_Lcd.c,118 :: 		
0x00DE	0x2022      	CALL       _Delay_1us
;__Lib_Lcd.c,119 :: 		
0x00DF	0x1287      	BCF        LCD_EN, BitPos(LCD_EN+0)
;__Lib_Lcd.c,120 :: 		
0x00E0	0x2025      	CALL       _Delay_5500us
;__Lib_Lcd.c,123 :: 		
0x00E1	0x1007      	BCF        LCD_D4, BitPos(LCD_D4+0)
;__Lib_Lcd.c,124 :: 		
0x00E2	0x1687      	BSF        LCD_EN, BitPos(LCD_EN+0)
;__Lib_Lcd.c,125 :: 		
0x00E3	0x2022      	CALL       _Delay_1us
;__Lib_Lcd.c,126 :: 		
0x00E4	0x1287      	BCF        LCD_EN, BitPos(LCD_EN+0)
;__Lib_Lcd.c,127 :: 		
0x00E5	0x2025      	CALL       _Delay_5500us
;__Lib_Lcd.c,130 :: 		
0x00E6	0x1687      	BSF        LCD_EN, BitPos(LCD_EN+0)
;__Lib_Lcd.c,131 :: 		
0x00E7	0x2022      	CALL       _Delay_1us
;__Lib_Lcd.c,132 :: 		
0x00E8	0x1287      	BCF        LCD_EN, BitPos(LCD_EN+0)
;__Lib_Lcd.c,134 :: 		
0x00E9	0x1087      	BCF        LCD_D5, BitPos(LCD_D5+0)
;__Lib_Lcd.c,135 :: 		
0x00EA	0x1587      	BSF        LCD_D7, BitPos(LCD_D7+0)
;__Lib_Lcd.c,136 :: 		
0x00EB	0x1687      	BSF        LCD_EN, BitPos(LCD_EN+0)
;__Lib_Lcd.c,137 :: 		
0x00EC	0x2022      	CALL       _Delay_1us
;__Lib_Lcd.c,138 :: 		
0x00ED	0x1287      	BCF        LCD_EN, BitPos(LCD_EN+0)
;__Lib_Lcd.c,139 :: 		
0x00EE	0x2025      	CALL       _Delay_5500us
;__Lib_Lcd.c,142 :: 		
0x00EF	0x1187      	BCF        LCD_D7, BitPos(LCD_D7+0)
;__Lib_Lcd.c,143 :: 		
0x00F0	0x1407      	BSF        LCD_D4, BitPos(LCD_D4+0)
;__Lib_Lcd.c,144 :: 		
0x00F1	0x1687      	BSF        LCD_EN, BitPos(LCD_EN+0)
;__Lib_Lcd.c,145 :: 		
0x00F2	0x2022      	CALL       _Delay_1us
;__Lib_Lcd.c,146 :: 		
0x00F3	0x1287      	BCF        LCD_EN, BitPos(LCD_EN+0)
;__Lib_Lcd.c,148 :: 		
0x00F4	0x1007      	BCF        LCD_D4, BitPos(LCD_D4+0)
;__Lib_Lcd.c,149 :: 		
0x00F5	0x1687      	BSF        LCD_EN, BitPos(LCD_EN+0)
;__Lib_Lcd.c,150 :: 		
0x00F6	0x2022      	CALL       _Delay_1us
;__Lib_Lcd.c,151 :: 		
0x00F7	0x1287      	BCF        LCD_EN, BitPos(LCD_EN+0)
;__Lib_Lcd.c,152 :: 		
0x00F8	0x2025      	CALL       _Delay_5500us
;__Lib_Lcd.c,155 :: 		
0x00F9	0x1687      	BSF        LCD_EN, BitPos(LCD_EN+0)
;__Lib_Lcd.c,156 :: 		
0x00FA	0x2022      	CALL       _Delay_1us
;__Lib_Lcd.c,157 :: 		
0x00FB	0x1287      	BCF        LCD_EN, BitPos(LCD_EN+0)
;__Lib_Lcd.c,159 :: 		
0x00FC	0x1407      	BSF        LCD_D4, BitPos(LCD_D4+0)
;__Lib_Lcd.c,160 :: 		
0x00FD	0x1687      	BSF        LCD_EN, BitPos(LCD_EN+0)
;__Lib_Lcd.c,161 :: 		
0x00FE	0x2022      	CALL       _Delay_1us
;__Lib_Lcd.c,162 :: 		
0x00FF	0x1287      	BCF        LCD_EN, BitPos(LCD_EN+0)
;__Lib_Lcd.c,163 :: 		
0x0100	0x2025      	CALL       _Delay_5500us
;__Lib_Lcd.c,166 :: 		
0x0101	0x1007      	BCF        LCD_D4, BitPos(LCD_D4+0)
;__Lib_Lcd.c,167 :: 		
0x0102	0x1687      	BSF        LCD_EN, BitPos(LCD_EN+0)
;__Lib_Lcd.c,168 :: 		
0x0103	0x2022      	CALL       _Delay_1us
;__Lib_Lcd.c,169 :: 		
0x0104	0x1287      	BCF        LCD_EN, BitPos(LCD_EN+0)
;__Lib_Lcd.c,171 :: 		
0x0105	0x1587      	BSF        LCD_D7, BitPos(LCD_D7+0)
;__Lib_Lcd.c,172 :: 		
0x0106	0x1507      	BSF        LCD_D6, BitPos(LCD_D6+0)
;__Lib_Lcd.c,173 :: 		
0x0107	0x1487      	BSF        LCD_D5, BitPos(LCD_D5+0)
;__Lib_Lcd.c,174 :: 		
0x0108	0x1407      	BSF        LCD_D4, BitPos(LCD_D4+0)
;__Lib_Lcd.c,175 :: 		
0x0109	0x1687      	BSF        LCD_EN, BitPos(LCD_EN+0)
;__Lib_Lcd.c,176 :: 		
0x010A	0x2022      	CALL       _Delay_1us
;__Lib_Lcd.c,177 :: 		
0x010B	0x1287      	BCF        LCD_EN, BitPos(LCD_EN+0)
;__Lib_Lcd.c,179 :: 		
0x010C	0x2025      	CALL       _Delay_5500us
;__Lib_Lcd.c,181 :: 		
0x010D	0x1428      	BSF        __Lib_Lcd_cmd_status, BitPos(__Lib_Lcd_cmd_status+0)
;__Lib_Lcd.c,182 :: 		
L_end_Lcd_Init:
0x010E	0x0008      	RETURN
; end of _Lcd_Init
___CC2DW:
;__Lib_System.c,24 :: 		
;__Lib_System.c,27 :: 		
_CC2D_Loop1:
;__Lib_System.c,29 :: 		
0x010F	0x2072      	CALL       _____DoICP
0x0110	0x118A      	BCF        PCLATH, 3
0x0111	0x120A      	BCF        PCLATH, 4
;__Lib_System.c,31 :: 		
0x0112	0x0080      	MOVWF      INDF
;__Lib_System.c,32 :: 		
0x0113	0x0A84      	INCF       FSR, 1
;__Lib_System.c,33 :: 		
0x0114	0x0AA9      	INCF       ___DoICPAddr, 1
;__Lib_System.c,35 :: 		
0x0115	0x1903      	BTFSC      STATUS, 2
;__Lib_System.c,36 :: 		
0x0116	0x0AAA      	INCF       ___DoICPAddr+1, 1
;__Lib_System.c,37 :: 		
0x0117	0x03F0      	DECF       R0, 1
;__Lib_System.c,39 :: 		
0x0118	0x1D03      	BTFSS      STATUS, 2
;__Lib_System.c,40 :: 		
0x0119	0x290F      	GOTO       _CC2D_Loop1
;__Lib_System.c,42 :: 		
L_end___CC2DW:
0x011A	0x0008      	RETURN
; end of ___CC2DW
_main:
0x011B	0x306E      	MOVLW      110
0x011C	0x1283      	BCF        STATUS, 5
0x011D	0x1303      	BCF        STATUS, 6
0x011E	0x00A0      	MOVWF      ?lstr1_v3
0x011F	0x3075      	MOVLW      117
0x0120	0x00A1      	MOVWF      33
0x0121	0x3075      	MOVLW      117
0x0122	0x00A2      	MOVWF      34
0x0123	0x01A3      	CLRF       35
0x0124	0x3061      	MOVLW      97
0x0125	0x00A4      	MOVWF      ?lstr2_v3
0x0126	0x306E      	MOVLW      110
0x0127	0x00A5      	MOVWF      37
0x0128	0x3075      	MOVLW      117
0x0129	0x00A6      	MOVWF      38
0x012A	0x01A7      	CLRF       39
;v3.c,30 :: 		void main() {
;v3.c,31 :: 		Lcd_Init();
0x012B	0x20C1      	CALL       _Lcd_Init
;v3.c,33 :: 		Lcd_Cmd(_LCD_CLEAR);
0x012C	0x3001      	MOVLW      1
0x012D	0x00B4      	MOVWF      FARG_Lcd_Cmd_out_char
0x012E	0x2032      	CALL       _Lcd_Cmd
;v3.c,34 :: 		Lcd_Cmd(_LCD_CURSOR_OFF);
0x012F	0x300C      	MOVLW      12
0x0130	0x00B4      	MOVWF      FARG_Lcd_Cmd_out_char
0x0131	0x2032      	CALL       _Lcd_Cmd
;v3.c,35 :: 		Lcd_out(1,6,"nuu");
0x0132	0x3001      	MOVLW      1
0x0133	0x00AF      	MOVWF      FARG_Lcd_Out_row
0x0134	0x3006      	MOVLW      6
0x0135	0x00B0      	MOVWF      FARG_Lcd_Out_column
0x0136	0x3020      	MOVLW      ?lstr1_v3
0x0137	0x00B1      	MOVWF      FARG_Lcd_Out_text
0x0138	0x2081      	CALL       _Lcd_Out
;v3.c,36 :: 		delay_ms(400)  ;
0x0139	0x3005      	MOVLW      5
0x013A	0x00FB      	MOVWF      R11
0x013B	0x300F      	MOVLW      15
0x013C	0x00FC      	MOVWF      R12
0x013D	0x30F1      	MOVLW      241
0x013E	0x00FD      	MOVWF      R13
L_main1:
0x013F	0x0BFD      	DECFSZ     R13, 1
0x0140	0x293F      	GOTO       L_main1
0x0141	0x0BFC      	DECFSZ     R12, 1
0x0142	0x293F      	GOTO       L_main1
0x0143	0x0BFB      	DECFSZ     R11, 1
0x0144	0x293F      	GOTO       L_main1
;v3.c,37 :: 		intcon=0b11100000;
0x0145	0x30E0      	MOVLW      224
0x0146	0x008B      	MOVWF      INTCON
;v3.c,38 :: 		option_reg =0b00000111;
0x0147	0x3007      	MOVLW      7
0x0148	0x1683      	BSF        STATUS, 5
0x0149	0x0081      	MOVWF      OPTION_REG
;v3.c,39 :: 		while(1)
L_main2:
;v3.c,41 :: 		if(a==0)
0x014A	0x3000      	MOVLW      0
0x014B	0x1283      	BCF        STATUS, 5
0x014C	0x062D      	XORWF      _a+1, 0
0x014D	0x1D03      	BTFSS      STATUS, 2
0x014E	0x2951      	GOTO       L__main8
0x014F	0x3000      	MOVLW      0
0x0150	0x062C      	XORWF      _a, 0
L__main8:
0x0151	0x1D03      	BTFSS      STATUS, 2
0x0152	0x295A      	GOTO       L_main4
;v3.c,43 :: 		Lcd_out(1,6,"anu");
0x0153	0x3001      	MOVLW      1
0x0154	0x00AF      	MOVWF      FARG_Lcd_Out_row
0x0155	0x3006      	MOVLW      6
0x0156	0x00B0      	MOVWF      FARG_Lcd_Out_column
0x0157	0x3024      	MOVLW      ?lstr2_v3
0x0158	0x00B1      	MOVWF      FARG_Lcd_Out_text
0x0159	0x2081      	CALL       _Lcd_Out
;v3.c,44 :: 		}
L_main4:
;v3.c,45 :: 		}
0x015A	0x294A      	GOTO       L_main2
;v3.c,51 :: 		}
L_end_main:
0x015B	0x295B      	GOTO       $+0
; end of _main
Symbol List:
//** Routines locations **
//ADDRESS    SIZE    PROCEDURE
//----------------------------------------------
0x0004      [23]    _interrupt
0x001B       [7]    _Delay_50us
0x0022       [3]    _Delay_1us
0x0025      [13]    _Delay_5500us
0x0032      [64]    _Lcd_Cmd
0x0072       [7]    _____DoICP
0x0079       [8]    _Lcd_Chr_CP
0x0081      [64]    _Lcd_Out
0x00C1      [78]    _Lcd_Init
0x010F      [12]    ___CC2DW
0x011B      [65]    _main
//** Variables locations ** 
//ADDRESS    SIZE    VARIABLE
//----------------------------------------------
0x0000       [1]    INDF
0x0001       [1]    TMR0
0x0002       [1]    PCL
0x0003       [1]    STATUS
0x0004       [1]    FSR
0x0005       [1]    PORTA
0x0006       [1]    PORTB
0x0007       [0]    RC5_bit
0x0007       [0]    RC2_bit
0x0007       [0]    RC3_bit
0x0007       [0]    RC4_bit
0x0007       [0]    RC0_bit
0x0007       [0]    LCD_D6
0x0007       [0]    LCD_RS
0x0007       [0]    LCD_EN
0x0007       [0]    LCD_D7
0x0007       [0]    LCD_D5
0x0007       [0]    RC1_bit
0x0007       [1]    PORTC
0x0007       [0]    LCD_D4
0x0008       [1]    PORTD
0x0009       [1]    PORTE
0x000A       [1]    PCLATH
0x000B       [1]    INTCON
0x000C       [1]    PIR1
0x000D       [1]    PIR2
0x0010       [1]    T1CON
0x0012       [1]    T2CON
0x0014       [1]    SSPCON
0x0017       [1]    CCP1CON
0x0018       [1]    RCSTA
0x001D       [1]    CCP2CON
0x001F       [1]    ADCON0
0x0020       [4]    ?lstr1_v3
0x0024       [4]    ?lstr2_v3
0x0028       [0]    __Lib_Lcd_cmd_status
0x0029       [2]    ___DoICPAddr
0x002B       [1]    ___savePCLATH
0x002C       [2]    _a
0x002E       [1]    ___saveSTATUS
0x002F       [1]    FARG_Lcd_Out_row
0x0030       [1]    FARG_Lcd_Out_column
0x0031       [1]    FARG_Lcd_Out_text
0x0032       [1]    Lcd_Out_i_L0
0x0033       [1]    FARG_Lcd_Chr_CP_out_char
0x0034       [1]    FARG_Lcd_Cmd_out_char
0x0070       [1]    R0
0x0071       [1]    R1
0x0072       [1]    R2
0x0073       [1]    R3
0x0074       [1]    R4
0x0075       [1]    R5
0x0076       [1]    R6
0x0077       [1]    R7
0x0078       [1]    R8
0x0079       [1]    R9
0x007A       [1]    R10
0x007B       [1]    R11
0x007C       [1]    R12
0x007D       [1]    R13
0x007E       [1]    R14
0x007F       [1]    R15
0x0081       [1]    OPTION_REG
0x0085       [1]    TRISA
0x0086       [1]    TRISB
0x0087       [0]    LCD_D4_Direction
0x0087       [0]    LCD_D5_Direction
0x0087       [0]    LCD_RS_Direction
0x0087       [1]    TRISC
0x0087       [0]    LCD_EN_Direction
0x0087       [0]    LCD_D6_Direction
0x0087       [0]    LCD_D7_Direction
0x0087       [0]    TRISC5_bit
0x0087       [0]    TRISC4_bit
0x0087       [0]    TRISC1_bit
0x0087       [0]    TRISC0_bit
0x0087       [0]    TRISC2_bit
0x0087       [0]    TRISC3_bit
0x0088       [1]    TRISD
0x0089       [1]    TRISE
0x008C       [1]    PIE1
0x008D       [1]    PIE2
0x008E       [1]    PCON
0x008F       [1]    OSCCON
0x0090       [1]    OSCTUNE
0x0091       [1]    ANSEL
0x0094       [1]    SSPSTAT
0x0095       [1]    WPU
0x0096       [1]    IOC
0x0097       [1]    CMCON1
0x0098       [1]    TXSTA
0x009C       [1]    CMCON0
0x009D       [1]    VRCON
0x009F       [1]    ADCON1
0x0105       [1]    WDTCON
0x0107       [1]    LCDCON
0x0108       [1]    LCDPS
0x0109       [1]    LVDCON
0x010C       [1]    EEDATA
0x010D       [1]    EEADR
0x010E       [1]    EEDATH
0x010F       [1]    EEADRH
0x0110       [1]    LCDDATA0
0x0111       [1]    LCDDATA1
0x0112       [1]    LCDDATA2
0x0113       [1]    LCDDATA3
0x0114       [1]    LCDDATA4
0x0115       [1]    LCDDATA5
0x0116       [1]    LCDDATA6
0x0117       [1]    LCDDATA7
0x0118       [1]    LCDDATA8
0x0119       [1]    LCDDATA9
0x011A       [1]    LCDDATA10
0x011B       [1]    LCDDATA11
0x011C       [1]    LCDSE0
0x011D       [1]    LCDSE1
0x011E       [1]    LCDSE2
0x018C       [1]    EECON1
//** Label List: ** 
//----------------------------------------------
  L_end_P16F917___?ag
  P16F917____?ag
  L_interrupt0
  L_main1
  L_main2
  L_main3
  L_main4
  L_end_interrupt
  _interrupt
  L__interrupt6
  L_end_main
  _main
  L__main8
  L_Delay_10us0
  L_Delay_22us1
  L_Delay_50us2
  L_Delay_80us3
  L_Delay_500us4
  L_Delay_5500us5
  L_Delay_1ms6
  L_Delay_5ms7
  L_Delay_8ms8
  L_Delay_10ms9
  L_Delay_100ms10
  L_Delay_1sec11
  L_boot16_Delay_5ms12
  L_Delay_Cyc13
  L_Delay_Cyc14
  L_VDelay_ms15
  L_VDelay_ms16
  L_VDelay_ms17
  L_VDelay_Advanced_ms18
  L_VDelay_Advanced_ms19
  L_VDelay_Advanced_ms20
  L_end_Get_Fosc_kHz
  _Get_Fosc_kHz
  L_end_Delay_1us
  _Delay_1us
  L_end_Delay_10us
  _Delay_10us
  L_end_Delay_22us
  _Delay_22us
  L_end_Delay_50us
  _Delay_50us
  L_end_Delay_80us
  _Delay_80us
  L_end_Delay_500us
  _Delay_500us
  L_end_Delay_5500us
  _Delay_5500us
  L_end_Delay_1ms
  _Delay_1ms
  L_end_Delay_5ms
  _Delay_5ms
  L_end_Delay_8ms
  _Delay_8ms
  L_end_Delay_10ms
  _Delay_10ms
  L_end_Delay_100ms
  _Delay_100ms
  L_end_Delay_1sec
  _Delay_1sec
  L_end_boot16_Delay_5ms
  _boot16_Delay_5ms
  L_end_Delay_Cyc
  _Delay_Cyc
  L_end_VDelay_ms
  _VDelay_ms
  L__VDelay_ms38
  L__VDelay_ms39
  L__VDelay_ms40
  L_end_VDelay_Advanced_ms
  _VDelay_Advanced_ms
  L__VDelay_Advanced_ms42
  L__VDelay_Advanced_ms43
  L__VDelay_Advanced_ms44
  L_Lcd_Cmd0
  L_Lcd_Cmd1
  L_Lcd_Out_CP2
  L_Lcd_Out_CP3
  L_Lcd_Chr4
  L_Lcd_Chr5
  L_Lcd_Chr6
  L_Lcd_Chr7
  L_Lcd_Chr8
  L_Lcd_Chr9
  L_Lcd_Chr10
  L_Lcd_Out11
  L_Lcd_Out12
  L_Lcd_Out13
  L_Lcd_Out14
  L_Lcd_Out15
  L_Lcd_Out16
  L_Lcd_Out17
  L_Lcd_Out18
  L_Lcd_Out19
  L_end_Lcd_Cmd
  _Lcd_Cmd
  L__Lcd_Cmd21
  L__Lcd_Cmd22
  L__Lcd_Cmd23
  L__Lcd_Cmd24
  L__Lcd_Cmd25
  L__Lcd_Cmd26
  L__Lcd_Cmd27
  L__Lcd_Cmd28
  L__Lcd_Cmd29
  L__Lcd_Cmd30
  L__Lcd_Cmd31
  L__Lcd_Cmd32
  L__Lcd_Cmd33
  L__Lcd_Cmd34
  L__Lcd_Cmd35
  L__Lcd_Cmd36
  L__Lcd_Cmd37
  L__Lcd_Cmd38
  L__Lcd_Cmd39
  L__Lcd_Cmd40
  L_end_Lcd_Chr_CP
  _Lcd_Chr_CP
  L_end_Lcd_Out_CP
  _Lcd_Out_CP
  L_end_Lcd_Chr
  _Lcd_Chr
  L_end_Lcd_Init
  _Lcd_Init
  L_end_Lcd_Out
  _Lcd_Out
  _CC2D_Loop1
  L_end_____DoICP
  _____DoICP
  L_end_____DoIFC
  _____DoIFC
  L_end___CC2DW
  ___CC2DW
  L_end_Swap
  _Swap
  L_interrupt0
  L_main1
  L_main2
  L_main3
  L_main4
  L_end_interrupt
  _interrupt
  L__interrupt6
  L_end_main
  _main
  L__main8
