:0A000000182800000000000000288E
:0E000A008312031321088A00200882000800D8
:1000180005208A110A128000840AA00A0319A10A7D
:08002800F003031D0C28080081
:100030008316031386010130F1000030F200803096
:100040007206F00080307002031D28288130710292
:1000500003184C2803137108831286000630FB0036
:100060001330FC00AD30FD00FD0B3428FC0B3428B0
:10007000FB0B34280000000086010630FB00133023
:10008000FC00AD30FD00FD0B4328FC0B4328FB0BAF
:0C0090004328000000001F281B284D28FA
:02400E00F21F9F
:00000001FF
