MIN=0	-10	-10	0	
MAX=10	10	10	5	
SCALE=5	5	5	1	
DEC=1	2	2	3	
DEF="Time" t / s	"Voltage" U_A1 / V	"Voltage" U_B1 / V	"Frequency" f / Hz	
0	-0.005	0.455	NAN	
0.1	-0.005	0.46	NAN	
0.2	-0.005	0.46	NAN	
0.3	-0.005	0.46	NAN	
0.4	-0.005	0.465	NAN	
0.501	-0.005	0.47	NAN	
0.6	-0.005	0.475	NAN	
0.714	-0.005	0.475	NAN	
0.8	-0.005	0.475	NAN	
0.9	-0.005	0.475	NAN	
1	-0.005	0.47	NAN	
1.121	-0.005	0.47	NAN	
1.2	-0.005	0.465	NAN	
1.309	-0.005	0.465	NAN	
1.4	-0.005	0.46	NAN	
1.527	5	0.465	NAN	
1.6	5	0.465	NAN	
1.7	5	0.46	NAN	
1.8	5	0.46	NAN	
1.9	5	0.48	NAN	
2.015	5	1.36	NAN	
2.121	5	4.18	NAN	
2.2	5	4.23	NAN	
2.3	5	4.305	NAN	
2.4	5	4.37	NAN	
2.5	5	4.46	NAN	
2.6	5	4.48	NAN	
2.7	5	4.53	NAN	
2.8	5	4.575	NAN	
2.902	5	4.615	NAN	
3	5	4.65	NAN	
3.121	5	4.7	NAN	
3.2	5	4.715	NAN	
3.3	5.005	4.745	NAN	
3.4	5	4.77	NAN	
3.5	5	4.79	NAN	
3.6	5	4.81	NAN	
3.714	5	4.835	NAN	
3.8	5	4.845	NAN	
3.98	5	4.875	NAN	
4	5	4.875	NAN	
4.121	5	4.89	NAN	
4.2	5	4.9	NAN	
4.3	5	4.91	NAN	
4.4	5	4.92	NAN	
4.5	5	4.93	NAN	
4.6	5	4.945	NAN	
4.714	5	4.945	NAN	
4.8	5	4.95	NAN	
4.992	5	4.96	NAN	
5.004	5	4.96	NAN	
5.105	5	4.97	NAN	
5.2	5	4.97	NAN	
5.3	5	4.975	NAN	
5.4	5	4.98	NAN	
5.512	5	4.98	NAN	
5.6	5	4.985	NAN	
5.7	5	4.985	NAN	
5.8	5	4.99	NAN	
5.998	5	4.995	NAN	
6.009	5	4.995	NAN	
6.105	5	4.995	NAN	
6.2	5	5	NAN	
6.3	5	5	NAN	
6.4	5	5	NAN	
6.5	5	5.005	NAN	
6.621	5	5.005	NAN	
6.7	5	5.005	NAN	
6.8	5	5.005	NAN	
6.9	5	5.005	NAN	
7	5	5.005	NAN	
7.1	5	5.01	NAN	
7.214	5	5.01	NAN	
7.3	5	5.01	NAN	
7.494	5	5.01	NAN	
7.505	5	5.01	NAN	
7.6	5	5.01	NAN	
7.7	5	5.01	NAN	
7.8	-0.005	1.035	NAN	
7.9	-0.005	0.58	NAN	
8.012	-0.005	0.495	NAN	
8.1	-0.005	0.485	NAN	
8.2	-0.005	0.475	NAN	
8.3	-0.005	0.47	NAN	
8.4	-0.005	0.475	NAN	
8.5	-0.005	0.48	NAN	
8.621	-0.005	0.485	NAN	
8.7	-0.005	0.48	NAN	
8.8	-0.005	0.485	NAN	
8.9	-0.005	0.485	NAN	
9	-0.005	0.49	NAN	
9.1	-0.005	0.485	NAN	
