:0A000000182800000000000000288E
:0E000A008312031321088A00200882000800D8
:1000180005208A110A128000840AA00A0319A10A7D
:08002800F003031D0C28080081
:1000300083120313A201A30180302306F000803055
:100040007002031D25280A30220203182B28A20A59
:080050000319A30A1C282B2848
:02400E00F21F9F
:00000001FF
