;  LST file generated by mikroListExporter - v.2.0 
; Date/Time: 5/27/2012 12:47:46 PM
;----------------------------------------------

;Address Opcode 	ASM
0x0000	0x2816      	GOTO       22
_____DoICP:
;__Lib_System.c,6 :: 		
;__Lib_System.c,9 :: 		
0x0003	0x1283      	BCF        STATUS, 5
0x0004	0x1303      	BCF        STATUS, 6
0x0005	0x0821      	MOVF       ___DoICPAddr+1, 0
0x0006	0x008A      	MOVWF      PCLATH
;__Lib_System.c,10 :: 		
0x0007	0x0820      	MOVF       ___DoICPAddr, 0
0x0008	0x0082      	MOVWF      PCL
;__Lib_System.c,12 :: 		
0x0009	0x0008      	RETURN
; end of _____DoICP
___CC2DW:
;__Lib_System.c,24 :: 		
;__Lib_System.c,27 :: 		
_CC2D_Loop1:
;__Lib_System.c,29 :: 		
0x000A	0x2003      	CALL       _____DoICP
0x000B	0x118A      	BCF        PCLATH, 3
0x000C	0x120A      	BCF        PCLATH, 4
;__Lib_System.c,31 :: 		
0x000D	0x0080      	MOVWF      INDF
;__Lib_System.c,32 :: 		
0x000E	0x0A84      	INCF       FSR, 1
;__Lib_System.c,33 :: 		
0x000F	0x0AA0      	INCF       ___DoICPAddr, 1
;__Lib_System.c,35 :: 		
0x0010	0x1903      	BTFSC      STATUS, 2
;__Lib_System.c,36 :: 		
0x0011	0x0AA1      	INCF       ___DoICPAddr+1, 1
;__Lib_System.c,37 :: 		
0x0012	0x03F0      	DECF       R0, 1
;__Lib_System.c,39 :: 		
0x0013	0x1D03      	BTFSS      STATUS, 2
;__Lib_System.c,40 :: 		
0x0014	0x280A      	GOTO       _CC2D_Loop1
;__Lib_System.c,42 :: 		
0x0015	0x0008      	RETURN
; end of ___CC2DW
_main:
;Lab1.c,1 :: 		void main() {
;Lab1.c,3 :: 		}
0x0016	0x2816      	GOTO       $+0
; end of _main
Symbol List:
//** Routines locations **
//ADDRESS    SIZE    PROCEDURE
//----------------------------------------------
0x0003       [7]    _____DoICP
0x000A      [12]    ___CC2DW
0x0016       [1]    _main
//** Variables locations ** 
//ADDRESS    SIZE    VARIABLE
//----------------------------------------------
0x0000       [1]    INDF
0x0001       [1]    TMR0
0x0002       [1]    PCL
0x0003       [0]    C_bit
0x0003       [0]    RP0_bit
0x0003       [0]    IRP_bit
0x0003       [0]    RP1_bit
0x0003       [1]    STATUS
0x0003       [0]    Z_bit
0x0003       [0]    NOT_PD_bit
0x0003       [0]    DC_bit
0x0003       [0]    NOT_TO_bit
0x0004       [1]    FSR
0x0004       [1]    FSRPTR
0x0005       [0]    RA2_bit
0x0005       [0]    RA1_bit
0x0005       [0]    RA5_bit
0x0005       [0]    RA6_bit
0x0005       [0]    RA4_bit
0x0005       [0]    RA7_bit
0x0005       [0]    RA3_bit
0x0005       [0]    RA0_bit
0x0005       [1]    PORTA
0x0006       [0]    RB6_bit
0x0006       [0]    RB1_bit
0x0006       [0]    RB5_bit
0x0006       [0]    RB2_bit
0x0006       [0]    RB3_bit
0x0006       [0]    RB4_bit
0x0006       [0]    RB0_bit
0x0006       [0]    RB7_bit
0x0006       [1]    PORTB
0x0007       [0]    RC6_bit
0x0007       [0]    RC5_bit
0x0007       [1]    PORTC
0x0007       [0]    RC7_bit
0x0007       [0]    RC1_bit
0x0007       [0]    RC0_bit
0x0007       [0]    RC2_bit
0x0007       [0]    RC4_bit
0x0007       [0]    RC3_bit
0x0008       [0]    RD1_bit
0x0008       [0]    RD6_bit
0x0008       [0]    RD2_bit
0x0008       [0]    RD7_bit
0x0008       [0]    RD0_bit
0x0008       [1]    PORTD
0x0008       [0]    RD5_bit
0x0008       [0]    RD4_bit
0x0008       [0]    RD3_bit
0x0009       [0]    RE1_bit
0x0009       [0]    RE0_bit
0x0009       [0]    RE3_bit
0x0009       [0]    RE2_bit
0x0009       [1]    PORTE
0x000A       [1]    PCLATH
0x000B       [0]    T0IE_bit
0x000B       [0]    T0IF_bit
0x000B       [0]    INTE_bit
0x000B       [0]    PEIE_bit
0x000B       [0]    INTF_bit
0x000B       [0]    GIE_bit
0x000B       [0]    RBIE_bit
0x000B       [0]    TMR0IF_bit
0x000B       [0]    TMR0IE_bit
0x000B       [1]    INTCON
0x000B       [0]    RBIF_bit
0x000C       [0]    TMR2IF_bit
0x000C       [0]    TMR1IF_bit
0x000C       [0]    ADIF_bit
0x000C       [0]    CCP1IF_bit
0x000C       [0]    TXIF_bit
0x000C       [1]    PIR1
0x000C       [0]    RCIF_bit
0x000C       [0]    EEIF_bit
0x000C       [0]    SSPIF_bit
0x000D       [0]    CCP2IF_bit
0x000D       [1]    PIR2
0x000D       [0]    LVDIF_bit
0x000D       [0]    OSFIF_bit
0x000D       [0]    C1IF_bit
0x000D       [0]    LCDIF_bit
0x000D       [0]    C2IF_bit
0x000E       [1]    TMR1L
0x000F       [1]    TMR1H
0x0010       [0]    NOT_T1SYNC_bit
0x0010       [0]    T1GINV_bit
0x0010       [0]    T1INSYNC_bit
0x0010       [0]    T1GE_bit
0x0010       [0]    T1CKPS1_bit
0x0010       [1]    T1CON
0x0010       [0]    T1CKPS0_bit
0x0010       [0]    T1OSCEN_bit
0x0010       [0]    TMR1ON_bit
0x0010       [0]    TMR1CS_bit
0x0010       [0]    T1SYNC_bit
0x0011       [1]    TMR2
0x0012       [0]    TOUTPS0_bit
0x0012       [0]    TMR2ON_bit
0x0012       [0]    TOUTPS1_bit
0x0012       [0]    TOUTPS3_bit
0x0012       [0]    TOUTPS2_bit
0x0012       [1]    T2CON
0x0012       [0]    T2CKPS1_bit
0x0012       [0]    T2CKPS0_bit
0x0013       [1]    SSPBUF
0x0014       [0]    SSPM0_bit
0x0014       [0]    SSPM2_bit
0x0014       [0]    SSPM1_bit
0x0014       [0]    CKP_bit
0x0014       [1]    SSPCON
0x0014       [0]    WCOL_bit
0x0014       [0]    SSPEN_bit
0x0014       [0]    SSPOV_bit
0x0014       [0]    SSPM3_bit
0x0015       [1]    CCPR1L
0x0015       [2]    CCPR1
0x0016       [1]    CCPR1H
0x0017       [0]    CCP1M2_bit
0x0017       [0]    CCP1M3_bit
0x0017       [1]    CCP1CON
0x0017       [0]    CCP1M1_bit
0x0017       [0]    CCP1M0_bit
0x0017       [0]    CCP1Y_bit
0x0017       [0]    CCP1X_bit
0x0018       [0]    RX9D_bit
0x0018       [0]    RX9_bit
0x0018       [0]    FERR_bit
0x0018       [0]    RCD8_bit
0x0018       [0]    RC9_bit
0x0018       [0]    RC8_9_bit
0x0018       [1]    RCSTA
0x0018       [0]    CREN_bit
0x0018       [0]    NOT_RC8_bit
0x0018       [0]    ADDEN_bit
0x0018       [0]    OERR_bit
0x0018       [0]    SREN_bit
0x0018       [0]    SPEN_bit
0x0019       [1]    TXREG
0x001A       [1]    RCREG
0x001B       [1]    CCPR2L
0x001C       [1]    CCPR2H
0x001D       [0]    CCP2Y_bit
0x001D       [0]    CCP2M0_bit
0x001D       [1]    CCP2CON
0x001D       [0]    CCP2M1_bit
0x001D       [0]    CCP2M3_bit
0x001D       [0]    CCP2X_bit
0x001D       [0]    CCP2M2_bit
0x001E       [1]    ADRESH
0x001F       [0]    GO_bit
0x001F       [0]    GO_DONE_bit
0x001F       [0]    NOT_DONE_bit
0x001F       [0]    ADON_bit
0x001F       [0]    VCFG1_bit
0x001F       [1]    ADCON0
0x001F       [0]    VCFG0_bit
0x001F       [0]    CHS1_bit
0x001F       [0]    CHS0_bit
0x001F       [0]    CHS2_bit
0x001F       [0]    ADFM_bit
0x0020       [2]    ___DoICPAddr
0x0070       [1]    R0
0x0071       [1]    R1
0x0072       [1]    R2
0x0073       [1]    R3
0x0074       [1]    R4
0x0075       [1]    R5
0x0076       [1]    R6
0x0077       [1]    R7
0x0078       [1]    R8
0x0079       [1]    R9
0x007A       [1]    R10
0x007B       [1]    R11
0x007C       [1]    R12
0x007D       [1]    R13
0x007E       [1]    R14
0x007F       [1]    R15
0x0081       [0]    T0SE_bit
0x0081       [1]    OPTION_REG
0x0081       [0]    INTEDG_bit
0x0081       [0]    NOT_RBPU_bit
0x0081       [0]    T0CS_bit
0x0081       [0]    PS2_bit
0x0081       [0]    PS1_bit
0x0081       [0]    PS0_bit
0x0081       [0]    PSA_bit
0x0085       [0]    TRISA5_bit
0x0085       [0]    TRISA6_bit
0x0085       [0]    TRISA4_bit
0x0085       [1]    TRISA
0x0085       [0]    TRISA2_bit
0x0085       [0]    TRISA7_bit
0x0085       [0]    TRISA1_bit
0x0085       [0]    TRISA0_bit
0x0085       [0]    TRISA3_bit
0x0086       [1]    TRISB
0x0086       [0]    TRISB4_bit
0x0086       [0]    TRISB5_bit
0x0086       [0]    TRISB6_bit
0x0086       [0]    TRISB0_bit
0x0086       [0]    TRISB7_bit
0x0086       [0]    TRISB3_bit
0x0086       [0]    TRISB2_bit
0x0086       [0]    TRISB1_bit
0x0087       [0]    TRISC1_bit
0x0087       [0]    TRISC3_bit
0x0087       [1]    TRISC
0x0087       [0]    TRISC6_bit
0x0087       [0]    TRISC5_bit
0x0087       [0]    TRISC4_bit
0x0087       [0]    TRISC2_bit
0x0087       [0]    TRISC7_bit
0x0087       [0]    TRISC0_bit
0x0088       [1]    TRISD
0x0088       [0]    TRISD0_bit
0x0088       [0]    TRISD4_bit
0x0088       [0]    TRISD3_bit
0x0088       [0]    TRISD1_bit
0x0088       [0]    TRISD2_bit
0x0088       [0]    TRISD7_bit
0x0088       [0]    TRISD6_bit
0x0088       [0]    TRISD5_bit
0x0089       [0]    TRISE3_bit
0x0089       [1]    TRISE
0x0089       [0]    TRISE2_bit
0x0089       [0]    TRISE1_bit
0x0089       [0]    TRISE0_bit
0x008C       [0]    RCIE_bit
0x008C       [0]    TMR1IE_bit
0x008C       [0]    TMR2IE_bit
0x008C       [0]    SSPIE_bit
0x008C       [1]    PIE1
0x008C       [0]    TXIE_bit
0x008C       [0]    CCP1IE_bit
0x008C       [0]    ADIE_bit
0x008C       [0]    EEIE_bit
0x008D       [0]    C2IE_bit
0x008D       [0]    CCP2IE_bit
0x008D       [0]    OSFIE_bit
0x008D       [1]    PIE2
0x008D       [0]    LVDIE_bit
0x008D       [0]    C1IE_bit
0x008D       [0]    LCDIE_bit
0x008E       [0]    NOT_POR_bit
0x008E       [0]    SBOREN_bit
0x008E       [1]    PCON
0x008E       [0]    NOT_BO_bit
0x008E       [0]    NOT_BOR_bit
0x008F       [0]    HTS_bit
0x008F       [0]    OSTS_bit
0x008F       [0]    SCS_bit
0x008F       [0]    LTS_bit
0x008F       [0]    IRCF2_bit
0x008F       [0]    IRCF0_bit
0x008F       [0]    IRCF1_bit
0x008F       [1]    OSCCON
0x0090       [0]    TUN2_bit
0x0090       [0]    TUN0_bit
0x0090       [1]    OSCTUNE
0x0090       [0]    TUN3_bit
0x0090       [0]    TUN1_bit
0x0090       [0]    TUN4_bit
0x0091       [0]    ANS1_bit
0x0091       [0]    ANS7_bit
0x0091       [0]    AN2_bit
0x0091       [0]    AN3_bit
0x0091       [0]    AN7_bit
0x0091       [0]    ANS5_bit
0x0091       [0]    ANS3_bit
0x0091       [0]    AN6_bit
0x0091       [0]    ANS2_bit
0x0091       [0]    AN4_bit
0x0091       [0]    AN5_bit
0x0091       [0]    AN0_bit
0x0091       [0]    ANS0_bit
0x0091       [0]    ANS4_bit
0x0091       [1]    ANSEL
0x0091       [0]    AN1_bit
0x0091       [0]    ANS6_bit
0x0092       [1]    PR2
0x0093       [1]    SSPADD
0x0094       [0]    P_bit
0x0094       [0]    I2C_READ_bit
0x0094       [0]    NOT_W_bit
0x0094       [0]    I2C_DATA_bit
0x0094       [0]    I2C_START__bit
0x0094       [0]    I2C_STOP__bit
0x0094       [0]    NOT_ADDRESS_bit
0x0094       [0]    NOT_A_bit
0x0094       [0]    NOT_WRITE_bit
0x0094       [0]    UA_bit
0x0094       [0]    BF_bit
0x0094       [0]    SMP_bit
0x0094       [1]    SSPSTAT
0x0094       [0]    DATA_ADDRESS_bit
0x0094       [0]    CKE_bit
0x0094       [0]    S_bit
0x0094       [0]    D_bit
0x0094       [0]    D_A_bit
0x0094       [0]    READ_WRITE_bit
0x0094       [0]    R_W_bit
0x0094       [0]    R_bit
0x0095       [1]    WPUB
0x0095       [0]    WPUB7_bit
0x0095       [1]    WPU
0x0095       [0]    WPUB0_bit
0x0095       [0]    WPUB1_bit
0x0095       [0]    WPUB2_bit
0x0095       [0]    WPUB3_bit
0x0095       [0]    WPUB4_bit
0x0095       [0]    WPUB5_bit
0x0095       [0]    WPUB6_bit
0x0096       [0]    IOCB7_bit
0x0096       [0]    IOCB5_bit
0x0096       [1]    IOC
0x0096       [1]    IOCB
0x0096       [0]    IOCB4_bit
0x0096       [0]    IOCB6_bit
0x0097       [0]    C2SYNC_bit
0x0097       [1]    CMCON1
0x0097       [0]    T1GSS_bit
0x0098       [0]    TXEN_bit
0x0098       [0]    CSRC_bit
0x0098       [0]    BRGH_bit
0x0098       [1]    TXSTA
0x0098       [0]    TX8_9_bit
0x0098       [0]    NOT_TX8_bit
0x0098       [0]    SYNC_bit
0x0098       [0]    TRMT_bit
0x0098       [0]    TXD8_bit
0x0098       [0]    TX9D_bit
0x0098       [0]    TX9_bit
0x0099       [1]    SPBRG
0x009C       [0]    C1OUT_bit
0x009C       [0]    C2OUT_bit
0x009C       [0]    CM2_bit
0x009C       [0]    CIS_bit
0x009C       [1]    CMCON0
0x009C       [0]    C1INV_bit
0x009C       [0]    CM0_bit
0x009C       [0]    CM1_bit
0x009C       [0]    C2INV_bit
0x009D       [0]    VRR_bit
0x009D       [0]    VREN_bit
0x009D       [0]    VR0_bit
0x009D       [0]    VR2_bit
0x009D       [0]    VR1_bit
0x009D       [1]    VRCON
0x009D       [0]    VR3_bit
0x009E       [1]    ADRESL
0x009F       [0]    ADCS1_bit
0x009F       [0]    ADCS0_bit
0x009F       [1]    ADCON1
0x009F       [0]    ADCS2_bit
0x0105       [0]    SWDTE_bit
0x0105       [0]    WDTPS3_bit
0x0105       [1]    WDTCON
0x0105       [0]    SWDTEN_bit
0x0105       [0]    WDTPS0_bit
0x0105       [0]    WDTPS2_bit
0x0105       [0]    WDTPS1_bit
0x0107       [0]    LCDEN_bit
0x0107       [0]    SLPEN_bit
0x0107       [0]    CS0_bit
0x0107       [0]    CS1_bit
0x0107       [0]    LMUX1_bit
0x0107       [0]    VLCDEN_bit
0x0107       [0]    LMUX0_bit
0x0107       [0]    WERR_bit
0x0107       [1]    LCDCON
0x0108       [0]    WA_bit
0x0108       [0]    WFT_bit
0x0108       [0]    BIASMD_bit
0x0108       [0]    LP1_bit
0x0108       [0]    LP3_bit
0x0108       [0]    LP2_bit
0x0108       [0]    LP0_bit
0x0108       [0]    LCDA_bit
0x0108       [1]    LCDPS
0x0109       [0]    LVDL1_bit
0x0109       [0]    LVDL0_bit
0x0109       [0]    LVDL2_bit
0x0109       [1]    LVDCON
0x0109       [0]    LVDEN_bit
0x0109       [0]    IRVST_bit
0x010C       [1]    EEDATA
0x010C       [1]    EEDATL
0x010D       [0]    EEADRL2_bit
0x010D       [0]    EEADRL1_bit
0x010D       [0]    EEADRL5_bit
0x010D       [0]    EEADRL4_bit
0x010D       [0]    EEADRL3_bit
0x010D       [1]    EEADRL
0x010D       [1]    EEADR
0x010D       [0]    EEADRL7_bit
0x010D       [0]    EEADRL0_bit
0x010D       [0]    EEADRL6_bit
0x010E       [1]    EEDATH
0x010F       [0]    EEADRH1_bit
0x010F       [0]    EEADRH0_bit
0x010F       [1]    EEADRH
0x010F       [0]    EEADRH4_bit
0x010F       [0]    EEADRH3_bit
0x010F       [0]    EEADRH2_bit
0x0110       [0]    SEG3COM0_bit
0x0110       [0]    S6C0_bit
0x0110       [0]    SEG1COM0_bit
0x0110       [0]    SEG6COM0_bit
0x0110       [0]    S5C0_bit
0x0110       [0]    SEG2COM0_bit
0x0110       [0]    S1C0_bit
0x0110       [0]    SEG0COM0_bit
0x0110       [0]    SEG4COM0_bit
0x0110       [0]    S0C0_bit
0x0110       [1]    LCDDATA0
0x0110       [0]    S7C0_bit
0x0110       [0]    SEG7COM0_bit
0x0110       [0]    S4C0_bit
0x0110       [0]    S2C0_bit
0x0110       [0]    S3C0_bit
0x0110       [0]    SEG5COM0_bit
0x0111       [0]    SEG9COM0_bit
0x0111       [0]    SEG15COM0_bit
0x0111       [0]    SEG10COM0_bit
0x0111       [0]    S13C0_bit
0x0111       [0]    S10C0_bit
0x0111       [0]    S15C0_bit
0x0111       [0]    SEG8COM0_bit
0x0111       [0]    S11C0_bit
0x0111       [0]    SEG14COM0_bit
0x0111       [0]    S8C0_bit
0x0111       [1]    LCDDATA1
0x0111       [0]    S9C0_bit
0x0111       [0]    SEG11COM0_bit
0x0111       [0]    S14C0_bit
0x0111       [0]    SEG12COM0_bit
0x0111       [0]    S12C0_bit
0x0111       [0]    SEG13COM0_bit
0x0112       [1]    LCDDATA2
0x0112       [0]    SEG22COM0_bit
0x0112       [0]    S19C0_bit
0x0112       [0]    SEG18COM0_bit
0x0112       [0]    S23C0_bit
0x0112       [0]    SEG19COM0_bit
0x0112       [0]    SEG17COM0_bit
0x0112       [0]    S16C0_bit
0x0112       [0]    S21C0_bit
0x0112       [0]    SEG20COM0_bit
0x0112       [0]    S17C0_bit
0x0112       [0]    S20C0_bit
0x0112       [0]    SEG16COM0_bit
0x0112       [0]    S22C0_bit
0x0112       [0]    SEG21COM0_bit
0x0112       [0]    S18C0_bit
0x0112       [0]    SEG23COM0_bit
0x0113       [1]    LCDDATA3
0x0113       [0]    SEG6COM1_bit
0x0113       [0]    S0C1_bit
0x0113       [0]    SEG5COM1_bit
0x0113       [0]    SEG7COM1_bit
0x0113       [0]    SEG2COM1_bit
0x0113       [0]    S5C1_bit
0x0113       [0]    S1C1_bit
0x0113       [0]    S2C1_bit
0x0113       [0]    S3C1_bit
0x0113       [0]    S4C1_bit
0x0113       [0]    S6C1_bit
0x0113       [0]    SEG0COM1_bit
0x0113       [0]    SEG4COM1_bit
0x0113       [0]    S7C1_bit
0x0113       [0]    SEG3COM1_bit
0x0113       [0]    SEG1COM1_bit
0x0114       [0]    S8C1_bit
0x0114       [0]    S12C1_bit
0x0114       [0]    SEG12COM1_bit
0x0114       [0]    S13C1_bit
0x0114       [0]    SEG8COM1_bit
0x0114       [0]    SEG10COM1_bit
0x0114       [0]    S11C1_bit
0x0114       [0]    SEG11COM1_bit
0x0114       [0]    SEG9COM1_bit
0x0114       [0]    SEG15COM1_bit
0x0114       [0]    S15C1_bit
0x0114       [0]    S9C1_bit
0x0114       [0]    SEG14COM1_bit
0x0114       [0]    S10C1_bit
0x0114       [0]    SEG13COM1_bit
0x0114       [1]    LCDDATA4
0x0114       [0]    S14C1_bit
0x0115       [0]    SEG23COM1_bit
0x0115       [0]    S17C1_bit
0x0115       [0]    S23C1_bit
0x0115       [0]    SEG17COM1_bit
0x0115       [0]    SEG16COM1_bit
0x0115       [0]    S16C1_bit
0x0115       [0]    SEG19COM1_bit
0x0115       [0]    SEG18COM1_bit
0x0115       [0]    S22C1_bit
0x0115       [0]    S20C1_bit
0x0115       [0]    SEG20COM1_bit
0x0115       [1]    LCDDATA5
0x0115       [0]    S19C1_bit
0x0115       [0]    S21C1_bit
0x0115       [0]    SEG22COM1_bit
0x0115       [0]    S18C1_bit
0x0115       [0]    SEG21COM1_bit
0x0116       [0]    SEG4COM2_bit
0x0116       [0]    S2C2_bit
0x0116       [0]    SEG5COM2_bit
0x0116       [0]    SEG6COM2_bit
0x0116       [0]    S3C2_bit
0x0116       [0]    S4C2_bit
0x0116       [0]    S0C2_bit
0x0116       [0]    SEG7COM2_bit
0x0116       [0]    SEG0COM2_bit
0x0116       [0]    SEG1COM2_bit
0x0116       [0]    S1C2_bit
0x0116       [0]    SEG3COM2_bit
0x0116       [0]    S6C2_bit
0x0116       [1]    LCDDATA6
0x0116       [0]    SEG2COM2_bit
0x0116       [0]    S7C2_bit
0x0116       [0]    S5C2_bit
0x0117       [1]    LCDDATA7
0x0117       [0]    S9C2_bit
0x0117       [0]    SEG10COM2_bit
0x0117       [0]    SEG11COM2_bit
0x0117       [0]    S14C2_bit
0x0117       [0]    S15C2_bit
0x0117       [0]    S8C2_bit
0x0117       [0]    SEG15COM2_bit
0x0117       [0]    SEG8COM2_bit
0x0117       [0]    SEG9COM2_bit
0x0117       [0]    SEG12COM2_bit
0x0117       [0]    SEG13COM2_bit
0x0117       [0]    SEG14COM2_bit
0x0117       [0]    S13C2_bit
0x0117       [0]    S12C2_bit
0x0117       [0]    S11C2_bit
0x0117       [0]    S10C2_bit
0x0118       [1]    LCDDATA8
0x0118       [0]    SEG22COM2_bit
0x0118       [0]    SEG20COM2_bit
0x0118       [0]    S20C2_bit
0x0118       [0]    S21C2_bit
0x0118       [0]    S23C2_bit
0x0118       [0]    SEG23COM2_bit
0x0118       [0]    S22C2_bit
0x0118       [0]    SEG21COM2_bit
0x0118       [0]    SEG17COM2_bit
0x0118       [0]    S17C2_bit
0x0118       [0]    SEG16COM2_bit
0x0118       [0]    S16C2_bit
0x0118       [0]    SEG19COM2_bit
0x0118       [0]    S19C2_bit
0x0118       [0]    SEG18COM2_bit
0x0118       [0]    S18C2_bit
0x0119       [0]    S6C3_bit
0x0119       [0]    S7C3_bit
0x0119       [0]    SEG0COM3_bit
0x0119       [0]    S0C3_bit
0x0119       [0]    SEG1COM3_bit
0x0119       [0]    S5C3_bit
0x0119       [0]    SEG4COM3_bit
0x0119       [0]    SEG3COM3_bit
0x0119       [0]    SEG2COM3_bit
0x0119       [0]    SEG7COM3_bit
0x0119       [0]    SEG6COM3_bit
0x0119       [0]    SEG5COM3_bit
0x0119       [0]    S2C3_bit
0x0119       [0]    S3C3_bit
0x0119       [0]    S4C3_bit
0x0119       [1]    LCDDATA9
0x0119       [0]    S1C3_bit
0x011A       [0]    SEG8COM3_bit
0x011A       [0]    SEG11COM3_bit
0x011A       [0]    SEG9COM3_bit
0x011A       [0]    S10C3_bit
0x011A       [0]    SEG10COM3_bit
0x011A       [0]    SEG15COM3_bit
0x011A       [1]    LCDDATA10
0x011A       [0]    SEG14COM3_bit
0x011A       [0]    SEG12COM3_bit
0x011A       [0]    SEG13COM3_bit
0x011A       [0]    S8C3_bit
0x011A       [0]    S11C3_bit
0x011A       [0]    S9C3_bit
0x011A       [0]    S15C3_bit
0x011A       [0]    S13C3_bit
0x011A       [0]    S12C3_bit
0x011A       [0]    S14C3_bit
0x011B       [0]    SEG22COM3_bit
0x011B       [0]    SEG21COM3_bit
0x011B       [0]    SEG18COM3_bit
0x011B       [0]    SEG17COM3_bit
0x011B       [0]    SEG20COM3_bit
0x011B       [0]    SEG19COM3_bit
0x011B       [0]    S23C3_bit
0x011B       [0]    S18C3_bit
0x011B       [0]    S19C3_bit
0x011B       [0]    S16C3_bit
0x011B       [0]    S17C3_bit
0x011B       [0]    S20C3_bit
0x011B       [1]    LCDDATA11
0x011B       [0]    SEG23COM3_bit
0x011B       [0]    S21C3_bit
0x011B       [0]    S22C3_bit
0x011B       [0]    SEG16COM3_bit
0x011C       [0]    SE5_bit
0x011C       [0]    SE4_bit
0x011C       [0]    SE3_bit
0x011C       [0]    SE6_bit
0x011C       [1]    LCDSE0
0x011C       [0]    SE2_bit
0x011C       [0]    SE7_bit
0x011C       [0]    SEGEN7_bit
0x011C       [0]    SEGEN4_bit
0x011C       [0]    SEGEN5_bit
0x011C       [0]    SEGEN6_bit
0x011C       [0]    SEGEN3_bit
0x011C       [0]    SEGEN0_bit
0x011C       [0]    SEGEN1_bit
0x011C       [0]    SEGEN2_bit
0x011C       [0]    SE1_bit
0x011C       [0]    SE0_bit
0x011D       [0]    SE12_bit
0x011D       [0]    SE10_bit
0x011D       [0]    SEGEN8_bit
0x011D       [0]    SE14_bit
0x011D       [0]    SEGEN13_bit
0x011D       [0]    SEGEN14_bit
0x011D       [0]    SEGEN15_bit
0x011D       [0]    SEGEN10_bit
0x011D       [0]    SEGEN11_bit
0x011D       [0]    SEGEN12_bit
0x011D       [0]    SE15_bit
0x011D       [0]    SE8_bit
0x011D       [1]    LCDSE1
0x011D       [0]    SE9_bit
0x011D       [0]    SE11_bit
0x011D       [0]    SEGEN9_bit
0x011D       [0]    SE13_bit
0x011E       [0]    SEGEN22_bit
0x011E       [0]    SEGEN23_bit
0x011E       [0]    SEGEN18_bit
0x011E       [0]    SEGEN19_bit
0x011E       [0]    SEGEN17_bit
0x011E       [0]    SEGEN21_bit
0x011E       [0]    SEGEN20_bit
0x011E       [0]    SEGEN16_bit
0x011E       [0]    SE18_bit
0x011E       [0]    SE20_bit
0x011E       [1]    LCDSE2
0x011E       [0]    SE19_bit
0x011E       [0]    SE21_bit
0x011E       [0]    SE23_bit
0x011E       [0]    SE22_bit
0x011E       [0]    SE17_bit
0x011E       [0]    SE16_bit
0x018C       [0]    WRERR_bit
0x018C       [0]    WREN_bit
0x018C       [0]    WR_bit
0x018C       [0]    EERD_bit
0x018C       [0]    EEWR_bit
0x018C       [0]    RD_bit
0x018C       [0]    EEPGD_bit
0x018C       [1]    EECON1
0x018D       [1]    EECON2
//** Label List: ** 
//----------------------------------------------
  _main
  _CC2D_Loop1
  _____DoICP
  _____DoIFC
  ___CC2DW
  _Swap
