0	1	mikroCPIC1618.exe -MSF -DBG -pP16F917 -DL -O11111114 -fo8 -N"D:\cursuri\An3\sem2\MC\rezolvari\menu\menu.mcppi" -SP"D:\Program Files\MikroC\mikroC PRO for PIC\defs\" -SP"D:\Program Files\MikroC\mikroC PRO for PIC\Uses\P16\" -SP"D:\cursuri\An3\sem2\MC\rezolvari\menu\" "menu.c" "__Lib_Math.mcl" "__Lib_MathDouble.mcl" "__Lib_System.mcl" "__Lib_Delays.mcl" "__Lib_CType.mcl" "__Lib_CString.mcl" "__Lib_CStdlib.mcl" "__Lib_CMath.mcl" "__Lib_Conversions.mcl" "__Lib_Sprinti.mcl" "__Lib_Sprintl.mcl" "__Lib_Time.mcl" "__Lib_Trigonometry.mcl" "__Lib_Button.mcl" "__Lib_Keypad4x4.mcl" "__Lib_Manchester.mcl" "__Lib_OneWire.mcl" "__Lib_PS2.mcl" "__Lib_Sound.mcl" "__Lib_SoftI2C.mcl" "__Lib_SoftSPI.mcl" "__Lib_SoftUART.mcl" "__Lib_ADC_A_B.mcl" "__Lib_EEPROM.mcl" "__Lib_FLASH_R.mcl" "__Lib_PWM_c5d2.mcl" "__Lib_SPI_c674.mcl" "__Lib_UART_c67.mcl" "__Lib_PortExpander.mcl" "__Lib_CANSPI.mcl" "__Lib_CF.mcl" "__Lib_GlcdFonts.mcl" "__Lib_Glcd.mcl" "__Lib_LcdConsts.mcl" "__Lib_Lcd.mcl" "__Lib_RS485.mcl" "__Lib_S1D13700.mcl" "__Lib_T6963C.mcl" "__Lib_SPIGlcd.mcl" "__Lib_SPILcd.mcl" "__Lib_SPILcd8.mcl" "__Lib_SPIT6963C.mcl" "__Lib_EthEnc28j60.mcl" "__Lib_TFT.mcl" "__Lib_TouchPanel_TFT.mcl" "__Lib_EthEnc24j600.mcl" "__Lib_TouchPanel.mcl"	 
hint: 0	1139	Available RAM: 336 [bytes], Available ROM: 8192 [bytes]	 
diagnostics: 0	126	All files Preprocessed in 62 ms	 
diagnostics: 0	122	Compilation Started	menu.c
hint: 25	1163	Variable 'OK' has been declared, but not used	menu.c
diagnostics: 60	123	Compiled Successfully	menu.c
diagnostics: 0	127	All files Compiled in 78 ms	 
hint: 0	1144	Used RAM (bytes): 112 (33%)  Free RAM (bytes): 224 (67%)	Used RAM (bytes): 112 (33%)  Free RAM (bytes): 224 (67%)
hint: 0	1144	Used ROM (program words): 633 (8%)  Free ROM (program words): 7559 (92%)	Used ROM (program words): 633 (8%)  Free ROM (program words): 7559 (92%)
diagnostics: 0	125	Project Linked Successfully	menu.mcppi
diagnostics: 0	128	Linked in 515 ms	 
diagnostics: 0	129	Project 'menu.mcppi' completed: 780 ms	 
diagnostics: 0	103	Finished successfully: 28 May 2012, 21:12:25	menu.mcppi
