main
	Lcd_Init
		Delay_5500us
		Delay_1us
	Lcd_Cmd
		Delay_1us
		Delay_5500us
		Delay_50us
	sprinti
		_doprnti
			____DoICP
			Set_Flgs
				____DoICP
			isdigit
			Mul_16x16_U
			Do_Fill
			Div_16x16_U
	Lcd_Out
		Lcd_Cmd
			Delay_1us
			Delay_5500us
			Delay_50us
		Lcd_Chr_CP
			Lcd_Cmd
				Delay_1us
				Delay_5500us
				Delay_50us
	__CC2DW
		____DoICP
interrupt
