:Base d7com.hlp>main
:Title Developing COM-based applications
; 
1 Developing COM-based applications
2 Feature not available in this edition of the product. See http://info.borland.com for upgrade information.
 
