:Base d7dap.hlp>main
:Title Creating Internet and Intranet Applications
; 
1 Creating Internet and Intranet Applications
2 Feature not available in this edition of the product. See http://info.borland.com for upgrade information.
 
