:Base d7dbd.hlp>main
:Title Developing Database Applications
; 
1 Developing Database Applications
2 Feature not available in this edition of the product. See http://info.borland.com for upgrade information.
 
