:Base d7ref.hlp>main
;
2 About Object and Component Help
3 About Object and Component Help = AboutObjectAndComponentHelp
3 How to find Help using F1 = HowToFindHelpUsingF1
3 How to find Help by selecting Index or Find = HowToFindHelpBySelectingIndexOrFind
3 How to use Examples in Help = HowToUseExamplesInHelp
3 How to program with a component = HowToProgramWithAComponent
;

2 Object and Component Listing, by Unit

3 undefined
4 TBasePageItemsProducer=TBasePageItemsProducer

2 Alphabetical Object and Component Listing

3 TB
4 TBasePageItemsProducer=TBasePageItemsProducer

2 Categorical Routines Listing

2 Routines Listing, by Unit

2 Alphabetical Routines Listing
