;  LST file generated by mikroListExporter - v.2.0 
; Date/Time: 5/7/2012 4:28:38 PM
;----------------------------------------------

;Address Opcode 	ASM
0x0000	0x291A      	GOTO       282
0x0001	0x0000      	NOP
0x0002	0x0000      	NOP
0x0003	0x0000      	NOP
0x0004	0x2800      	GOTO       0
_Delay_1us:
;__Lib_Delays.c,7 :: 		void Delay_1us() {
;__Lib_Delays.c,9 :: 		}
0x0005	0x0008      	RETURN
; end of _Delay_1us
_Delay_5500us:
;__Lib_Delays.c,31 :: 		void Delay_5500us() {
;__Lib_Delays.c,32 :: 		Delay_us(5500);
0x0006	0x3002      	MOVLW      2
0x0007	0x00FC      	MOVWF      R12
0x0008	0x30C8      	MOVLW      200
0x0009	0x00FD      	MOVWF      R13
L_Delay_5500us6:
0x000A	0x0BFD      	DECFSZ     R13, 1
0x000B	0x280A      	GOTO       L_Delay_5500us6
0x000C	0x0BFC      	DECFSZ     R12, 1
0x000D	0x280A      	GOTO       L_Delay_5500us6
;__Lib_Delays.c,33 :: 		}
0x000E	0x0008      	RETURN
; end of _Delay_5500us
_Delay_50us:
;__Lib_Delays.c,19 :: 		void Delay_50us() {
;__Lib_Delays.c,20 :: 		Delay_us(50);
0x000F	0x3003      	MOVLW      3
0x0010	0x00FD      	MOVWF      R13
L_Delay_50us3:
0x0011	0x0BFD      	DECFSZ     R13, 1
0x0012	0x2811      	GOTO       L_Delay_50us3
0x0013	0x0000      	NOP
0x0014	0x0000      	NOP
;__Lib_Delays.c,21 :: 		}
0x0015	0x0008      	RETURN
; end of _Delay_50us
_Lcd_Cmd:
	ADDWF      %s, %s
;__Lib_Lcd.c,18 :: 		
;__Lib_Lcd.c,20 :: 		
0x0016	0x1683      	BSF        STATUS, 5
0x0017	0x1303      	BCF        STATUS, 6
0x0018	0x1BB5      	BTFSC      FARG_Lcd_Cmd_out_char, 7
0x0019	0x281D      	GOTO       L__Lcd_Cmd20
0x001A	0x1283      	BCF        STATUS, 5
0x001B	0x1188      	BCF        LCD_D7, BitPos(LCD_D7+0)
0x001C	0x281F      	GOTO       L__Lcd_Cmd21
L__Lcd_Cmd20:
0x001D	0x1283      	BCF        STATUS, 5
0x001E	0x1588      	BSF        LCD_D7, BitPos(LCD_D7+0)
L__Lcd_Cmd21:
;__Lib_Lcd.c,21 :: 		
0x001F	0x1683      	BSF        STATUS, 5
0x0020	0x1B35      	BTFSC      FARG_Lcd_Cmd_out_char, 6
0x0021	0x2825      	GOTO       L__Lcd_Cmd22
0x0022	0x1283      	BCF        STATUS, 5
0x0023	0x1108      	BCF        LCD_D6, BitPos(LCD_D6+0)
0x0024	0x2827      	GOTO       L__Lcd_Cmd23
L__Lcd_Cmd22:
0x0025	0x1283      	BCF        STATUS, 5
0x0026	0x1508      	BSF        LCD_D6, BitPos(LCD_D6+0)
L__Lcd_Cmd23:
;__Lib_Lcd.c,22 :: 		
0x0027	0x1683      	BSF        STATUS, 5
0x0028	0x1AB5      	BTFSC      FARG_Lcd_Cmd_out_char, 5
0x0029	0x282D      	GOTO       L__Lcd_Cmd24
0x002A	0x1283      	BCF        STATUS, 5
0x002B	0x1088      	BCF        LCD_D5, BitPos(LCD_D5+0)
0x002C	0x282F      	GOTO       L__Lcd_Cmd25
L__Lcd_Cmd24:
0x002D	0x1283      	BCF        STATUS, 5
0x002E	0x1488      	BSF        LCD_D5, BitPos(LCD_D5+0)
L__Lcd_Cmd25:
;__Lib_Lcd.c,23 :: 		
0x002F	0x1683      	BSF        STATUS, 5
0x0030	0x1A35      	BTFSC      FARG_Lcd_Cmd_out_char, 4
0x0031	0x2835      	GOTO       L__Lcd_Cmd26
0x0032	0x1283      	BCF        STATUS, 5
0x0033	0x1008      	BCF        LCD_D4, BitPos(LCD_D4+0)
0x0034	0x2837      	GOTO       L__Lcd_Cmd27
L__Lcd_Cmd26:
0x0035	0x1283      	BCF        STATUS, 5
0x0036	0x1408      	BSF        LCD_D4, BitPos(LCD_D4+0)
L__Lcd_Cmd27:
;__Lib_Lcd.c,25 :: 		
0x0037	0x186C      	BTFSC      __Lib_Lcd_cmd_status, BitPos(__Lib_Lcd_cmd_status+0)
0x0038	0x283B      	GOTO       L__Lcd_Cmd28
0x0039	0x1608      	BSF        LCD_RS, BitPos(LCD_RS+0)
0x003A	0x283C      	GOTO       L__Lcd_Cmd29
L__Lcd_Cmd28:
0x003B	0x1208      	BCF        LCD_RS, BitPos(LCD_RS+0)
L__Lcd_Cmd29:
;__Lib_Lcd.c,28 :: 		
0x003C	0x1688      	BSF        LCD_EN, BitPos(LCD_EN+0)
;__Lib_Lcd.c,29 :: 		
0x003D	0x2005      	CALL       _Delay_1us
;__Lib_Lcd.c,30 :: 		
0x003E	0x1288      	BCF        LCD_EN, BitPos(LCD_EN+0)
;__Lib_Lcd.c,33 :: 		
0x003F	0x1683      	BSF        STATUS, 5
0x0040	0x19B5      	BTFSC      FARG_Lcd_Cmd_out_char, 3
0x0041	0x2845      	GOTO       L__Lcd_Cmd30
0x0042	0x1283      	BCF        STATUS, 5
0x0043	0x1188      	BCF        LCD_D7, BitPos(LCD_D7+0)
0x0044	0x2847      	GOTO       L__Lcd_Cmd31
L__Lcd_Cmd30:
0x0045	0x1283      	BCF        STATUS, 5
0x0046	0x1588      	BSF        LCD_D7, BitPos(LCD_D7+0)
L__Lcd_Cmd31:
;__Lib_Lcd.c,34 :: 		
0x0047	0x1683      	BSF        STATUS, 5
0x0048	0x1935      	BTFSC      FARG_Lcd_Cmd_out_char, 2
0x0049	0x284D      	GOTO       L__Lcd_Cmd32
0x004A	0x1283      	BCF        STATUS, 5
0x004B	0x1108      	BCF        LCD_D6, BitPos(LCD_D6+0)
0x004C	0x284F      	GOTO       L__Lcd_Cmd33
L__Lcd_Cmd32:
0x004D	0x1283      	BCF        STATUS, 5
0x004E	0x1508      	BSF        LCD_D6, BitPos(LCD_D6+0)
L__Lcd_Cmd33:
;__Lib_Lcd.c,35 :: 		
0x004F	0x1683      	BSF        STATUS, 5
0x0050	0x18B5      	BTFSC      FARG_Lcd_Cmd_out_char, 1
0x0051	0x2855      	GOTO       L__Lcd_Cmd34
0x0052	0x1283      	BCF        STATUS, 5
0x0053	0x1088      	BCF        LCD_D5, BitPos(LCD_D5+0)
0x0054	0x2857      	GOTO       L__Lcd_Cmd35
L__Lcd_Cmd34:
0x0055	0x1283      	BCF        STATUS, 5
0x0056	0x1488      	BSF        LCD_D5, BitPos(LCD_D5+0)
L__Lcd_Cmd35:
;__Lib_Lcd.c,36 :: 		
0x0057	0x1683      	BSF        STATUS, 5
0x0058	0x1835      	BTFSC      FARG_Lcd_Cmd_out_char, 0
0x0059	0x285D      	GOTO       L__Lcd_Cmd36
0x005A	0x1283      	BCF        STATUS, 5
0x005B	0x1008      	BCF        LCD_D4, BitPos(LCD_D4+0)
0x005C	0x285F      	GOTO       L__Lcd_Cmd37
L__Lcd_Cmd36:
0x005D	0x1283      	BCF        STATUS, 5
0x005E	0x1408      	BSF        LCD_D4, BitPos(LCD_D4+0)
L__Lcd_Cmd37:
;__Lib_Lcd.c,38 :: 		
0x005F	0x186C      	BTFSC      __Lib_Lcd_cmd_status, BitPos(__Lib_Lcd_cmd_status+0)
0x0060	0x2863      	GOTO       L__Lcd_Cmd38
0x0061	0x1608      	BSF        LCD_RS, BitPos(LCD_RS+0)
0x0062	0x2864      	GOTO       L__Lcd_Cmd39
L__Lcd_Cmd38:
0x0063	0x1208      	BCF        LCD_RS, BitPos(LCD_RS+0)
L__Lcd_Cmd39:
;__Lib_Lcd.c,40 :: 		
0x0064	0x1688      	BSF        LCD_EN, BitPos(LCD_EN+0)
;__Lib_Lcd.c,41 :: 		
0x0065	0x2005      	CALL       _Delay_1us
;__Lib_Lcd.c,42 :: 		
0x0066	0x1288      	BCF        LCD_EN, BitPos(LCD_EN+0)
;__Lib_Lcd.c,44 :: 		
0x0067	0x1C6C      	BTFSS      __Lib_Lcd_cmd_status, BitPos(__Lib_Lcd_cmd_status+0)
0x0068	0x286B      	GOTO       L_Lcd_Cmd0
;__Lib_Lcd.c,45 :: 		
0x0069	0x2006      	CALL       _Delay_5500us
0x006A	0x286C      	GOTO       L_Lcd_Cmd1
L_Lcd_Cmd0:
;__Lib_Lcd.c,47 :: 		
0x006B	0x200F      	CALL       _Delay_50us
L_Lcd_Cmd1:
;__Lib_Lcd.c,48 :: 		
0x006C	0x0008      	RETURN
; end of _Lcd_Cmd
_Lcd_Chr_CP:
	ADDWF      %s, %s
;__Lib_Lcd.c,50 :: 		
;__Lib_Lcd.c,52 :: 		
0x006D	0x1283      	BCF        STATUS, 5
0x006E	0x1303      	BCF        STATUS, 6
0x006F	0x106C      	BCF        __Lib_Lcd_cmd_status, BitPos(__Lib_Lcd_cmd_status+0)
;__Lib_Lcd.c,53 :: 		
0x0070	0x1683      	BSF        STATUS, 5
0x0071	0x0834      	MOVF       FARG_Lcd_Chr_CP_out_char, 0
0x0072	0x00B5      	MOVWF      FARG_Lcd_Cmd_out_char
0x0073	0x2016      	CALL       _Lcd_Cmd
;__Lib_Lcd.c,54 :: 		
0x0074	0x146C      	BSF        __Lib_Lcd_cmd_status, BitPos(__Lib_Lcd_cmd_status+0)
;__Lib_Lcd.c,55 :: 		
0x0075	0x0008      	RETURN
; end of _Lcd_Chr_CP
_____DoICP:
	ADDWF      %s, %s
;__Lib_System.c,6 :: 		
;__Lib_System.c,9 :: 		
0x0076	0x1283      	BCF        STATUS, 5
0x0077	0x1303      	BCF        STATUS, 6
0x0078	0x086B      	MOVF       ___DoICPAddr+1, 0
0x0079	0x008A      	MOVWF      PCLATH
;__Lib_System.c,10 :: 		
0x007A	0x086A      	MOVF       ___DoICPAddr, 0
0x007B	0x0082      	MOVWF      PCL
;__Lib_System.c,12 :: 		
0x007C	0x0008      	RETURN
; end of _____DoICP
___CC2DW:
	ADDWF      %s, %s
;__Lib_System.c,24 :: 		
;__Lib_System.c,27 :: 		
_CC2D_Loop1:
;__Lib_System.c,29 :: 		
0x007D	0x2076      	CALL       _____DoICP
0x007E	0x118A      	BCF        PCLATH, 3
0x007F	0x120A      	BCF        PCLATH, 4
;__Lib_System.c,31 :: 		
0x0080	0x0080      	MOVWF      INDF
;__Lib_System.c,32 :: 		
0x0081	0x0A84      	INCF       FSR, 1
;__Lib_System.c,33 :: 		
0x0082	0x0AEA      	INCF       ___DoICPAddr, 1
;__Lib_System.c,35 :: 		
0x0083	0x1903      	BTFSC      STATUS, 2
;__Lib_System.c,36 :: 		
0x0084	0x0AEB      	INCF       ___DoICPAddr+1, 1
;__Lib_System.c,37 :: 		
0x0085	0x03F0      	DECF       R0, 1
;__Lib_System.c,39 :: 		
0x0086	0x1D03      	BTFSS      STATUS, 2
;__Lib_System.c,40 :: 		
0x0087	0x287D      	GOTO       _CC2D_Loop1
;__Lib_System.c,42 :: 		
0x0088	0x0008      	RETURN
; end of ___CC2DW
_Lcd_Out:
	ADDWF      %s, %s
;__Lib_Lcd.c,184 :: 		
;__Lib_Lcd.c,187 :: 		
0x0089	0x289B      	GOTO       L_Lcd_Out11
;__Lib_Lcd.c,188 :: 		
L_Lcd_Out13:
0x008A	0x3080      	MOVLW      128
0x008B	0x1683      	BSF        STATUS, 5
0x008C	0x1303      	BCF        STATUS, 6
0x008D	0x00B0      	MOVWF      FARG_Lcd_Out_row
0x008E	0x28AE      	GOTO       L_Lcd_Out12
;__Lib_Lcd.c,189 :: 		
L_Lcd_Out14:
0x008F	0x30C0      	MOVLW      192
0x0090	0x00B0      	MOVWF      FARG_Lcd_Out_row
0x0091	0x28AE      	GOTO       L_Lcd_Out12
;__Lib_Lcd.c,190 :: 		
L_Lcd_Out15:
0x0092	0x3094      	MOVLW      148
0x0093	0x00B0      	MOVWF      FARG_Lcd_Out_row
0x0094	0x28AE      	GOTO       L_Lcd_Out12
;__Lib_Lcd.c,191 :: 		
L_Lcd_Out16:
0x0095	0x30D4      	MOVLW      212
0x0096	0x00B0      	MOVWF      FARG_Lcd_Out_row
0x0097	0x28AE      	GOTO       L_Lcd_Out12
;__Lib_Lcd.c,192 :: 		
L_Lcd_Out17:
0x0098	0x3080      	MOVLW      128
0x0099	0x00B0      	MOVWF      FARG_Lcd_Out_row
;__Lib_Lcd.c,193 :: 		
0x009A	0x28AE      	GOTO       L_Lcd_Out12
L_Lcd_Out11:
0x009B	0x1683      	BSF        STATUS, 5
0x009C	0x1303      	BCF        STATUS, 6
0x009D	0x0830      	MOVF       FARG_Lcd_Out_row, 0
0x009E	0x3A01      	XORLW      1
0x009F	0x1903      	BTFSC      STATUS, 2
0x00A0	0x288A      	GOTO       L_Lcd_Out13
0x00A1	0x0830      	MOVF       FARG_Lcd_Out_row, 0
0x00A2	0x3A02      	XORLW      2
0x00A3	0x1903      	BTFSC      STATUS, 2
0x00A4	0x288F      	GOTO       L_Lcd_Out14
0x00A5	0x0830      	MOVF       FARG_Lcd_Out_row, 0
0x00A6	0x3A03      	XORLW      3
0x00A7	0x1903      	BTFSC      STATUS, 2
0x00A8	0x2892      	GOTO       L_Lcd_Out15
0x00A9	0x0830      	MOVF       FARG_Lcd_Out_row, 0
0x00AA	0x3A04      	XORLW      4
0x00AB	0x1903      	BTFSC      STATUS, 2
0x00AC	0x2895      	GOTO       L_Lcd_Out16
0x00AD	0x2898      	GOTO       L_Lcd_Out17
L_Lcd_Out12:
;__Lib_Lcd.c,194 :: 		
0x00AE	0x0331      	DECF       FARG_Lcd_Out_column, 0
0x00AF	0x00F0      	MOVWF      R0
0x00B0	0x0830      	MOVF       FARG_Lcd_Out_row, 0
0x00B1	0x07F0      	ADDWF      R0, 1
0x00B2	0x0870      	MOVF       R0, 0
0x00B3	0x00B0      	MOVWF      FARG_Lcd_Out_row
;__Lib_Lcd.c,196 :: 		
0x00B4	0x0870      	MOVF       R0, 0
0x00B5	0x00B5      	MOVWF      FARG_Lcd_Cmd_out_char
0x00B6	0x2016      	CALL       _Lcd_Cmd
;__Lib_Lcd.c,197 :: 		
0x00B7	0x106C      	BCF        __Lib_Lcd_cmd_status, BitPos(__Lib_Lcd_cmd_status+0)
;__Lib_Lcd.c,198 :: 		
0x00B8	0x1683      	BSF        STATUS, 5
0x00B9	0x01B3      	CLRF       Lcd_Out_i_L0
;__Lib_Lcd.c,199 :: 		
L_Lcd_Out18:
0x00BA	0x0833      	MOVF       Lcd_Out_i_L0, 0
0x00BB	0x0732      	ADDWF      FARG_Lcd_Out_text, 0
0x00BC	0x0084      	MOVWF      FSR
0x00BD	0x0800      	MOVF       INDF, 0
0x00BE	0x1903      	BTFSC      STATUS, 2
0x00BF	0x28C9      	GOTO       L_Lcd_Out19
;__Lib_Lcd.c,200 :: 		
0x00C0	0x0833      	MOVF       Lcd_Out_i_L0, 0
0x00C1	0x0732      	ADDWF      FARG_Lcd_Out_text, 0
0x00C2	0x0084      	MOVWF      FSR
0x00C3	0x0800      	MOVF       INDF, 0
0x00C4	0x00B4      	MOVWF      FARG_Lcd_Chr_CP_out_char
0x00C5	0x206D      	CALL       _Lcd_Chr_CP
0x00C6	0x1683      	BSF        STATUS, 5
0x00C7	0x0AB3      	INCF       Lcd_Out_i_L0, 1
0x00C8	0x28BA      	GOTO       L_Lcd_Out18
L_Lcd_Out19:
;__Lib_Lcd.c,201 :: 		
0x00C9	0x1283      	BCF        STATUS, 5
0x00CA	0x146C      	BSF        __Lib_Lcd_cmd_status, BitPos(__Lib_Lcd_cmd_status+0)
;__Lib_Lcd.c,202 :: 		
0x00CB	0x0008      	RETURN
; end of _Lcd_Out
_Lcd_Init:
	ADDWF      %s, %s
;__Lib_Lcd.c,84 :: 		
;__Lib_Lcd.c,86 :: 		
0x00CC	0x1683      	BSF        STATUS, 5
0x00CD	0x1303      	BCF        STATUS, 6
0x00CE	0x1288      	BCF        LCD_EN_Direction, BitPos(LCD_EN_Direction+0)
;__Lib_Lcd.c,87 :: 		
0x00CF	0x1208      	BCF        LCD_RS_Direction, BitPos(LCD_RS_Direction+0)
;__Lib_Lcd.c,88 :: 		
0x00D0	0x1008      	BCF        LCD_D4_Direction, BitPos(LCD_D4_Direction+0)
;__Lib_Lcd.c,89 :: 		
0x00D1	0x1088      	BCF        LCD_D5_Direction, BitPos(LCD_D5_Direction+0)
;__Lib_Lcd.c,90 :: 		
0x00D2	0x1108      	BCF        LCD_D6_Direction, BitPos(LCD_D6_Direction+0)
;__Lib_Lcd.c,91 :: 		
0x00D3	0x1188      	BCF        LCD_D7_Direction, BitPos(LCD_D7_Direction+0)
;__Lib_Lcd.c,93 :: 		
0x00D4	0x1283      	BCF        STATUS, 5
0x00D5	0x1288      	BCF        LCD_EN, BitPos(LCD_EN+0)
;__Lib_Lcd.c,94 :: 		
0x00D6	0x1208      	BCF        LCD_RS, BitPos(LCD_RS+0)
;__Lib_Lcd.c,95 :: 		
0x00D7	0x1188      	BCF        LCD_D7, BitPos(LCD_D7+0)
;__Lib_Lcd.c,96 :: 		
0x00D8	0x1108      	BCF        LCD_D6, BitPos(LCD_D6+0)
;__Lib_Lcd.c,97 :: 		
0x00D9	0x1088      	BCF        LCD_D5, BitPos(LCD_D5+0)
;__Lib_Lcd.c,98 :: 		
0x00DA	0x1008      	BCF        LCD_D4, BitPos(LCD_D4+0)
;__Lib_Lcd.c,100 :: 		
0x00DB	0x2006      	CALL       _Delay_5500us
;__Lib_Lcd.c,101 :: 		
0x00DC	0x2006      	CALL       _Delay_5500us
;__Lib_Lcd.c,102 :: 		
0x00DD	0x2006      	CALL       _Delay_5500us
;__Lib_Lcd.c,105 :: 		
0x00DE	0x1488      	BSF        LCD_D5, BitPos(LCD_D5+0)
;__Lib_Lcd.c,106 :: 		
0x00DF	0x1408      	BSF        LCD_D4, BitPos(LCD_D4+0)
;__Lib_Lcd.c,107 :: 		
0x00E0	0x1688      	BSF        LCD_EN, BitPos(LCD_EN+0)
;__Lib_Lcd.c,108 :: 		
0x00E1	0x2005      	CALL       _Delay_1us
;__Lib_Lcd.c,109 :: 		
0x00E2	0x1288      	BCF        LCD_EN, BitPos(LCD_EN+0)
;__Lib_Lcd.c,110 :: 		
0x00E3	0x2006      	CALL       _Delay_5500us
;__Lib_Lcd.c,112 :: 		
0x00E4	0x1688      	BSF        LCD_EN, BitPos(LCD_EN+0)
;__Lib_Lcd.c,113 :: 		
0x00E5	0x2005      	CALL       _Delay_1us
;__Lib_Lcd.c,114 :: 		
0x00E6	0x1288      	BCF        LCD_EN, BitPos(LCD_EN+0)
;__Lib_Lcd.c,115 :: 		
0x00E7	0x2006      	CALL       _Delay_5500us
;__Lib_Lcd.c,117 :: 		
0x00E8	0x1688      	BSF        LCD_EN, BitPos(LCD_EN+0)
;__Lib_Lcd.c,118 :: 		
0x00E9	0x2005      	CALL       _Delay_1us
;__Lib_Lcd.c,119 :: 		
0x00EA	0x1288      	BCF        LCD_EN, BitPos(LCD_EN+0)
;__Lib_Lcd.c,120 :: 		
0x00EB	0x2006      	CALL       _Delay_5500us
;__Lib_Lcd.c,123 :: 		
0x00EC	0x1008      	BCF        LCD_D4, BitPos(LCD_D4+0)
;__Lib_Lcd.c,124 :: 		
0x00ED	0x1688      	BSF        LCD_EN, BitPos(LCD_EN+0)
;__Lib_Lcd.c,125 :: 		
0x00EE	0x2005      	CALL       _Delay_1us
;__Lib_Lcd.c,126 :: 		
0x00EF	0x1288      	BCF        LCD_EN, BitPos(LCD_EN+0)
;__Lib_Lcd.c,127 :: 		
0x00F0	0x2006      	CALL       _Delay_5500us
;__Lib_Lcd.c,130 :: 		
0x00F1	0x1688      	BSF        LCD_EN, BitPos(LCD_EN+0)
;__Lib_Lcd.c,131 :: 		
0x00F2	0x2005      	CALL       _Delay_1us
;__Lib_Lcd.c,132 :: 		
0x00F3	0x1288      	BCF        LCD_EN, BitPos(LCD_EN+0)
;__Lib_Lcd.c,134 :: 		
0x00F4	0x1088      	BCF        LCD_D5, BitPos(LCD_D5+0)
;__Lib_Lcd.c,135 :: 		
0x00F5	0x1588      	BSF        LCD_D7, BitPos(LCD_D7+0)
;__Lib_Lcd.c,136 :: 		
0x00F6	0x1688      	BSF        LCD_EN, BitPos(LCD_EN+0)
;__Lib_Lcd.c,137 :: 		
0x00F7	0x2005      	CALL       _Delay_1us
;__Lib_Lcd.c,138 :: 		
0x00F8	0x1288      	BCF        LCD_EN, BitPos(LCD_EN+0)
;__Lib_Lcd.c,139 :: 		
0x00F9	0x2006      	CALL       _Delay_5500us
;__Lib_Lcd.c,142 :: 		
0x00FA	0x1188      	BCF        LCD_D7, BitPos(LCD_D7+0)
;__Lib_Lcd.c,143 :: 		
0x00FB	0x1408      	BSF        LCD_D4, BitPos(LCD_D4+0)
;__Lib_Lcd.c,144 :: 		
0x00FC	0x1688      	BSF        LCD_EN, BitPos(LCD_EN+0)
;__Lib_Lcd.c,145 :: 		
0x00FD	0x2005      	CALL       _Delay_1us
;__Lib_Lcd.c,146 :: 		
0x00FE	0x1288      	BCF        LCD_EN, BitPos(LCD_EN+0)
;__Lib_Lcd.c,148 :: 		
0x00FF	0x1008      	BCF        LCD_D4, BitPos(LCD_D4+0)
;__Lib_Lcd.c,149 :: 		
0x0100	0x1688      	BSF        LCD_EN, BitPos(LCD_EN+0)
;__Lib_Lcd.c,150 :: 		
0x0101	0x2005      	CALL       _Delay_1us
;__Lib_Lcd.c,151 :: 		
0x0102	0x1288      	BCF        LCD_EN, BitPos(LCD_EN+0)
;__Lib_Lcd.c,152 :: 		
0x0103	0x2006      	CALL       _Delay_5500us
;__Lib_Lcd.c,155 :: 		
0x0104	0x1688      	BSF        LCD_EN, BitPos(LCD_EN+0)
;__Lib_Lcd.c,156 :: 		
0x0105	0x2005      	CALL       _Delay_1us
;__Lib_Lcd.c,157 :: 		
0x0106	0x1288      	BCF        LCD_EN, BitPos(LCD_EN+0)
;__Lib_Lcd.c,159 :: 		
0x0107	0x1408      	BSF        LCD_D4, BitPos(LCD_D4+0)
;__Lib_Lcd.c,160 :: 		
0x0108	0x1688      	BSF        LCD_EN, BitPos(LCD_EN+0)
;__Lib_Lcd.c,161 :: 		
0x0109	0x2005      	CALL       _Delay_1us
;__Lib_Lcd.c,162 :: 		
0x010A	0x1288      	BCF        LCD_EN, BitPos(LCD_EN+0)
;__Lib_Lcd.c,163 :: 		
0x010B	0x2006      	CALL       _Delay_5500us
;__Lib_Lcd.c,166 :: 		
0x010C	0x1008      	BCF        LCD_D4, BitPos(LCD_D4+0)
;__Lib_Lcd.c,167 :: 		
0x010D	0x1688      	BSF        LCD_EN, BitPos(LCD_EN+0)
;__Lib_Lcd.c,168 :: 		
0x010E	0x2005      	CALL       _Delay_1us
;__Lib_Lcd.c,169 :: 		
0x010F	0x1288      	BCF        LCD_EN, BitPos(LCD_EN+0)
;__Lib_Lcd.c,171 :: 		
0x0110	0x1588      	BSF        LCD_D7, BitPos(LCD_D7+0)
;__Lib_Lcd.c,172 :: 		
0x0111	0x1508      	BSF        LCD_D6, BitPos(LCD_D6+0)
;__Lib_Lcd.c,173 :: 		
0x0112	0x1488      	BSF        LCD_D5, BitPos(LCD_D5+0)
;__Lib_Lcd.c,174 :: 		
0x0113	0x1408      	BSF        LCD_D4, BitPos(LCD_D4+0)
;__Lib_Lcd.c,175 :: 		
0x0114	0x1688      	BSF        LCD_EN, BitPos(LCD_EN+0)
;__Lib_Lcd.c,176 :: 		
0x0115	0x2005      	CALL       _Delay_1us
;__Lib_Lcd.c,177 :: 		
0x0116	0x1288      	BCF        LCD_EN, BitPos(LCD_EN+0)
;__Lib_Lcd.c,179 :: 		
0x0117	0x2006      	CALL       _Delay_5500us
;__Lib_Lcd.c,181 :: 		
0x0118	0x146C      	BSF        __Lib_Lcd_cmd_status, BitPos(__Lib_Lcd_cmd_status+0)
;__Lib_Lcd.c,182 :: 		
0x0119	0x0008      	RETURN
; end of _Lcd_Init
_main:
;Lab5.c,15 :: 		void main() {
;Lab5.c,17 :: 		Lcd_Init();
0x011A	0x224C      	CALL       588
0x011B	0x20CC      	CALL       _Lcd_Init
;Lab5.c,18 :: 		TRISB=0b00001111;
0x011C	0x300F      	MOVLW      15
0x011D	0x1683      	BSF        STATUS, 5
0x011E	0x0086      	MOVWF      TRISB
;Lab5.c,19 :: 		A=1;
0x011F	0x3001      	MOVLW      1
0x0120	0x1283      	BCF        STATUS, 5
0x0121	0x00ED      	MOVWF      main_A_L0
;Lab5.c,20 :: 		B=0;
0x0122	0x01EE      	CLRF       main_B_L0
;Lab5.c,21 :: 		C=0;
0x0123	0x01EF      	CLRF       main_C_L0
;Lab5.c,22 :: 		D=0;
0x0124	0x1683      	BSF        STATUS, 5
0x0125	0x01AE      	CLRF       main_D_L0
;Lab5.c,23 :: 		E=0;
0x0126	0x01AF      	CLRF       main_E_L0
;Lab5.c,24 :: 		while(1)
L_main0:
;Lab5.c,25 :: 		{       if ((A==1)&&(PORTB.RB0==1)) {A=0;B=1;}
0x0127	0x1283      	BCF        STATUS, 5
0x0128	0x086D      	MOVF       main_A_L0, 0
0x0129	0x3A01      	XORLW      1
0x012A	0x1D03      	BTFSS      STATUS, 2
0x012B	0x2931      	GOTO       L_main4
0x012C	0x1C06      	BTFSS      PORTB, 0
0x012D	0x2931      	GOTO       L_main4
L__main42:
0x012E	0x01ED      	CLRF       main_A_L0
0x012F	0x3001      	MOVLW      1
0x0130	0x00EE      	MOVWF      main_B_L0
L_main4:
;Lab5.c,26 :: 		if ((B==1)&&(PORTB.RB1==1)) {B=0;C=1;}
0x0131	0x086E      	MOVF       main_B_L0, 0
0x0132	0x3A01      	XORLW      1
0x0133	0x1D03      	BTFSS      STATUS, 2
0x0134	0x293A      	GOTO       L_main7
0x0135	0x1C86      	BTFSS      PORTB, 1
0x0136	0x293A      	GOTO       L_main7
L__main41:
0x0137	0x01EE      	CLRF       main_B_L0
0x0138	0x3001      	MOVLW      1
0x0139	0x00EF      	MOVWF      main_C_L0
L_main7:
;Lab5.c,27 :: 		if ((B==1)&&(PORTB.RB3==1)) {B=0;A=1;}
0x013A	0x086E      	MOVF       main_B_L0, 0
0x013B	0x3A01      	XORLW      1
0x013C	0x1D03      	BTFSS      STATUS, 2
0x013D	0x2943      	GOTO       L_main10
0x013E	0x1D86      	BTFSS      PORTB, 3
0x013F	0x2943      	GOTO       L_main10
L__main40:
0x0140	0x01EE      	CLRF       main_B_L0
0x0141	0x3001      	MOVLW      1
0x0142	0x00ED      	MOVWF      main_A_L0
L_main10:
;Lab5.c,28 :: 		if ((B==1)&&(PORTB.RB0==1)) {B=0;D=1;}
0x0143	0x086E      	MOVF       main_B_L0, 0
0x0144	0x3A01      	XORLW      1
0x0145	0x1D03      	BTFSS      STATUS, 2
0x0146	0x294D      	GOTO       L_main13
0x0147	0x1C06      	BTFSS      PORTB, 0
0x0148	0x294D      	GOTO       L_main13
L__main39:
0x0149	0x01EE      	CLRF       main_B_L0
0x014A	0x3001      	MOVLW      1
0x014B	0x1683      	BSF        STATUS, 5
0x014C	0x00AE      	MOVWF      main_D_L0
L_main13:
;Lab5.c,29 :: 		if ((C==1)&&(PORTB.RB0==1)) {C=0;E=1;}
0x014D	0x1283      	BCF        STATUS, 5
0x014E	0x086F      	MOVF       main_C_L0, 0
0x014F	0x3A01      	XORLW      1
0x0150	0x1D03      	BTFSS      STATUS, 2
0x0151	0x2958      	GOTO       L_main16
0x0152	0x1C06      	BTFSS      PORTB, 0
0x0153	0x2958      	GOTO       L_main16
L__main38:
0x0154	0x01EF      	CLRF       main_C_L0
0x0155	0x3001      	MOVLW      1
0x0156	0x1683      	BSF        STATUS, 5
0x0157	0x00AF      	MOVWF      main_E_L0
L_main16:
;Lab5.c,30 :: 		if ((C==1)&&(PORTB.RB2==1)) {C=0;B=1;}
0x0158	0x1283      	BCF        STATUS, 5
0x0159	0x086F      	MOVF       main_C_L0, 0
0x015A	0x3A01      	XORLW      1
0x015B	0x1D03      	BTFSS      STATUS, 2
0x015C	0x2962      	GOTO       L_main19
0x015D	0x1D06      	BTFSS      PORTB, 2
0x015E	0x2962      	GOTO       L_main19
L__main37:
0x015F	0x01EF      	CLRF       main_C_L0
0x0160	0x3001      	MOVLW      1
0x0161	0x00EE      	MOVWF      main_B_L0
L_main19:
;Lab5.c,31 :: 		if ((C==1)&&(PORTB.RB3==1)) {C=0;A=1;}
0x0162	0x086F      	MOVF       main_C_L0, 0
0x0163	0x3A01      	XORLW      1
0x0164	0x1D03      	BTFSS      STATUS, 2
0x0165	0x296B      	GOTO       L_main22
0x0166	0x1D86      	BTFSS      PORTB, 3
0x0167	0x296B      	GOTO       L_main22
L__main36:
0x0168	0x01EF      	CLRF       main_C_L0
0x0169	0x3001      	MOVLW      1
0x016A	0x00ED      	MOVWF      main_A_L0
L_main22:
;Lab5.c,32 :: 		if ((D==1)&&(PORTB.RB0==1)) {D=0;A=1;}
0x016B	0x1683      	BSF        STATUS, 5
0x016C	0x082E      	MOVF       main_D_L0, 0
0x016D	0x3A01      	XORLW      1
0x016E	0x1D03      	BTFSS      STATUS, 2
0x016F	0x2978      	GOTO       L_main25
0x0170	0x1283      	BCF        STATUS, 5
0x0171	0x1C06      	BTFSS      PORTB, 0
0x0172	0x2978      	GOTO       L_main25
L__main35:
0x0173	0x1683      	BSF        STATUS, 5
0x0174	0x01AE      	CLRF       main_D_L0
0x0175	0x3001      	MOVLW      1
0x0176	0x1283      	BCF        STATUS, 5
0x0177	0x00ED      	MOVWF      main_A_L0
L_main25:
;Lab5.c,33 :: 		if ((E==1)&&(PORTB.RB0==1)) {E=0;A=1;}
0x0178	0x1683      	BSF        STATUS, 5
0x0179	0x082F      	MOVF       main_E_L0, 0
0x017A	0x3A01      	XORLW      1
0x017B	0x1D03      	BTFSS      STATUS, 2
0x017C	0x2985      	GOTO       L_main28
0x017D	0x1283      	BCF        STATUS, 5
0x017E	0x1C06      	BTFSS      PORTB, 0
0x017F	0x2985      	GOTO       L_main28
L__main34:
0x0180	0x1683      	BSF        STATUS, 5
0x0181	0x01AF      	CLRF       main_E_L0
0x0182	0x3001      	MOVLW      1
0x0183	0x1283      	BCF        STATUS, 5
0x0184	0x00ED      	MOVWF      main_A_L0
L_main28:
0x0185	0x1283      	BCF        STATUS, 5
;Lab5.c,35 :: 		if (A==1) { Lcd_Out(1,1,"Setare RB4:"); Lcd_Out(2,1,"Ok");};
0x0186	0x086D      	MOVF       main_A_L0, 0
0x0187	0x3A01      	XORLW      1
0x0188	0x1D03      	BTFSS      STATUS, 2
0x0189	0x299A      	GOTO       L_main29
0x018A	0x3001      	MOVLW      1
0x018B	0x1683      	BSF        STATUS, 5
0x018C	0x00B0      	MOVWF      FARG_Lcd_Out_row
0x018D	0x3001      	MOVLW      1
0x018E	0x00B1      	MOVWF      FARG_Lcd_Out_column
0x018F	0x3020      	MOVLW      ?lstr1_Lab5
0x0190	0x00B2      	MOVWF      FARG_Lcd_Out_text
0x0191	0x2089      	CALL       _Lcd_Out
0x0192	0x3002      	MOVLW      2
0x0193	0x1683      	BSF        STATUS, 5
0x0194	0x00B0      	MOVWF      FARG_Lcd_Out_row
0x0195	0x3001      	MOVLW      1
0x0196	0x00B1      	MOVWF      FARG_Lcd_Out_column
0x0197	0x304F      	MOVLW      ?lstr2_Lab5
0x0198	0x00B2      	MOVWF      FARG_Lcd_Out_text
0x0199	0x2089      	CALL       _Lcd_Out
L_main29:
;Lab5.c,36 :: 		if (B==1) { Lcd_Out(1,1,"Aprindere RB4:"); Lcd_Out(2,1,"Ok > Cancel");};
0x019A	0x086E      	MOVF       main_B_L0, 0
0x019B	0x3A01      	XORLW      1
0x019C	0x1D03      	BTFSS      STATUS, 2
0x019D	0x29AE      	GOTO       L_main30
0x019E	0x3001      	MOVLW      1
0x019F	0x1683      	BSF        STATUS, 5
0x01A0	0x00B0      	MOVWF      FARG_Lcd_Out_row
0x01A1	0x3001      	MOVLW      1
0x01A2	0x00B1      	MOVWF      FARG_Lcd_Out_column
0x01A3	0x3040      	MOVLW      ?lstr3_Lab5
0x01A4	0x00B2      	MOVWF      FARG_Lcd_Out_text
0x01A5	0x2089      	CALL       _Lcd_Out
0x01A6	0x3002      	MOVLW      2
0x01A7	0x1683      	BSF        STATUS, 5
0x01A8	0x00B0      	MOVWF      FARG_Lcd_Out_row
0x01A9	0x3001      	MOVLW      1
0x01AA	0x00B1      	MOVWF      FARG_Lcd_Out_column
0x01AB	0x3052      	MOVLW      ?lstr4_Lab5
0x01AC	0x00B2      	MOVWF      FARG_Lcd_Out_text
0x01AD	0x2089      	CALL       _Lcd_Out
L_main30:
;Lab5.c,37 :: 		if (C==1) { Lcd_Out(1,1,"Stingere RB4:"); Lcd_Out(2,1,"Ok < Cancel");};
0x01AE	0x086F      	MOVF       main_C_L0, 0
0x01AF	0x3A01      	XORLW      1
0x01B0	0x1D03      	BTFSS      STATUS, 2
0x01B1	0x29C2      	GOTO       L_main31
0x01B2	0x3001      	MOVLW      1
0x01B3	0x1683      	BSF        STATUS, 5
0x01B4	0x00B0      	MOVWF      FARG_Lcd_Out_row
0x01B5	0x3001      	MOVLW      1
0x01B6	0x00B1      	MOVWF      FARG_Lcd_Out_column
0x01B7	0x30A0      	MOVLW      ?lstr5_Lab5
0x01B8	0x00B2      	MOVWF      FARG_Lcd_Out_text
0x01B9	0x2089      	CALL       _Lcd_Out
0x01BA	0x3002      	MOVLW      2
0x01BB	0x1683      	BSF        STATUS, 5
0x01BC	0x00B0      	MOVWF      FARG_Lcd_Out_row
0x01BD	0x3001      	MOVLW      1
0x01BE	0x00B1      	MOVWF      FARG_Lcd_Out_column
0x01BF	0x305E      	MOVLW      ?lstr6_Lab5
0x01C0	0x00B2      	MOVWF      FARG_Lcd_Out_text
0x01C1	0x2089      	CALL       _Lcd_Out
L_main31:
;Lab5.c,38 :: 		if (D==1) { Lcd_Out(1,1,"RB4=1:"); Lcd_Out(2,1,"Ok"); PORTB.RB4=1; };
0x01C2	0x1683      	BSF        STATUS, 5
0x01C3	0x082E      	MOVF       main_D_L0, 0
0x01C4	0x3A01      	XORLW      1
0x01C5	0x1D03      	BTFSS      STATUS, 2
0x01C6	0x29D7      	GOTO       L_main32
0x01C7	0x3001      	MOVLW      1
0x01C8	0x00B0      	MOVWF      FARG_Lcd_Out_row
0x01C9	0x3001      	MOVLW      1
0x01CA	0x00B1      	MOVWF      FARG_Lcd_Out_column
0x01CB	0x302F      	MOVLW      ?lstr7_Lab5
0x01CC	0x00B2      	MOVWF      FARG_Lcd_Out_text
0x01CD	0x2089      	CALL       _Lcd_Out
0x01CE	0x3002      	MOVLW      2
0x01CF	0x1683      	BSF        STATUS, 5
0x01D0	0x00B0      	MOVWF      FARG_Lcd_Out_row
0x01D1	0x3001      	MOVLW      1
0x01D2	0x00B1      	MOVWF      FARG_Lcd_Out_column
0x01D3	0x302C      	MOVLW      ?lstr8_Lab5
0x01D4	0x00B2      	MOVWF      FARG_Lcd_Out_text
0x01D5	0x2089      	CALL       _Lcd_Out
0x01D6	0x1606      	BSF        PORTB, 4
L_main32:
;Lab5.c,39 :: 		if (E==1) { Lcd_Out(1,1,"RB4=0:"); Lcd_Out(2,1,"Ok"); PORTB.RB4=0; };
0x01D7	0x1683      	BSF        STATUS, 5
0x01D8	0x082F      	MOVF       main_E_L0, 0
0x01D9	0x3A01      	XORLW      1
0x01DA	0x1D03      	BTFSS      STATUS, 2
0x01DB	0x29EC      	GOTO       L_main33
0x01DC	0x3001      	MOVLW      1
0x01DD	0x00B0      	MOVWF      FARG_Lcd_Out_row
0x01DE	0x3001      	MOVLW      1
0x01DF	0x00B1      	MOVWF      FARG_Lcd_Out_column
0x01E0	0x3036      	MOVLW      ?lstr9_Lab5
0x01E1	0x00B2      	MOVWF      FARG_Lcd_Out_text
0x01E2	0x2089      	CALL       _Lcd_Out
0x01E3	0x3002      	MOVLW      2
0x01E4	0x1683      	BSF        STATUS, 5
0x01E5	0x00B0      	MOVWF      FARG_Lcd_Out_row
0x01E6	0x3001      	MOVLW      1
0x01E7	0x00B1      	MOVWF      FARG_Lcd_Out_column
0x01E8	0x303D      	MOVLW      ?lstr10_Lab5
0x01E9	0x00B2      	MOVWF      FARG_Lcd_Out_text
0x01EA	0x2089      	CALL       _Lcd_Out
0x01EB	0x1206      	BCF        PORTB, 4
L_main33:
;Lab5.c,40 :: 		}
0x01EC	0x2927      	GOTO       L_main0
;Lab5.c,41 :: 		}
0x01ED	0x29ED      	GOTO       $+0
; end of _main
0x024C	0x3020      	MOVLW      32
0x024D	0x0084      	MOVWF      FSR
0x024E	0x304A      	MOVLW      74
0x024F	0x1283      	BCF        STATUS, 5
0x0250	0x1303      	BCF        STATUS, 6
0x0251	0x00F0      	MOVWF      R0
0x0252	0x30F3      	MOVLW      243
0x0253	0x00EA      	MOVWF      ___DoICPAddr
0x0254	0x3001      	MOVLW      1
0x0255	0x00EB      	MOVWF      107
0x0256	0x207D      	CALL       125
0x0257	0x30A0      	MOVLW      160
0x0258	0x0084      	MOVWF      FSR
0x0259	0x300E      	MOVLW      14
0x025A	0x1283      	BCF        STATUS, 5
0x025B	0x00F0      	MOVWF      R0
0x025C	0x303D      	MOVLW      61
0x025D	0x00EA      	MOVWF      ___DoICPAddr
0x025E	0x3002      	MOVLW      2
0x025F	0x00EB      	MOVWF      107
0x0260	0x207D      	CALL       125
0x0261	0x0008      	RETURN
;Lab5.c,0 :: ?ICS?lstr1_Lab5
0x01F3	0x3453 ;?ICS?lstr1_Lab5+0
0x01F4	0x3465 ;?ICS?lstr1_Lab5+1
0x01F5	0x3474 ;?ICS?lstr1_Lab5+2
0x01F6	0x3461 ;?ICS?lstr1_Lab5+3
0x01F7	0x3472 ;?ICS?lstr1_Lab5+4
0x01F8	0x3465 ;?ICS?lstr1_Lab5+5
0x01F9	0x3420 ;?ICS?lstr1_Lab5+6
0x01FA	0x3452 ;?ICS?lstr1_Lab5+7
0x01FB	0x3442 ;?ICS?lstr1_Lab5+8
0x01FC	0x3434 ;?ICS?lstr1_Lab5+9
0x01FD	0x343A ;?ICS?lstr1_Lab5+10
0x01FE	0x3400 ;?ICS?lstr1_Lab5+11
; end of ?ICS?lstr1_Lab5
;Lab5.c,0 :: ?ICS?lstr8_Lab5
0x01FF	0x344F ;?ICS?lstr8_Lab5+0
0x0200	0x346B ;?ICS?lstr8_Lab5+1
0x0201	0x3400 ;?ICS?lstr8_Lab5+2
; end of ?ICS?lstr8_Lab5
;Lab5.c,0 :: ?ICS?lstr7_Lab5
0x0202	0x3452 ;?ICS?lstr7_Lab5+0
0x0203	0x3442 ;?ICS?lstr7_Lab5+1
0x0204	0x3434 ;?ICS?lstr7_Lab5+2
0x0205	0x343D ;?ICS?lstr7_Lab5+3
0x0206	0x3431 ;?ICS?lstr7_Lab5+4
0x0207	0x343A ;?ICS?lstr7_Lab5+5
0x0208	0x3400 ;?ICS?lstr7_Lab5+6
; end of ?ICS?lstr7_Lab5
;Lab5.c,0 :: ?ICS?lstr9_Lab5
0x0209	0x3452 ;?ICS?lstr9_Lab5+0
0x020A	0x3442 ;?ICS?lstr9_Lab5+1
0x020B	0x3434 ;?ICS?lstr9_Lab5+2
0x020C	0x343D ;?ICS?lstr9_Lab5+3
0x020D	0x3430 ;?ICS?lstr9_Lab5+4
0x020E	0x343A ;?ICS?lstr9_Lab5+5
0x020F	0x3400 ;?ICS?lstr9_Lab5+6
; end of ?ICS?lstr9_Lab5
;Lab5.c,0 :: ?ICS?lstr10_Lab5
0x0210	0x344F ;?ICS?lstr10_Lab5+0
0x0211	0x346B ;?ICS?lstr10_Lab5+1
0x0212	0x3400 ;?ICS?lstr10_Lab5+2
; end of ?ICS?lstr10_Lab5
;Lab5.c,0 :: ?ICS?lstr3_Lab5
0x0213	0x3441 ;?ICS?lstr3_Lab5+0
0x0214	0x3470 ;?ICS?lstr3_Lab5+1
0x0215	0x3472 ;?ICS?lstr3_Lab5+2
0x0216	0x3469 ;?ICS?lstr3_Lab5+3
0x0217	0x346E ;?ICS?lstr3_Lab5+4
0x0218	0x3464 ;?ICS?lstr3_Lab5+5
0x0219	0x3465 ;?ICS?lstr3_Lab5+6
0x021A	0x3472 ;?ICS?lstr3_Lab5+7
0x021B	0x3465 ;?ICS?lstr3_Lab5+8
0x021C	0x3420 ;?ICS?lstr3_Lab5+9
0x021D	0x3452 ;?ICS?lstr3_Lab5+10
0x021E	0x3442 ;?ICS?lstr3_Lab5+11
0x021F	0x3434 ;?ICS?lstr3_Lab5+12
0x0220	0x343A ;?ICS?lstr3_Lab5+13
0x0221	0x3400 ;?ICS?lstr3_Lab5+14
; end of ?ICS?lstr3_Lab5
;Lab5.c,0 :: ?ICS?lstr2_Lab5
0x0222	0x344F ;?ICS?lstr2_Lab5+0
0x0223	0x346B ;?ICS?lstr2_Lab5+1
0x0224	0x3400 ;?ICS?lstr2_Lab5+2
; end of ?ICS?lstr2_Lab5
;Lab5.c,0 :: ?ICS?lstr4_Lab5
0x0225	0x344F ;?ICS?lstr4_Lab5+0
0x0226	0x346B ;?ICS?lstr4_Lab5+1
0x0227	0x3420 ;?ICS?lstr4_Lab5+2
0x0228	0x343E ;?ICS?lstr4_Lab5+3
0x0229	0x3420 ;?ICS?lstr4_Lab5+4
0x022A	0x3443 ;?ICS?lstr4_Lab5+5
0x022B	0x3461 ;?ICS?lstr4_Lab5+6
0x022C	0x346E ;?ICS?lstr4_Lab5+7
0x022D	0x3463 ;?ICS?lstr4_Lab5+8
0x022E	0x3465 ;?ICS?lstr4_Lab5+9
0x022F	0x346C ;?ICS?lstr4_Lab5+10
0x0230	0x3400 ;?ICS?lstr4_Lab5+11
; end of ?ICS?lstr4_Lab5
;Lab5.c,0 :: ?ICS?lstr6_Lab5
0x0231	0x344F ;?ICS?lstr6_Lab5+0
0x0232	0x346B ;?ICS?lstr6_Lab5+1
0x0233	0x3420 ;?ICS?lstr6_Lab5+2
0x0234	0x343C ;?ICS?lstr6_Lab5+3
0x0235	0x3420 ;?ICS?lstr6_Lab5+4
0x0236	0x3443 ;?ICS?lstr6_Lab5+5
0x0237	0x3461 ;?ICS?lstr6_Lab5+6
0x0238	0x346E ;?ICS?lstr6_Lab5+7
0x0239	0x3463 ;?ICS?lstr6_Lab5+8
0x023A	0x3465 ;?ICS?lstr6_Lab5+9
0x023B	0x346C ;?ICS?lstr6_Lab5+10
0x023C	0x3400 ;?ICS?lstr6_Lab5+11
; end of ?ICS?lstr6_Lab5
;Lab5.c,0 :: ?ICS?lstr5_Lab5
0x023D	0x3453 ;?ICS?lstr5_Lab5+0
0x023E	0x3474 ;?ICS?lstr5_Lab5+1
0x023F	0x3469 ;?ICS?lstr5_Lab5+2
0x0240	0x346E ;?ICS?lstr5_Lab5+3
0x0241	0x3467 ;?ICS?lstr5_Lab5+4
0x0242	0x3465 ;?ICS?lstr5_Lab5+5
0x0243	0x3472 ;?ICS?lstr5_Lab5+6
0x0244	0x3465 ;?ICS?lstr5_Lab5+7
0x0245	0x3420 ;?ICS?lstr5_Lab5+8
0x0246	0x3452 ;?ICS?lstr5_Lab5+9
0x0247	0x3442 ;?ICS?lstr5_Lab5+10
0x0248	0x3434 ;?ICS?lstr5_Lab5+11
0x0249	0x343A ;?ICS?lstr5_Lab5+12
0x024A	0x3400 ;?ICS?lstr5_Lab5+13
; end of ?ICS?lstr5_Lab5
Symbol List:
//** Routines locations **
//ADDRESS    SIZE    PROCEDURE
//----------------------------------------------
0x0005       [1]    _Delay_1us
0x0006       [9]    _Delay_5500us
0x000F       [7]    _Delay_50us
0x0016      [87]    _Lcd_Cmd
0x006D       [9]    _Lcd_Chr_CP
0x0076       [7]    _____DoICP
0x007D      [12]    ___CC2DW
0x0089      [67]    _Lcd_Out
0x00CC      [78]    _Lcd_Init
0x011A     [211]    _main
//** Variables locations ** 
//ADDRESS    SIZE    VARIABLE
//----------------------------------------------
0x0000       [1]    INDF
0x0001       [1]    TMR0
0x0002       [1]    PCL
0x0003       [1]    STATUS
0x0003       [0]    NOT_TO_bit
0x0003       [0]    NOT_PD_bit
0x0003       [0]    RP0_bit
0x0003       [0]    IRP_bit
0x0003       [0]    RP1_bit
0x0003       [0]    C_bit
0x0003       [0]    DC_bit
0x0003       [0]    Z_bit
0x0004       [1]    FSR
0x0004       [1]    FSRPTR
0x0005       [0]    RA3_bit
0x0005       [0]    RA4_bit
0x0005       [0]    RA5_bit
0x0005       [0]    RA0_bit
0x0005       [0]    RA1_bit
0x0005       [0]    RA2_bit
0x0005       [0]    RA6_bit
0x0005       [1]    PORTA
0x0005       [0]    RA7_bit
0x0006       [0]    RB3_bit
0x0006       [0]    RB4_bit
0x0006       [0]    RB1_bit
0x0006       [0]    RB0_bit
0x0006       [0]    RB2_bit
0x0006       [0]    RB5_bit
0x0006       [1]    PORTB
0x0006       [0]    RB6_bit
0x0006       [0]    RB7_bit
0x0007       [1]    PORTC
0x0007       [0]    RC7_bit
0x0007       [0]    RC2_bit
0x0007       [0]    RC1_bit
0x0007       [0]    RC0_bit
0x0007       [0]    RC3_bit
0x0007       [0]    RC6_bit
0x0007       [0]    RC5_bit
0x0007       [0]    RC4_bit
0x0008       [0]    RD1_bit
0x0008       [1]    PORTD
0x0008       [0]    RD2_bit
0x0008       [0]    RD0_bit
0x0008       [0]    LCD_RS
0x0008       [0]    LCD_EN
0x0008       [0]    LCD_D4
0x0008       [0]    LCD_D5
0x0008       [0]    RD6_bit
0x0008       [0]    RD7_bit
0x0008       [0]    LCD_D7
0x0008       [0]    LCD_D6
0x0008       [0]    RD3_bit
0x0008       [0]    RD4_bit
0x0008       [0]    RD5_bit
0x0009       [0]    RE1_bit
0x0009       [0]    RE0_bit
0x0009       [0]    RE2_bit
0x0009       [1]    PORTE
0x0009       [0]    RE3_bit
0x000A       [1]    PCLATH
0x000B       [0]    PEIE_bit
0x000B       [0]    TMR0IF_bit
0x000B       [0]    INTF_bit
0x000B       [1]    INTCON
0x000B       [0]    RBIF_bit
0x000B       [0]    T0IF_bit
0x000B       [0]    T0IE_bit
0x000B       [0]    GIE_bit
0x000B       [0]    TMR0IE_bit
0x000B       [0]    RBIE_bit
0x000B       [0]    INTE_bit
0x000C       [0]    SSPIF_bit
0x000C       [0]    TXIF_bit
0x000C       [0]    TMR1IF_bit
0x000C       [0]    TMR2IF_bit
0x000C       [0]    CCP1IF_bit
0x000C       [1]    PIR1
0x000C       [0]    ADIF_bit
0x000C       [0]    EEIF_bit
0x000C       [0]    RCIF_bit
0x000D       [0]    C1IF_bit
0x000D       [0]    C2IF_bit
0x000D       [0]    LCDIF_bit
0x000D       [0]    CCP2IF_bit
0x000D       [0]    LVDIF_bit
0x000D       [1]    PIR2
0x000D       [0]    OSFIF_bit
0x000E       [1]    TMR1L
0x000F       [1]    TMR1H
0x0010       [0]    T1CKPS1_bit
0x0010       [0]    T1CKPS0_bit
0x0010       [0]    T1GINV_bit
0x0010       [0]    T1GE_bit
0x0010       [0]    T1OSCEN_bit
0x0010       [0]    T1SYNC_bit
0x0010       [0]    T1INSYNC_bit
0x0010       [0]    TMR1CS_bit
0x0010       [1]    T1CON
0x0010       [0]    TMR1ON_bit
0x0010       [0]    NOT_T1SYNC_bit
0x0011       [1]    TMR2
0x0012       [0]    TOUTPS1_bit
0x0012       [1]    T2CON
0x0012       [0]    TMR2ON_bit
0x0012       [0]    TOUTPS0_bit
0x0012       [0]    TOUTPS2_bit
0x0012       [0]    T2CKPS1_bit
0x0012       [0]    T2CKPS0_bit
0x0012       [0]    TOUTPS3_bit
0x0013       [1]    SSPBUF
0x0014       [0]    SSPEN_bit
0x0014       [1]    SSPCON
0x0014       [0]    SSPOV_bit
0x0014       [0]    WCOL_bit
0x0014       [0]    CKP_bit
0x0014       [0]    SSPM0_bit
0x0014       [0]    SSPM1_bit
0x0014       [0]    SSPM2_bit
0x0014       [0]    SSPM3_bit
0x0015       [2]    CCPR1
0x0015       [1]    CCPR1L
0x0016       [1]    CCPR1H
0x0017       [0]    CCP1Y_bit
0x0017       [0]    CCP1M2_bit
0x0017       [0]    CCP1M3_bit
0x0017       [0]    CCP1M1_bit
0x0017       [0]    CCP1X_bit
0x0017       [0]    CCP1M0_bit
0x0017       [1]    CCP1CON
0x0018       [0]    RC8_9_bit
0x0018       [0]    NOT_RC8_bit
0x0018       [1]    RCSTA
0x0018       [0]    SPEN_bit
0x0018       [0]    RC9_bit
0x0018       [0]    RX9_bit
0x0018       [0]    FERR_bit
0x0018       [0]    OERR_bit
0x0018       [0]    CREN_bit
0x0018       [0]    RX9D_bit
0x0018       [0]    RCD8_bit
0x0018       [0]    ADDEN_bit
0x0018       [0]    SREN_bit
0x0019       [1]    TXREG
0x001A       [1]    RCREG
0x001B       [1]    CCPR2L
0x001C       [1]    CCPR2H
0x001D       [0]    CCP2X_bit
0x001D       [0]    CCP2M1_bit
0x001D       [0]    CCP2M0_bit
0x001D       [0]    CCP2Y_bit
0x001D       [0]    CCP2M3_bit
0x001D       [0]    CCP2M2_bit
0x001D       [1]    CCP2CON
0x001E       [1]    ADRESH
0x001F       [0]    ADFM_bit
0x001F       [0]    ADON_bit
0x001F       [0]    GO_bit
0x001F       [1]    ADCON0
0x001F       [0]    VCFG0_bit
0x001F       [0]    NOT_DONE_bit
0x001F       [0]    CHS1_bit
0x001F       [0]    CHS0_bit
0x001F       [0]    CHS2_bit
0x001F       [0]    VCFG1_bit
0x001F       [0]    GO_DONE_bit
0x0020      [12]    ?lstr1_Lab5
0x002C       [3]    ?lstr8_Lab5
0x002F       [7]    ?lstr7_Lab5
0x0036       [7]    ?lstr9_Lab5
0x003D       [3]    ?lstr10_Lab5
0x0040      [15]    ?lstr3_Lab5
0x004F       [3]    ?lstr2_Lab5
0x0052      [12]    ?lstr4_Lab5
0x005E      [12]    ?lstr6_Lab5
0x006A       [2]    ___DoICPAddr
0x006C       [0]    __Lib_Lcd_cmd_status
0x006D       [1]    main_A_L0
0x006E       [1]    main_B_L0
0x006F       [1]    main_C_L0
0x0070       [1]    R0
0x0071       [1]    R1
0x0072       [1]    R2
0x0073       [1]    R3
0x0074       [1]    R4
0x0075       [1]    R5
0x0076       [1]    R6
0x0077       [1]    R7
0x0078       [1]    R8
0x0079       [1]    R9
0x007A       [1]    R10
0x007B       [1]    R11
0x007C       [1]    R12
0x007D       [1]    R13
0x007E       [1]    R14
0x007F       [1]    R15
0x0081       [0]    T0SE_bit
0x0081       [0]    NOT_RBPU_bit
0x0081       [0]    T0CS_bit
0x0081       [0]    INTEDG_bit
0x0081       [0]    PSA_bit
0x0081       [0]    PS0_bit
0x0081       [1]    OPTION_REG
0x0081       [0]    PS2_bit
0x0081       [0]    PS1_bit
0x0085       [0]    TRISA3_bit
0x0085       [0]    TRISA4_bit
0x0085       [0]    TRISA2_bit
0x0085       [0]    TRISA0_bit
0x0085       [0]    TRISA1_bit
0x0085       [0]    TRISA7_bit
0x0085       [1]    TRISA
0x0085       [0]    TRISA5_bit
0x0085       [0]    TRISA6_bit
0x0086       [0]    TRISB6_bit
0x0086       [0]    TRISB5_bit
0x0086       [1]    TRISB
0x0086       [0]    TRISB7_bit
0x0086       [0]    TRISB1_bit
0x0086       [0]    TRISB0_bit
0x0086       [0]    TRISB2_bit
0x0086       [0]    TRISB4_bit
0x0086       [0]    TRISB3_bit
0x0087       [1]    TRISC
0x0087       [0]    TRISC2_bit
0x0087       [0]    TRISC0_bit
0x0087       [0]    TRISC1_bit
0x0087       [0]    TRISC3_bit
0x0087       [0]    TRISC6_bit
0x0087       [0]    TRISC7_bit
0x0087       [0]    TRISC4_bit
0x0087       [0]    TRISC5_bit
0x0088       [0]    TRISD3_bit
0x0088       [0]    TRISD4_bit
0x0088       [0]    TRISD5_bit
0x0088       [0]    TRISD0_bit
0x0088       [1]    TRISD
0x0088       [0]    TRISD2_bit
0x0088       [0]    TRISD1_bit
0x0088       [0]    TRISD6_bit
0x0088       [0]    LCD_D4_Direction
0x0088       [0]    LCD_EN_Direction
0x0088       [0]    LCD_RS_Direction
0x0088       [0]    LCD_D5_Direction
0x0088       [0]    TRISD7_bit
0x0088       [0]    LCD_D7_Direction
0x0088       [0]    LCD_D6_Direction
0x0089       [1]    TRISE
0x0089       [0]    TRISE0_bit
0x0089       [0]    TRISE1_bit
0x0089       [0]    TRISE3_bit
0x0089       [0]    TRISE2_bit
0x008C       [0]    RCIE_bit
0x008C       [0]    TXIE_bit
0x008C       [0]    EEIE_bit
0x008C       [0]    ADIE_bit
0x008C       [0]    SSPIE_bit
0x008C       [0]    TMR1IE_bit
0x008C       [1]    PIE1
0x008C       [0]    CCP1IE_bit
0x008C       [0]    TMR2IE_bit
0x008D       [0]    LVDIE_bit
0x008D       [0]    CCP2IE_bit
0x008D       [1]    PIE2
0x008D       [0]    LCDIE_bit
0x008D       [0]    OSFIE_bit
0x008D       [0]    C2IE_bit
0x008D       [0]    C1IE_bit
0x008E       [0]    NOT_BOR_bit
0x008E       [1]    PCON
0x008E       [0]    SBOREN_bit
0x008E       [0]    NOT_POR_bit
0x008E       [0]    NOT_BO_bit
0x008F       [0]    LTS_bit
0x008F       [1]    OSCCON
0x008F       [0]    SCS_bit
0x008F       [0]    HTS_bit
0x008F       [0]    IRCF0_bit
0x008F       [0]    IRCF1_bit
0x008F       [0]    IRCF2_bit
0x008F       [0]    OSTS_bit
0x0090       [0]    TUN1_bit
0x0090       [0]    TUN2_bit
0x0090       [0]    TUN0_bit
0x0090       [1]    OSCTUNE
0x0090       [0]    TUN4_bit
0x0090       [0]    TUN3_bit
0x0091       [0]    ANS2_bit
0x0091       [0]    AN2_bit
0x0091       [0]    ANS3_bit
0x0091       [0]    AN3_bit
0x0091       [0]    ANS0_bit
0x0091       [0]    AN0_bit
0x0091       [0]    ANS1_bit
0x0091       [0]    AN1_bit
0x0091       [0]    AN4_bit
0x0091       [0]    AN7_bit
0x0091       [0]    ANS6_bit
0x0091       [1]    ANSEL
0x0091       [0]    ANS7_bit
0x0091       [0]    AN5_bit
0x0091       [0]    ANS4_bit
0x0091       [0]    AN6_bit
0x0091       [0]    ANS5_bit
0x0092       [1]    PR2
0x0093       [1]    SSPADD
0x0094       [0]    UA_bit
0x0094       [0]    P_bit
0x0094       [0]    READ_WRITE_bit
0x0094       [0]    I2C_DATA_bit
0x0094       [0]    D_A_bit
0x0094       [0]    BF_bit
0x0094       [0]    DATA_ADDRESS_bit
0x0094       [0]    R_W_bit
0x0094       [0]    I2C_READ_bit
0x0094       [0]    I2C_START__bit
0x0094       [0]    R_bit
0x0094       [0]    S_bit
0x0094       [0]    I2C_STOP__bit
0x0094       [0]    NOT_WRITE_bit
0x0094       [0]    NOT_W_bit
0x0094       [1]    SSPSTAT
0x0094       [0]    NOT_A_bit
0x0094       [0]    NOT_ADDRESS_bit
0x0094       [0]    D_bit
0x0094       [0]    CKE_bit
0x0094       [0]    SMP_bit
0x0095       [0]    WPUB4_bit
0x0095       [0]    WPUB1_bit
0x0095       [0]    WPUB2_bit
0x0095       [1]    WPU
0x0095       [0]    WPUB0_bit
0x0095       [0]    WPUB7_bit
0x0095       [0]    WPUB6_bit
0x0095       [1]    WPUB
0x0095       [0]    WPUB3_bit
0x0095       [0]    WPUB5_bit
0x0096       [0]    IOCB6_bit
0x0096       [1]    IOCB
0x0096       [0]    IOCB5_bit
0x0096       [1]    IOC
0x0096       [0]    IOCB4_bit
0x0096       [0]    IOCB7_bit
0x0097       [1]    CMCON1
0x0097       [0]    T1GSS_bit
0x0097       [0]    C2SYNC_bit
0x0098       [0]    TXD8_bit
0x0098       [0]    TXEN_bit
0x0098       [0]    TX9_bit
0x0098       [0]    CSRC_bit
0x0098       [0]    TX8_9_bit
0x0098       [0]    TX9D_bit
0x0098       [0]    NOT_TX8_bit
0x0098       [0]    BRGH_bit
0x0098       [0]    SYNC_bit
0x0098       [0]    TRMT_bit
0x0098       [1]    TXSTA
0x0099       [1]    SPBRG
0x009C       [0]    CM1_bit
0x009C       [0]    C2OUT_bit
0x009C       [1]    CMCON0
0x009C       [0]    C1OUT_bit
0x009C       [0]    CM2_bit
0x009C       [0]    CM0_bit
0x009C       [0]    C1INV_bit
0x009C       [0]    CIS_bit
0x009C       [0]    C2INV_bit
0x009D       [0]    VRR_bit
0x009D       [0]    VR0_bit
0x009D       [1]    VRCON
0x009D       [0]    VR3_bit
0x009D       [0]    VR2_bit
0x009D       [0]    VR1_bit
0x009D       [0]    VREN_bit
0x009E       [1]    ADRESL
0x009F       [1]    ADCON1
0x009F       [0]    ADCS1_bit
0x009F       [0]    ADCS0_bit
0x009F       [0]    ADCS2_bit
0x00A0      [14]    ?lstr5_Lab5
0x00AE       [1]    main_D_L0
0x00AF       [1]    main_E_L0
0x00B0       [1]    FARG_Lcd_Out_row
0x00B1       [1]    FARG_Lcd_Out_column
0x00B2       [1]    FARG_Lcd_Out_text
0x00B3       [1]    Lcd_Out_i_L0
0x00B4       [1]    FARG_Lcd_Chr_CP_out_char
0x00B5       [1]    FARG_Lcd_Cmd_out_char
0x0105       [0]    SWDTEN_bit
0x0105       [1]    WDTCON
0x0105       [0]    SWDTE_bit
0x0105       [0]    WDTPS0_bit
0x0105       [0]    WDTPS3_bit
0x0105       [0]    WDTPS2_bit
0x0105       [0]    WDTPS1_bit
0x0107       [0]    CS0_bit
0x0107       [1]    LCDCON
0x0107       [0]    LMUX1_bit
0x0107       [0]    CS1_bit
0x0107       [0]    SLPEN_bit
0x0107       [0]    LCDEN_bit
0x0107       [0]    VLCDEN_bit
0x0107       [0]    WERR_bit
0x0107       [0]    LMUX0_bit
0x0108       [0]    LP3_bit
0x0108       [0]    WA_bit
0x0108       [0]    LP2_bit
0x0108       [0]    LP0_bit
0x0108       [0]    LP1_bit
0x0108       [0]    LCDA_bit
0x0108       [0]    WFT_bit
0x0108       [1]    LCDPS
0x0108       [0]    BIASMD_bit
0x0109       [0]    IRVST_bit
0x0109       [0]    LVDL1_bit
0x0109       [0]    LVDL0_bit
0x0109       [0]    LVDEN_bit
0x0109       [0]    LVDL2_bit
0x0109       [1]    LVDCON
0x010C       [1]    EEDATL
0x010C       [1]    EEDATA
0x010D       [0]    EEADRL5_bit
0x010D       [0]    EEADRL6_bit
0x010D       [1]    EEADRL
0x010D       [0]    EEADRL7_bit
0x010D       [0]    EEADRL4_bit
0x010D       [0]    EEADRL1_bit
0x010D       [0]    EEADRL0_bit
0x010D       [0]    EEADRL2_bit
0x010D       [1]    EEADR
0x010D       [0]    EEADRL3_bit
0x010E       [1]    EEDATH
0x010F       [0]    EEADRH3_bit
0x010F       [0]    EEADRH4_bit
0x010F       [1]    EEADRH
0x010F       [0]    EEADRH0_bit
0x010F       [0]    EEADRH1_bit
0x010F       [0]    EEADRH2_bit
0x0110       [1]    LCDDATA0
0x0110       [0]    S4C0_bit
0x0110       [0]    S3C0_bit
0x0110       [0]    S6C0_bit
0x0110       [0]    S5C0_bit
0x0110       [0]    S0C0_bit
0x0110       [0]    SEG7COM0_bit
0x0110       [0]    S2C0_bit
0x0110       [0]    S1C0_bit
0x0110       [0]    SEG4COM0_bit
0x0110       [0]    SEG3COM0_bit
0x0110       [0]    SEG6COM0_bit
0x0110       [0]    SEG5COM0_bit
0x0110       [0]    SEG0COM0_bit
0x0110       [0]    S7C0_bit
0x0110       [0]    SEG2COM0_bit
0x0110       [0]    SEG1COM0_bit
0x0111       [0]    S13C0_bit
0x0111       [0]    S12C0_bit
0x0111       [0]    S15C0_bit
0x0111       [0]    S14C0_bit
0x0111       [0]    S9C0_bit
0x0111       [1]    LCDDATA1
0x0111       [0]    S11C0_bit
0x0111       [0]    S10C0_bit
0x0111       [0]    SEG13COM0_bit
0x0111       [0]    SEG12COM0_bit
0x0111       [0]    SEG15COM0_bit
0x0111       [0]    SEG14COM0_bit
0x0111       [0]    SEG9COM0_bit
0x0111       [0]    SEG8COM0_bit
0x0111       [0]    SEG11COM0_bit
0x0111       [0]    SEG10COM0_bit
0x0111       [0]    S8C0_bit
0x0112       [0]    S22C0_bit
0x0112       [0]    S21C0_bit
0x0112       [0]    SEG16COM0_bit
0x0112       [0]    S23C0_bit
0x0112       [0]    S20C0_bit
0x0112       [0]    S16C0_bit
0x0112       [0]    S17C0_bit
0x0112       [0]    S19C0_bit
0x0112       [0]    S18C0_bit
0x0112       [0]    SEG17COM0_bit
0x0112       [0]    SEG22COM0_bit
0x0112       [0]    SEG23COM0_bit
0x0112       [1]    LCDDATA2
0x0112       [0]    SEG21COM0_bit
0x0112       [0]    SEG18COM0_bit
0x0112       [0]    SEG19COM0_bit
0x0112       [0]    SEG20COM0_bit
0x0113       [0]    SEG4COM1_bit
0x0113       [0]    SEG5COM1_bit
0x0113       [0]    SEG2COM1_bit
0x0113       [0]    SEG3COM1_bit
0x0113       [1]    LCDDATA3
0x0113       [0]    S2C1_bit
0x0113       [0]    SEG6COM1_bit
0x0113       [0]    SEG7COM1_bit
0x0113       [0]    SEG1COM1_bit
0x0113       [0]    S3C1_bit
0x0113       [0]    S4C1_bit
0x0113       [0]    S0C1_bit
0x0113       [0]    S1C1_bit
0x0113       [0]    S7C1_bit
0x0113       [0]    SEG0COM1_bit
0x0113       [0]    S5C1_bit
0x0113       [0]    S6C1_bit
0x0114       [1]    LCDDATA4
0x0114       [0]    S13C1_bit
0x0114       [0]    S12C1_bit
0x0114       [0]    S15C1_bit
0x0114       [0]    S14C1_bit
0x0114       [0]    S9C1_bit
0x0114       [0]    S8C1_bit
0x0114       [0]    S11C1_bit
0x0114       [0]    S10C1_bit
0x0114       [0]    SEG13COM1_bit
0x0114       [0]    SEG12COM1_bit
0x0114       [0]    SEG15COM1_bit
0x0114       [0]    SEG14COM1_bit
0x0114       [0]    SEG9COM1_bit
0x0114       [0]    SEG8COM1_bit
0x0114       [0]    SEG11COM1_bit
0x0114       [0]    SEG10COM1_bit
0x0115       [0]    S20C1_bit
0x0115       [0]    S19C1_bit
0x0115       [0]    S22C1_bit
0x0115       [0]    S21C1_bit
0x0115       [0]    S16C1_bit
0x0115       [1]    LCDDATA5
0x0115       [0]    S18C1_bit
0x0115       [0]    S17C1_bit
0x0115       [0]    S23C1_bit
0x0115       [0]    SEG21COM1_bit
0x0115       [0]    SEG20COM1_bit
0x0115       [0]    SEG23COM1_bit
0x0115       [0]    SEG22COM1_bit
0x0115       [0]    SEG17COM1_bit
0x0115       [0]    SEG16COM1_bit
0x0115       [0]    SEG19COM1_bit
0x0115       [0]    SEG18COM1_bit
0x0116       [0]    S4C2_bit
0x0116       [0]    S3C2_bit
0x0116       [0]    S6C2_bit
0x0116       [0]    S5C2_bit
0x0116       [0]    S0C2_bit
0x0116       [1]    LCDDATA6
0x0116       [0]    S2C2_bit
0x0116       [0]    S1C2_bit
0x0116       [0]    SEG5COM2_bit
0x0116       [0]    SEG4COM2_bit
0x0116       [0]    SEG7COM2_bit
0x0116       [0]    SEG6COM2_bit
0x0116       [0]    SEG3COM2_bit
0x0116       [0]    SEG0COM2_bit
0x0116       [0]    S7C2_bit
0x0116       [0]    SEG2COM2_bit
0x0116       [0]    SEG1COM2_bit
0x0117       [0]    S11C2_bit
0x0117       [0]    S12C2_bit
0x0117       [0]    S13C2_bit
0x0117       [0]    S10C2_bit
0x0117       [1]    LCDDATA7
0x0117       [0]    S8C2_bit
0x0117       [0]    S9C2_bit
0x0117       [0]    S14C2_bit
0x0117       [0]    SEG13COM2_bit
0x0117       [0]    SEG12COM2_bit
0x0117       [0]    SEG15COM2_bit
0x0117       [0]    SEG14COM2_bit
0x0117       [0]    SEG11COM2_bit
0x0117       [0]    SEG8COM2_bit
0x0117       [0]    S15C2_bit
0x0117       [0]    SEG10COM2_bit
0x0117       [0]    SEG9COM2_bit
0x0118       [0]    S19C2_bit
0x0118       [0]    S20C2_bit
0x0118       [0]    S21C2_bit
0x0118       [0]    S18C2_bit
0x0118       [1]    LCDDATA8
0x0118       [0]    S16C2_bit
0x0118       [0]    S17C2_bit
0x0118       [0]    SEG20COM2_bit
0x0118       [0]    SEG19COM2_bit
0x0118       [0]    SEG21COM2_bit
0x0118       [0]    SEG23COM2_bit
0x0118       [0]    SEG22COM2_bit
0x0118       [0]    SEG16COM2_bit
0x0118       [0]    S23C2_bit
0x0118       [0]    S22C2_bit
0x0118       [0]    SEG18COM2_bit
0x0118       [0]    SEG17COM2_bit
0x0119       [0]    S2C3_bit
0x0119       [0]    S3C3_bit
0x0119       [0]    S4C3_bit
0x0119       [1]    LCDDATA9
0x0119       [0]    S0C3_bit
0x0119       [0]    S1C3_bit
0x0119       [0]    S5C3_bit
0x0119       [0]    SEG7COM3_bit
0x0119       [0]    SEG3COM3_bit
0x0119       [0]    SEG6COM3_bit
0x0119       [0]    SEG4COM3_bit
0x0119       [0]    SEG5COM3_bit
0x0119       [0]    S7C3_bit
0x0119       [0]    S6C3_bit
0x0119       [0]    SEG0COM3_bit
0x0119       [0]    SEG2COM3_bit
0x0119       [0]    SEG1COM3_bit
0x011A       [0]    S14C3_bit
0x011A       [1]    LCDDATA10
0x011A       [0]    S9C3_bit
0x011A       [0]    S8C3_bit
0x011A       [0]    S10C3_bit
0x011A       [0]    S13C3_bit
0x011A       [0]    S12C3_bit
0x011A       [0]    S11C3_bit
0x011A       [0]    SEG10COM3_bit
0x011A       [0]    SEG9COM3_bit
0x011A       [0]    SEG8COM3_bit
0x011A       [0]    SEG11COM3_bit
0x011A       [0]    SEG14COM3_bit
0x011A       [0]    SEG13COM3_bit
0x011A       [0]    SEG12COM3_bit
0x011A       [0]    SEG15COM3_bit
0x011A       [0]    S15C3_bit
0x011B       [0]    S22C3_bit
0x011B       [0]    S21C3_bit
0x011B       [0]    SEG17COM3_bit
0x011B       [0]    SEG16COM3_bit
0x011B       [0]    S23C3_bit
0x011B       [0]    S19C3_bit
0x011B       [0]    S20C3_bit
0x011B       [0]    S18C3_bit
0x011B       [0]    S16C3_bit
0x011B       [0]    S17C3_bit
0x011B       [0]    SEG18COM3_bit
0x011B       [0]    SEG22COM3_bit
0x011B       [0]    SEG23COM3_bit
0x011B       [1]    LCDDATA11
0x011B       [0]    SEG19COM3_bit
0x011B       [0]    SEG20COM3_bit
0x011B       [0]    SEG21COM3_bit
0x011C       [0]    SEGEN6_bit
0x011C       [0]    SEGEN5_bit
0x011C       [0]    SE1_bit
0x011C       [0]    SE0_bit
0x011C       [0]    SEGEN7_bit
0x011C       [0]    SEGEN1_bit
0x011C       [0]    SEGEN0_bit
0x011C       [0]    SEGEN2_bit
0x011C       [0]    SEGEN4_bit
0x011C       [0]    SEGEN3_bit
0x011C       [0]    SE6_bit
0x011C       [0]    SE7_bit
0x011C       [1]    LCDSE0
0x011C       [0]    SE5_bit
0x011C       [0]    SE2_bit
0x011C       [0]    SE3_bit
0x011C       [0]    SE4_bit
0x011D       [0]    SEGEN14_bit
0x011D       [0]    SEGEN13_bit
0x011D       [0]    SE8_bit
0x011D       [0]    SEGEN15_bit
0x011D       [0]    SEGEN12_bit
0x011D       [0]    SEGEN9_bit
0x011D       [0]    SEGEN8_bit
0x011D       [0]    SEGEN11_bit
0x011D       [0]    SEGEN10_bit
0x011D       [0]    SE9_bit
0x011D       [0]    SE14_bit
0x011D       [0]    SE15_bit
0x011D       [1]    LCDSE1
0x011D       [0]    SE13_bit
0x011D       [0]    SE10_bit
0x011D       [0]    SE11_bit
0x011D       [0]    SE12_bit
0x011E       [0]    SEGEN22_bit
0x011E       [0]    SEGEN21_bit
0x011E       [0]    SE16_bit
0x011E       [0]    SEGEN23_bit
0x011E       [0]    SEGEN20_bit
0x011E       [0]    SEGEN17_bit
0x011E       [0]    SEGEN16_bit
0x011E       [0]    SEGEN19_bit
0x011E       [0]    SEGEN18_bit
0x011E       [0]    SE22_bit
0x011E       [0]    SE21_bit
0x011E       [1]    LCDSE2
0x011E       [0]    SE23_bit
0x011E       [0]    SE18_bit
0x011E       [0]    SE17_bit
0x011E       [0]    SE20_bit
0x011E       [0]    SE19_bit
0x018C       [0]    EEWR_bit
0x018C       [0]    WR_bit
0x018C       [0]    EERD_bit
0x018C       [0]    RD_bit
0x018C       [0]    EEPGD_bit
0x018C       [1]    EECON1
0x018C       [0]    WREN_bit
0x018C       [0]    WRERR_bit
0x018D       [1]    EECON2
//** Constants locations ** 
//ADDRESS    SIZE    CONSTANT
//----------------------------------------------
0x01F3      [12]    ?ICS?lstr1_Lab5
0x01FF       [3]    ?ICS?lstr8_Lab5
0x0202       [7]    ?ICS?lstr7_Lab5
0x0209       [7]    ?ICS?lstr9_Lab5
0x0210       [3]    ?ICS?lstr10_Lab5
0x0213      [15]    ?ICS?lstr3_Lab5
0x0222       [3]    ?ICS?lstr2_Lab5
0x0225      [12]    ?ICS?lstr4_Lab5
0x0231      [12]    ?ICS?lstr6_Lab5
0x023D      [14]    ?ICS?lstr5_Lab5
//** Label List: ** 
//----------------------------------------------
  L_main0
  L_main1
  L_main2
  L_main3
  L_main4
  L_main5
  L_main6
  L_main7
  L_main8
  L_main9
  L_main10
  L_main11
  L_main12
  L_main13
  L_main14
  L_main15
  L_main16
  L_main17
  L_main18
  L_main19
  L_main20
  L_main21
  L_main22
  L_main23
  L_main24
  L_main25
  L_main26
  L_main27
  L_main28
  L_main29
  L_main30
  L_main31
  L_main32
  L_main33
  L__main34
  L__main35
  L__main36
  L__main37
  L__main38
  L__main39
  L__main40
  L__main41
  L__main42
  _main
  L_Delay_1us0
  L_Delay_10us1
  L_Delay_22us2
  L_Delay_50us3
  L_Delay_80us4
  L_Delay_500us5
  L_Delay_5500us6
  L_Delay_8ms7
  L_Delay_5ms8
  L_Delay_100ms9
  L_Delay_1sec10
  L_boot16_Delay_5ms11
  L_Delay_Cyc12
  L_Delay_Cyc13
  L_VDelay_ms14
  L_VDelay_ms15
  L_VDelay_ms16
  L_VDelay_Advanced_ms17
  L_VDelay_Advanced_ms18
  L_VDelay_Advanced_ms19
  _Get_Fosc_kHz
  _Delay_1us
  _Delay_10us
  _Delay_22us
  _Delay_50us
  _Delay_80us
  _Delay_500us
  _Delay_5500us
  _Delay_8ms
  _Delay_5ms
  _Delay_100ms
  _Delay_1sec
  _boot16_Delay_5ms
  _Delay_Cyc
  _VDelay_ms
  L__VDelay_ms20
  L__VDelay_ms21
  L__VDelay_ms22
  _VDelay_Advanced_ms
  L__VDelay_Advanced_ms23
  L__VDelay_Advanced_ms24
  L__VDelay_Advanced_ms25
  L_Lcd_Cmd0
  L_Lcd_Cmd1
  L_Lcd_Out_CP2
  L_Lcd_Out_CP3
  L_Lcd_Chr4
  L_Lcd_Chr5
  L_Lcd_Chr6
  L_Lcd_Chr7
  L_Lcd_Chr8
  L_Lcd_Chr9
  L_Lcd_Chr10
  L_Lcd_Out11
  L_Lcd_Out12
  L_Lcd_Out13
  L_Lcd_Out14
  L_Lcd_Out15
  L_Lcd_Out16
  L_Lcd_Out17
  L_Lcd_Out18
  L_Lcd_Out19
  _Lcd_Cmd
  L__Lcd_Cmd20
  L__Lcd_Cmd21
  L__Lcd_Cmd22
  L__Lcd_Cmd23
  L__Lcd_Cmd24
  L__Lcd_Cmd25
  L__Lcd_Cmd26
  L__Lcd_Cmd27
  L__Lcd_Cmd28
  L__Lcd_Cmd29
  L__Lcd_Cmd30
  L__Lcd_Cmd31
  L__Lcd_Cmd32
  L__Lcd_Cmd33
  L__Lcd_Cmd34
  L__Lcd_Cmd35
  L__Lcd_Cmd36
  L__Lcd_Cmd37
  L__Lcd_Cmd38
  L__Lcd_Cmd39
  _Lcd_Chr_CP
  _Lcd_Out_CP
  _Lcd_Chr
  _Lcd_Init
  _Lcd_Out
  _CC2D_Loop1
  _____DoICP
  _____DoIFC
  ___CC2DW
  _Swap
