unit Unit1;

interface

uses
  Windows, Messages, SysUtils, Variants, Classes, Graphics, Controls, Forms,
  Dialogs, ExtCtrls;

type
  TForm1 = class(TForm)
    Image1: TImage;
    Timer1: TTimer;
    procedure timer1timer(sender:tobject);
  private
    { Private declarations }
  public
    { Public declarations }
  end;

var
  Form1: TForm1;
  aux2,aux,retract,x,t,tDown,tDown2,tDown3,tLeft,tLeft2,mLeft,mLeft2 : Integer;
  directie : boolean = true;
  dirx : boolean = true;

const
  tmax = 380;

implementation

procedure tform1.timer1timer(sender:tobject);
begin
with form1.Image1.Canvas do
  begin


//Schema unu

   Brush.Color:=clblack;
   Rectangle(0,0,500,800);
   Brush.Color:=clwhite;

   Polygon([Point(120,120+tDown),Point(170,120+tDown),Point(170,320+tDown),Point(120,320+tDown)]);

   Polygon([Point(170-tLeft,170),Point(220-tLeft,220),Point(220-tLeft,320),Point(170-tLeft,320)]);
   Polygon([Point(220+tLeft,220),Point(270+tLeft,170),Point(270+tLeft,320),Point(220+tLeft,320)]);

   Polygon([Point(270,120+tDown),Point(320,120+tDown),Point(320,320+tDown),Point(270,320+tDown)]);

   Polygon([Point(170,120+tDown2),Point(220,170+tDown2),Point(270,120+tDown2),Point(270,170+tDown2),Point(220,220+tDown2),Point(170,170+tDown2)]);

   Polygon([Point(170-tLeft2,120+tDown3),Point(220-tLeft2,120+tDown3),Point(220-tLeft2,170+tDown3)]);
   Polygon([Point(270+tLeft2,120+tDown3),Point(220+tLeft2,120+tDown3),Point(220+tLeft2,170+tDown3)]);

//Maini

   Brush.Color:=RGB(88,94,87);
   //Mana1
   Polygon([Point(0,197+tDown),Point(0+mLeft-mLeft2,197+tDown),Point(0+mLeft-mLeft2,203+tDown),Point(0,203+tDown)]);
   Polygon([Point(433,197+tDown),Point(433-mLeft+mLeft2,197+tDown),Point(433-mLeft+mLeft2,203+tDown),Point(433,203+tDown)]);
   //Mana2
   Polygon([Point(0,225),Point(0+mLeft+50-mLeft2,225),Point(0+mLeft+50-mLeft2,231),Point(0,231)]);
   Polygon([Point(433,225),Point(433-mLeft-50+mLeft2,225),Point(433-mLeft-50+mLeft2,231),Point(433,231)]);
   //Mana3
   Polygon([Point(220-tLeft2,142+tDown3-retract),Point(220+tLeft2,142+tDown3-retract),Point(220+tLeft2,147+tDown3-retract),Point(220-tLeft2,147+tDown3-retract)]);
   //Mana4
   Polygon([Point(216,0-retract),Point(223,0-retract),Point(223,0+tDown2+tDown-retract),Point(220,6+tDown2+tDown-retract),Point(216,0+tDown2+tDown-retract)]);




//Intro
   Brush.Color:=clwhite;
   Polygon([Point(120,120+aux),Point(320,120+aux),Point(320,320+aux),Point(120,320+aux)]);
   Brush.Color:=clblack;
   Polygon([Point(0,320+aux2),Point(500,320+aux2),Point(500,800+aux2),Point(0,800+aux2)]);
   Brush.Color:=RGB(88,94,87);
   //Cut
   Polygon([Point(0,7+x),Point(500,7+x),Point(500,13+x),Point(0,13+x)]);
   Polygon([Point(100,0+x),Point(340,0+x),Point(340,20+x),Point(100,20+x)]);


   if dirx then x:=x+1;

   if(x>120) then aux:=aux+1;
   if(x>320) then aux2:=aux2+1;

   if(x>400) then

   begin


   if directie then t:=t+1;


   if directie and (mLeft<145) then mLeft:=t;

   if(t>300) then

   begin
                    //distanta
   if directie and (tDown<200) then tDown:=t-300;


   if directie and (tLeft<50) and (t>600) then tLeft:=t-600;

               if directie and (mLeft2<5000) and (t>600) then mLeft2:=t-600;

   if directie and (tDown2<200) and (t>650) then tDown2:=t-650;


   if directie and (tDown3<50) and (t>900) then tDown3:=t-900;


   if directie and (tLeft2<50) and (t>1050) then tLeft2:=t-1050;


   if directie and (retract<500) and (t>1150) then retract:=t-1150;


        end;
     end;
  end;
end;
{$R *.dfm}

end.