:040000008A15C8296C
:10000600023083120313FC00C830FD00FD0B0928E3
:06001600FC0B09280800A4
:10001C00033083120313FD00FD0B122800000000B7
:02002C000800CA
:02002E000800C8
:0E0030008312031328088A00270882000800A4
:10003E00831203132B1D7A28AB1C35282B1C2A2860
:10004E002D30F0002C282B30F00052088400700860
:10005E008000D20AA90A0319AA0A65282B1C402877
:10006E005208840020308000D20AA90A0319AA0A75
:10007E006528C0302B05F1002C080839F2007208F3
:10008E00083A031D4C2880307106031D652852085E
:10009E00840030308000D20AA90A0319AA0AAB1EC6
:1000AE005B285830F0005D287830F000520884004C
:1000BE0070088000D20AA90A0319AA0A300831046E
:1000CE00031979285208840030308000D20AA90A18
:1000DE000319AA0A0130B002031CB103300831041F
:1000EE00031D6928E8283008310403199028AB193C
:1000FE0090285208840020308000D20AA90A0319E1
:10010E00AA0A0130B002031CB10330083104031DEA
:10011E008028AB1CA2282B1C97282D30F000992884
:10012E002B30F0005208840070088000D20AA90A11
:10013E000319AA0AAC282B1CAC28520884002030C4
:10014E008000D20AA90A0319AA0AC0302B05F100B1
:10015E002C080839F2007208083A031DB8284030FE
:10016E007106031DC3285208840030308000D20A65
:10017E00A90A0319AA0AE828C0302B05F1002C0899
:10018E000839F2007208083A031DCF288030710634
:10019E00031DE8285208840030308000D20AA90AD4
:1001AE000319AA0AAB1EDE285830F000E02878307A
:1001BE00F0005208840070088000D20AA90A0319C0
:1001CE00AA0A8030F00080302F067002031DF1283D
:1001DE002E082D020318FC285208840030308000AF
:1001EE00D20AA90A0319AA0AE8285208F000080040
:1001FE001B2983120313AB15D20A0319D30A5A29EA
:10020E002B14D20A0319D30A5A29AB14D20A031992
:10021E00D30A5A29AC15D20A0319D30A5A292B1517
:10022E00D20A0319D30A5A29831203135208A700BC
:10023E005308A80018208A110A12F10071082D3AED
:10024E00031900295208A7005308A80018208A1184
:10025E000A12F1007108203A031907295208A70063
:10026E005308A80018208A110A12F10071082B3ABF
:10027E0003190C295208A7005308A80018208A1148
:10028E000A12F1007108233A031911295208A70026
:10029E005308A80018208A110A12F1007108303A8A
:1002AE00031916295B29FF28AB1C5E292B10AB1DE9
:0E02BE0061292B115208F0005308F1000800CE
:1002CC0083120313D21B6C2986116D298615521BC0
:1002DC007129061172290615D21A762986107729EA
:1002EC008614521A7B2906107C290614261880299C
:1002FC00061681290612861617208612D21988290D
:10030C0086118929861552198D2906118E290615F3
:10031C00D218922986109329861452189729061000
:10032C009829061426189C2906169D29061286164D
:10033C0017208612261CA4290320A5290E200800AC
:10034C0083120313FB01FA01F9018030F800F10C60
:10035C00F00C031CBA297408F90775080318750FFB
:10036C00FA070318FB0A0310F01FC2297408FA07D6
:10037C0075080318750FFB07FB0CFA0CF90CF80C3D
:10038C00031CAD297B08F3007A08F2007908F10010
:06039C007808F0000800E3
:1003A200831203135208393C031CDE2930305202F7
:0E03B200031CDE290130F000DF29F0010800F5
:1003C00083120313F801F9011030FC00710DF80DD0
:1003D000F90D7408F8027508031C750FF90203186B
:1003E000F8297408F80775080318750FF907031042
:0A03F000F00DF10DFC0BE6290800EA
:0E03FA00F201F101F001F801F30100300800FA
:100408007B15FB1F0E2A0130F300F201F101F00108
:08041800FA0DF20CFF300800A0
:08042000FA1FF213003008007E
:06042800FB15FF30080087
:10042E0083120313A901AA01AB01AC014B08F00022
:10043E004C08F100CB0A0319CC0A7008A70071080A
:10044E00A80018208A110A12F0007008AD0070087A
:10045E000319AC2E2D08253A03193E2A4A088400AA
:10046E002D088000CA0AA90A0319AA0A1D2AB0017A
:10047E00B101AB01AC014B08D2004C08D300FF20F8
:10048E007008CB007108CC007008A7007108A80096
:10049E0018208A110A12F0000030F1007008D20004
:1004AE00D121700803198D2AB001B1013008F00076
:1004BE003108F1000A30F4000030F500A6214B0897
:1004CE00A7004C08A80018208A110A12F200720820
:1004DE007007B00071080318013EB1003030B00251
:1004EE00031CB103CB0A0319CC0A4B08A7004C0816
:1004FE00A80018208A110A12F0000030F1007008CE
:10050E00D200D1217008031D5D2AB02A4B08A70026
:10051E004C08A80018208A110A12F10071082A3A14
:10052E00031DB02A4D0884000008F00070088400F6
:10053E000008B000840A0008B1004D0884000230A3
:10054E000007F0004D08840070088000CB0A0319E4
:10055E00CC0A4B08A7004C08A80018208A110A12D2
:10056E00F10071082E3A031D162BCB0A0319CC0A83
:10057E004B08A7004C08A80018208A110A12F10097
:10058E0071082A3A031DE32A4D0884000008F00082
:10059E00700884000008AE00840A0008AF004D0801
:1005AE00840002300007F0004D08840070088000BF
:1005BE00CB0A0319CC0A152BAE01AF014B08A700CD
:1005CE004C08A80018208A110A12F0000030F10021
:1005DE007008D200D12170080319152B2E08F000D7
:1005EE002F08F1000A30F4000030F500A6214B0868
:1005FE00A7004C08A80018208A110A12F2007208EF
:10060E007007AE0071080318013EAF003030AE0225
:10061E00031CAF03CB0A0319CC0AE52A182BAE0133
:10062E00AF014B08F0004C08F100CB0A0319CC0ABD
:10063E007008A7007108A80018208A110A12AD00D0
:10064E00F02B2908F0002A08F100B02E2B17212CD0
:10065E00212CAB16AB17212C4D0884000008F0009E
:10066E00700884000008CE004D088400000AF000D7
:10067E004D088400700880004E08003A031D492B77
:10068E002130CE00CF01D0014F084E078400000864
:10069E0003195E2B4F08013EF00000300318013E97
:1006AE005007F1007008CF007108D0004B2B2E08B8
:1006BE002F0403196E2B50082F02031D682B4F08B1
:1006CE002E0203186E2B2E08CF002F08D0003108F3
:1006DE005002031D742B30084F0203187D2B4F0858
:1006EE00B002031CB1035008B1027F2BB001B1015F
:1006FE00AB19962B3008F0003108F1000130B00232
:10070E00031CB103700871040319962B4A08840068
:10071E0020308000CA0AA90A0319AA0A812B4F08A1
:10072E00F2005008F30001304F02F0000030031CBD
:10073E00013E5002F1007008CF007108D00072081F
:10074E0073040319BB2B4E0884000008F0004A08FE
:10075E00840070088000CA0A4E0AF0007008CE00AD
:10076E00A90A0319AA0A962BAB1DD22B3008F0004A
:10077E003108F1000130B002031CB103700871049E
:10078E000319D22B4A08840020308000CA0AA90A15
:10079E000319AA0ABD2B1D2A4D0884000008F0007B
:1007AE00700884000008AD004D0884000230000778
:1007BE00F0004D088400700880002D30CE0001300E
:1007CE00CF000030D0005E2BC030AB040030AC0444
:1007DE00212C2D08003A0319282B2D086C3A0319E9
:1007EE002D2B2D084C3A03192D2B2D086F3A03197A
:1007FE002D2B2D08643A03192F2B2D08693A031956
:10080E002F2B2D08703A0319302B2D08583A031947
:10081E00302B2D08783A0319312B2D08733A031912
:10082E00332B2D08633A0319D32B2D08753A031970
:10083E00EB2BE42BC0302B05F1002C08F20000301E
:10084E00F20500307206031D2E2C00307106031DBA
:10085E00602C4D0884000008F00070088400000829
:10086E00CE00840A0008CF004D0884000230000735
:10087E00F0004D0884007008800080304F06F000B4
:10088E0080307002031D4D2C00304E0203185F2C79
:10089E000330AB040030AC044E08003CF0004F08AF
:1008AE00031C013EF101F1027008CE007108CF0069
:1008BE00742C4D0884000008F000700884000008B5
:1008CE00CE00840A0008CF004D08840002300007D5
:1008DE00F0004D0884007008800000302F06031DC4
:1008EE007A2C00302E06031D872C00304F06031D78
:1008FE00822C00304E06031D872CAE0A0319AF0A58
:10090E00C0302B05F0007008F400142D0130AD003E
:10091E002D08053A0319B92C2D08F000F101F00D40
:10092E00F10D70104930F0070A300318013EF1073F
:10093E007008A7007108A80018208A110A12F20088
:10094E00A70A0319A80A18208A110A12F3007308BD
:10095E004F02031DB42C72084E020318B72CB92C8B
:10096E00AD0A8F2C242D0130AD002D08043A031949
:10097E00E62C2D08F000F101F00DF10D7010533042
:10098E00F0070A300318013EF1077008A70071083E
:10099E00A80018208A110A12F200A70A0319A80A41
:1009AE0018208A110A12F30073084F02031DE12C5E
:1009BE0072084E020318E42CE62CAD0ABC2C242D32
:1009CE000130AD002D08063A0319132D2D08F00045
:1009DE00F101F00DF10D70103130F0070A300318EF
:1009EE00013EF1077008A7007108A80018208A11AF
:1009FE000A12F200A70A0319A80A18208A110A126D
:100A0E00F30073084F02031D0E2D72084E020318D9
:100A1E00112D132DAD0AE92C242D7408003A03195B
:100A2E008D2C7408C03A03198D2C7408803A031962
:100A3E00BA2C7408403A0319E72C8030F00080304D
:100A4E002F067002031D2D2D2E082D020318322D98
:100A5E002E08AD00402D80302F06F0008030700241
:100A6E00031D3B2D2D082E020318402D2D08AE0020
:100A7E00AF01300831040319532D03302B05F0005C
:100A8E002C08F1000030F105700871040319532D84
:100A9E000130B002031CB10380302F06F00080300D
:100AAE0031067002031D5D2D30082E020318662DCF
:100ABE002E08B002031CB1032F08B102682DB0013D
:100ACE00B101C4302B05F1002C080839F200720870
:100ADE00083A031D742D40307106031D7F2D30081A
:100AEE00310403197E2D0130B002031CB1039F2D7A
:100AFE00C0302B05F1002C080839F2007208083AB4
:100B0E00031D8B2D80307106031D9F2D8030F0004C
:100B1E00803031067002031D962D3008023C0318FA
:100B2E009D2D0230B002031CB1039F2DB001B10107
:100B3E004A08D2001F207008CA002E08F0002F08A5
:100B4E00F1000130AE02031CAF03700871040319EB
:100B5E008E2EC0302B05F0007008D100752E2E0899
:100B6E00F0002F08F100F00DF10D70104930F00774
:100B7E000A300318013EF1077008A7007108A8009B
:100B8E0018208A110A12F400A70A0319A80A1820BD
:100B9E008A110A12F5004E08F0004F08F100E0210C
:100BAE000A30F4000030F500E0217808F0007908F2
:100BBE00F10030307007AD00852EAB1E1A2E2E08B8
:100BCE00F0002F08F100F00DF10D70105330F0070A
:100BDE000A300318013EF1077008A7007108A8003B
:100BEE0018208A110A12F400A70A0319A80A18205D
:100BFE008A110A12F5004E08F0004F08F100E021AC
:100C0E000F30F0050030F1050F30F0070A300318F1
:100C1E00013EF1077008A7007108A80018208A117C
:100C2E000A12AD004D2E2E08F0002F08F100F00D27
:100C3E00F10D70105330F0070A300318013EF10722
:100C4E007008A7007108A80018208A110A12F40073
:100C5E00A70A0319A80A18208A110A12F5004E08CD
:100C6E00F0004F08F100E0210F30F0050030F105E3
:100C7E002030F0070A300318013EF1077008A70074
:100C8E007108A80018208A110A12AD00852E2E08B0
:100C9E00F0002F08F100F00DF10D70103130F0075B
:100CAE000A300318013EF1077008A7007108A8006A
:100CBE0018208A110A12F400A70A0319A80A18208C
:100CCE008A110A12F5004E08F0004F08F100E021DB
:100CDE0007307005AD003030AD07852E5108003A53
:100CEE000319B62D5108C03A0319B62D5108803A92
:100CFE000319E42D5108403A03194E2E4A08840078
:100D0E002D088000CA0AA90A0319AA0AA42DAB1D30
:100D1E00AB2E8030F000803031067002031D992E0C
:100D2E003008003C0318AB2E4A08840020308000A7
:100D3E00CA0AA90A0319AA0A0130B002031CB10398
:100D4E0030083104031D9B2E1D2A2908F0002A08A5
:040D5E00F100080098
:100D6200A0017208031DC62E7108F2007008F1007E
:100D7200F001A0157208031DC62E7108F200F101E0
:100D8200A011201672080319D42E2008F302031DA5
:100D9200031CD82E0310F21BDC2EF00DF10DF20D08
:100DA200F30BCC2ED82E0130FC00FD21DF2E0230B9
:0E0DB200FC000422DF2E0430FC00102208009A
:100DC0007B14FB1FEB2EF201FA1FFF30F200F10043
:0A0DD000F000FA0DF20CFF300800ED
:100DDA00FB14FB1FF72EFF30F300F200F100F000C6
:080DEA00FA0DF20CFF300800C5
:100DF2008312031326104A08D20066212614080023
:100E0200831203131F149F149F1C082F052F1F10FA
:100E12001E08F200F301F20DF30D7210F20DF30D44
:100E220072100630F10083161E08F00071080319D3
:100E32001E2FF00CF013FF3E182F0030F100720845
:100E4200F0047308F1047408F0047508F1047008E2
:080E5200F4007108F50008002E
:100E5A0083120313FB017308031D77080319842FF8
:100E6A0072087606FA007708F3077E30031C412FD2
:100E7A00F3020318872F442FF302031C8A2F7208E8
:100E8A00F8007108FC007008FD00F817F617031047
:100E9A00F201F101F0011830A0007D1C5E2F7408E8
:100EAA00F00775080318750FF10776080318760F0F
:100EBA00F207F20CF10CF00CF80CFC0CFD0C031010
:100ECA00A00B522FF21B6E2FF80DF00DF10DF20D43
:100EDA00F3037B1B701C802FF81F802FF00A031965
:100EEA00F10A0319F20A031D802FF20CF10CF00C1F
:100EFA00F30A0319872FFA1FF21300308C2F0130DF
:100F0A00FD218C2F0230ED268C2F043004220000A4
:020F1A000800CD
:100F1C0083120313FB0173080319CB2F7208FA0019
:100F2C00F2178E30F302F31FCE2FF309F30A0830B9
:100F3C007302031CB12FF300F10D7208F100F201E2
:100F4C0008307302031CB12FF300F10DF10173088B
:100F5C00031D0310B92F73080319B92F0310F20CDA
:100F6C00F10CF30BB42F7B1B711CC32F031CC32F71
:100F7C00F10A0319F20AF21BDA2FFA1FDD2FF2091C
:100F8C00F109F10A0319F20ADD2FF201F101DD2F4B
:100F9C007B14FB1FE02FF201FA1FE02FFF30F20051
:100FAC00F100FA0DF20CE02F0130FC00E22F0030C2
:100FBC00FC00E22FFF30FC00FC080319E62FE026B2
:0A0FCC007108F0007208F10008003F
:100FD600FF3083160313910083129F131F139F1272
:100FE6001F129F111F119F101F1083161F139F1290
:080FF6001F16FF308500080002
:101000008316031386120612061086100611861127
:1010100083128612061286110611861006108A1196
:1010200003208A158A1103208A158A1103208A1544
:101030008614061486168A1117208A1586128A11BC
:1010400003208A1586168A1117208A1586128A119E
:1010500003208A1586168A1117208A1586128A118E
:1010600003208A15061086168A1117208A15861203
:101070008A1103208A1586168A1117208A1586126E
:101080008610861586168A1117208A1586128A11EF
:1010900003208A158611061486168A1117208A15D0
:1010A0008612061086168A1117208A1586128A1152
:1010B00003208A1586168A1117208A1586120614AF
:1010C00086168A1117208A1586128A1103208A151E
:1010D000061086168A1117208A158612861506159F
:1010E0008614061486168A1117208A1586128A110C
:0810F00003208A1526140800F4
:1010F800453083120313C9004208CA004308CB00D5
:101108004408CC004930CD008A1117228A1570088E
:10111800C7007108C80070084207840080014708AA
:08112800F0004808F100080086
:10113000AA28803083120313C200BD28C030C20029
:10114000BD289430C200BD28D430C200BD288030F4
:10115000C200BD28831203134208013A03199928DB
:101160004208023A03199E284208033A0319A128AB
:101170004208043A0319A428A7284303F0004208B0
:10118000F0077008C2007008D2008A1166218A1523
:101190002610C50145084407840000080319DA2811
:1011A0004508440784000008CA008A11F9268A15F8
:0811B000C50ACA282614080034
:1011B8008A1118208A150A128000840AA70A0319BE
:0A11C800A80AF003031DDC2808004C
:1011D200831203137408003A031D04297508003AA8
:1011E200031D04297608003A031D04297708003AF2
:1011F200031D0429FF30F000FF30F1007F30F200C0
:10120200FF30F300A72983120313770803199329E8
:10121200730803199829720876068039FA00F217C2
:10122200F617A0017208F8007108FC007008FD00B2
:101232007408FD027508031C750FFC027608031C76
:10124200760FF802F801FC01FD01031C2F2903109F
:10125200F20CF10CF00CF80C0130A0007708F3024C
:10126200031C39297E302007F30703189D293E29E4
:101272007E302007F307031CA2291830FA07FD0D60
:10128200FC0DF80DF00DF10DF20DA00D7408F00239
:101292007508031C750FF1027608031C760FF20223
:1012A200760DA004201C57297D1462297408F007CA
:1012B20075080318750FF10776080318760AF20706
:1012C2007D10FA031F307A05031D40297B1B7D1C0C
:1012D20089290310F00DF10DF20DA00D7408F00232
:1012E2007508031C750FF1027608031C760FF202D3
:1012F200760D20040139FD070318FC0A0319F80AC8
:10130200031D8929F80CFC0CFD0CF30A03199D2915
:10131200FA1FF8137808F2007C08F1007D08F0004B
:101322000030A62901308A1114228A15A62902301A
:101332008A11FD218A15A62904308A11ED268A1503
:0E134200A62908308A1104228A15000008002E
:10135000831203137008F8007108F000F101F20124
:10136000F301FB01FC019630F300FA01F01FBE29E6
:10137000F809F009F80A0319F00AFA177008F100E1
:101380007808F000F801F2018A11B1268A150800E8
:10139000602200200C30D2008A1166218A158A1141
:1013A000EB278A158A1101278A15A8210030F4003D
:1013B0000030F5006030F6007F30F7008A112D27ED
:1013C0008A150030F400C030F5007F30F600883018
:1013D000F700E9208A118E278A153230C2003D308D
:1013E000C3000A30C4007008C5007108C6007C2024
:1013F0000130C2000130C3003230C40098202130D7
:10140000FC007630FD00FD0B032AFC0B032A0000D4
:04141000D229092AAA
:1014C00021308400053083120313F0005B30A70045
:0814D0000A30A800DC2008002E
:10141E003034313432343334343435343634373482
:10142E003834393441344234433444344534463408
:02143E00003478
:101440003034313432343334343435343634373460
:101450003834393461346234633464346534663426
:02146000003456
:10146200013400340834003440340034003402348F
:08147200003410340034803412
:10147A0043346F346E34763420343D34203425348A
:08148A006434203420340034E6
:10149200013400340A34003464340034E834033450
:0414A20010342734A7
:1014A6000134003410340034003401340034103474
:0A14B6006E3475346C346C3400346D
:02400E00F21F9F
:00000001FF
